; ModuleID = 'test2.ll'
source_filename = "test.c"
target datalayout = "e-m:e-p:32:32-i64:64-n32:64-S128"
target triple = "wasm32-unknown-emscripten"

@.str = private unnamed_addr constant [19 x i8] c"Hello, World!: %i\0A\00", align 1

; Function Attrs: noinline nounwind optnone
define hidden i32 @main() local_unnamed_addr #0 {
entry:
  %retval = alloca i32, align 4
  %i = alloca i32, align 4
  %sum = alloca i32, align 4
  store i32 0, i32* %retval, align 4
  store i32 0, i32* %i, align 4
  store i32 0, i32* %sum, align 4
  br label %for.cond

for.cond:                                         ; preds = %for.inc, %entry
  %0 = load i32, i32* %i, align 4
  %cmp = icmp slt i32 %0, 10
  br i1 %cmp, label %for.body, label %for.end

for.body:                                         ; preds = %for.cond
  %1 = load i32, i32* %i, align 4
  %2 = load i32, i32* %sum, align 4
  %add = add nsw i32 %2, %1
  store i32 %add, i32* %sum, align 4
  br label %for.inc

for.inc:                                          ; preds = %for.body
  %3 = load i32, i32* %i, align 4
  %inc = add nsw i32 %3, 1
  store i32 %inc, i32* %i, align 4
  br label %for.cond

for.end:                                          ; preds = %for.cond
  %4 = load i32, i32* %sum, align 4
  %call = call i32 (i8*, ...) @printf(i8* getelementptr inbounds ([19 x i8], [19 x i8]* @.str, i32 0, i32 0), i32 %4)
  ret i32 0
}

; Function Attrs: nofree nounwind
declare i32 @printf(i8* nocapture readonly, ...) local_unnamed_addr #1

attributes #0 = { noinline nounwind optnone "correctly-rounded-divide-sqrt-fp-math"="false" "disable-tail-calls"="false" "frame-pointer"="none" "less-precise-fpmad"="false" "min-legal-vector-width"="0" "no-infs-fp-math"="false" "no-jump-tables"="false" "no-nans-fp-math"="false" "no-signed-zeros-fp-math"="false" "no-trapping-math"="true" "stack-protector-buffer-size"="8" "target-cpu"="generic" "unsafe-fp-math"="false" "use-soft-float"="false" }
attributes #1 = { nofree nounwind "correctly-rounded-divide-sqrt-fp-math"="false" "disable-tail-calls"="false" "frame-pointer"="none" "less-precise-fpmad"="false" "no-infs-fp-math"="false" "no-nans-fp-math"="false" "no-signed-zeros-fp-math"="false" "no-trapping-math"="true" "stack-protector-buffer-size"="8" "target-cpu"="generic" "unsafe-fp-math"="false" "use-soft-float"="false" }

!llvm.module.flags = !{!0}
!llvm.ident = !{!1}

!0 = !{i32 1, !"wchar_size", i32 4}
!1 = !{!"clang version 11.0.0 (/b/s/w/ir/cache/git/chromium.googlesource.com-external-github.com-llvm-llvm--project 613c4a87ba9bb39d1927402f4dd4c1ef1f9a02f7)"}
