; ModuleID = '/data/Code/wasm-optimizer-study/Projects/squoosh/Source/squoosh/codecs/avif/node_modules/libaom/av1/common/av1_rtcd.c'
source_filename = "/data/Code/wasm-optimizer-study/Projects/squoosh/Source/squoosh/codecs/avif/node_modules/libaom/av1/common/av1_rtcd.c"
target datalayout = "e-m:e-p:32:32-i64:64-n32:64-S128"
target triple = "wasm32-unknown-emscripten"

@aom_once.done = internal global i32 0, align 4

; Function Attrs: nounwind
define hidden void @av1_rtcd() #0 {
entry:
  call void @aom_once(void ()* @setup_rtcd_internal)
  ret void
}

; Function Attrs: nounwind
define internal void @aom_once(void ()* %func) #0 {
entry:
  %func.addr = alloca void ()*, align 4
  store void ()* %func, void ()** %func.addr, align 4, !tbaa !2
  %0 = load i32, i32* @aom_once.done, align 4, !tbaa !6
  %tobool = icmp ne i32 %0, 0
  br i1 %tobool, label %if.end, label %if.then

if.then:                                          ; preds = %entry
  %1 = load void ()*, void ()** %func.addr, align 4, !tbaa !2
  call void %1()
  store i32 1, i32* @aom_once.done, align 4, !tbaa !6
  br label %if.end

if.end:                                           ; preds = %if.then, %entry
  ret void
}

; Function Attrs: nounwind
define internal void @setup_rtcd_internal() #0 {
entry:
  ret void
}

attributes #0 = { nounwind "correctly-rounded-divide-sqrt-fp-math"="false" "disable-tail-calls"="false" "frame-pointer"="none" "less-precise-fpmad"="false" "min-legal-vector-width"="0" "no-infs-fp-math"="false" "no-jump-tables"="false" "no-nans-fp-math"="false" "no-signed-zeros-fp-math"="false" "no-trapping-math"="true" "stack-protector-buffer-size"="8" "target-cpu"="generic" "unsafe-fp-math"="false" "use-soft-float"="false" }

!llvm.module.flags = !{!0}
!llvm.ident = !{!1}

!0 = !{i32 1, !"wchar_size", i32 4}
!1 = !{!"clang version 11.0.0 (/b/s/w/ir/cache/git/chromium.googlesource.com-external-github.com-llvm-llvm--project 613c4a87ba9bb39d1927402f4dd4c1ef1f9a02f7)"}
!2 = !{!3, !3, i64 0}
!3 = !{!"any pointer", !4, i64 0}
!4 = !{!"omnipotent char", !5, i64 0}
!5 = !{!"Simple C/C++ TBAA"}
!6 = !{!7, !7, i64 0}
!7 = !{!"int", !4, i64 0}
