; ModuleID = '/data/Code/wasm-optimizer-study/Projects/squoosh/Source/squoosh/codecs/avif/node_modules/libaom/av1/common/txb_common.c'
source_filename = "/data/Code/wasm-optimizer-study/Projects/squoosh/Source/squoosh/codecs/avif/node_modules/libaom/av1/common/txb_common.c"
target datalayout = "e-m:e-p:32:32-i64:64-n32:64-S128"
target triple = "wasm32-unknown-emscripten"

@av1_coeff_band_4x4 = hidden constant [16 x i8] c"\00\01\02\03\04\05\06\07\08\09\0A\0B\0C\0D\0E\0F", align 16
@av1_coeff_band_8x8 = hidden constant [64 x i8] c"\00\01\02\02\03\03\04\04\05\06\02\02\03\03\04\04\07\07\08\08\09\09\0A\0A\07\07\08\08\09\09\0A\0A\0B\0B\0C\0C\0D\0D\0E\0E\0B\0B\0C\0C\0D\0D\0E\0E\0F\0F\10\10\11\11\12\12\0F\0F\10\10\11\11\12\12", align 16
@av1_coeff_band_16x16 = hidden constant [256 x i8] c"\00\01\04\04\07\07\07\07\08\08\08\08\09\09\09\09\02\03\04\04\07\07\07\07\08\08\08\08\09\09\09\09\05\05\06\06\07\07\07\07\08\08\08\08\09\09\09\09\05\05\06\06\07\07\07\07\08\08\08\08\09\09\09\09\0A\0A\0A\0A\0B\0B\0B\0B\0C\0C\0C\0C\0D\0D\0D\0D\0A\0A\0A\0A\0B\0B\0B\0B\0C\0C\0C\0C\0D\0D\0D\0D\0A\0A\0A\0A\0B\0B\0B\0B\0C\0C\0C\0C\0D\0D\0D\0D\0A\0A\0A\0A\0B\0B\0B\0B\0C\0C\0C\0C\0D\0D\0D\0D\0E\0E\0E\0E\0F\0F\0F\0F\10\10\10\10\11\11\11\11\0E\0E\0E\0E\0F\0F\0F\0F\10\10\10\10\11\11\11\11\0E\0E\0E\0E\0F\0F\0F\0F\10\10\10\10\11\11\11\11\0E\0E\0E\0E\0F\0F\0F\0F\10\10\10\10\11\11\11\11\12\12\12\12\13\13\13\13\14\14\14\14\15\15\15\15\12\12\12\12\13\13\13\13\14\14\14\14\15\15\15\15\12\12\12\12\13\13\13\13\14\14\14\14\15\15\15\15\12\12\12\12\13\13\13\13\14\14\14\14\15\15\15\15", align 16
@av1_coeff_band_32x32 = hidden constant [1024 x i8] c"\00\01\04\04\07\07\07\07\0A\0A\0A\0A\0A\0A\0A\0A\0B\0B\0B\0B\0B\0B\0B\0B\0C\0C\0C\0C\0C\0C\0C\0C\02\03\04\04\07\07\07\07\0A\0A\0A\0A\0A\0A\0A\0A\0B\0B\0B\0B\0B\0B\0B\0B\0C\0C\0C\0C\0C\0C\0C\0C\05\05\06\06\07\07\07\07\0A\0A\0A\0A\0A\0A\0A\0A\0B\0B\0B\0B\0B\0B\0B\0B\0C\0C\0C\0C\0C\0C\0C\0C\05\05\06\06\07\07\07\07\0A\0A\0A\0A\0A\0A\0A\0A\0B\0B\0B\0B\0B\0B\0B\0B\0C\0C\0C\0C\0C\0C\0C\0C\08\08\08\08\09\09\09\09\0A\0A\0A\0A\0A\0A\0A\0A\0B\0B\0B\0B\0B\0B\0B\0B\0C\0C\0C\0C\0C\0C\0C\0C\08\08\08\08\09\09\09\09\0A\0A\0A\0A\0A\0A\0A\0A\0B\0B\0B\0B\0B\0B\0B\0B\0C\0C\0C\0C\0C\0C\0C\0C\08\08\08\08\09\09\09\09\0A\0A\0A\0A\0A\0A\0A\0A\0B\0B\0B\0B\0B\0B\0B\0B\0C\0C\0C\0C\0C\0C\0C\0C\08\08\08\08\09\09\09\09\0A\0A\0A\0A\0A\0A\0A\0A\0B\0B\0B\0B\0B\0B\0B\0B\0C\0C\0C\0C\0C\0C\0C\0C\0D\0D\0D\0D\0D\0D\0D\0D\0E\0E\0E\0E\0E\0E\0E\0E\0F\0F\0F\0F\0F\0F\0F\0F\10\10\10\10\10\10\10\10\0D\0D\0D\0D\0D\0D\0D\0D\0E\0E\0E\0E\0E\0E\0E\0E\0F\0F\0F\0F\0F\0F\0F\0F\10\10\10\10\10\10\10\10\0D\0D\0D\0D\0D\0D\0D\0D\0E\0E\0E\0E\0E\0E\0E\0E\0F\0F\0F\0F\0F\0F\0F\0F\10\10\10\10\10\10\10\10\0D\0D\0D\0D\0D\0D\0D\0D\0E\0E\0E\0E\0E\0E\0E\0E\0F\0F\0F\0F\0F\0F\0F\0F\10\10\10\10\10\10\10\10\0D\0D\0D\0D\0D\0D\0D\0D\0E\0E\0E\0E\0E\0E\0E\0E\0F\0F\0F\0F\0F\0F\0F\0F\10\10\10\10\10\10\10\10\0D\0D\0D\0D\0D\0D\0D\0D\0E\0E\0E\0E\0E\0E\0E\0E\0F\0F\0F\0F\0F\0F\0F\0F\10\10\10\10\10\10\10\10\0D\0D\0D\0D\0D\0D\0D\0D\0E\0E\0E\0E\0E\0E\0E\0E\0F\0F\0F\0F\0F\0F\0F\0F\10\10\10\10\10\10\10\10\0D\0D\0D\0D\0D\0D\0D\0D\0E\0E\0E\0E\0E\0E\0E\0E\0F\0F\0F\0F\0F\0F\0F\0F\10\10\10\10\10\10\10\10\11\11\11\11\11\11\11\11\12\12\12\12\12\12\12\12\13\13\13\13\13\13\13\13\14\14\14\14\14\14\14\14\11\11\11\11\11\11\11\11\12\12\12\12\12\12\12\12\13\13\13\13\13\13\13\13\14\14\14\14\14\14\14\14\11\11\11\11\11\11\11\11\12\12\12\12\12\12\12\12\13\13\13\13\13\13\13\13\14\14\14\14\14\14\14\14\11\11\11\11\11\11\11\11\12\12\12\12\12\12\12\12\13\13\13\13\13\13\13\13\14\14\14\14\14\14\14\14\11\11\11\11\11\11\11\11\12\12\12\12\12\12\12\12\13\13\13\13\13\13\13\13\14\14\14\14\14\14\14\14\11\11\11\11\11\11\11\11\12\12\12\12\12\12\12\12\13\13\13\13\13\13\13\13\14\14\14\14\14\14\14\14\11\11\11\11\11\11\11\11\12\12\12\12\12\12\12\12\13\13\13\13\13\13\13\13\14\14\14\14\14\14\14\14\11\11\11\11\11\11\11\11\12\12\12\12\12\12\12\12\13\13\13\13\13\13\13\13\14\14\14\14\14\14\14\14\15\15\15\15\15\15\15\15\16\16\16\16\16\16\16\16\17\17\17\17\17\17\17\17\18\18\18\18\18\18\18\18\15\15\15\15\15\15\15\15\16\16\16\16\16\16\16\16\17\17\17\17\17\17\17\17\18\18\18\18\18\18\18\18\15\15\15\15\15\15\15\15\16\16\16\16\16\16\16\16\17\17\17\17\17\17\17\17\18\18\18\18\18\18\18\18\15\15\15\15\15\15\15\15\16\16\16\16\16\16\16\16\17\17\17\17\17\17\17\17\18\18\18\18\18\18\18\18\15\15\15\15\15\15\15\15\16\16\16\16\16\16\16\16\17\17\17\17\17\17\17\17\18\18\18\18\18\18\18\18\15\15\15\15\15\15\15\15\16\16\16\16\16\16\16\16\17\17\17\17\17\17\17\17\18\18\18\18\18\18\18\18\15\15\15\15\15\15\15\15\16\16\16\16\16\16\16\16\17\17\17\17\17\17\17\17\18\18\18\18\18\18\18\18\15\15\15\15\15\15\15\15\16\16\16\16\16\16\16\16\17\17\17\17\17\17\17\17\18\18\18\18\18\18\18\18", align 16
@av1_nz_map_ctx_offset_4x4 = hidden constant [16 x i8] c"\00\01\06\06\01\06\06\15\06\06\15\15\06\15\15\15", align 16
@av1_nz_map_ctx_offset_8x8 = hidden constant [64 x i8] c"\00\01\06\06\15\15\15\15\01\06\06\15\15\15\15\15\06\06\15\15\15\15\15\15\06\15\15\15\15\15\15\15\15\15\15\15\15\15\15\15\15\15\15\15\15\15\15\15\15\15\15\15\15\15\15\15\15\15\15\15\15\15\15\15", align 16
@av1_nz_map_ctx_offset_16x16 = hidden constant [256 x i8] c"\00\01\06\06\15\15\15\15\15\15\15\15\15\15\15\15\01\06\06\15\15\15\15\15\15\15\15\15\15\15\15\15\06\06\15\15\15\15\15\15\15\15\15\15\15\15\15\15\06\15\15\15\15\15\15\15\15\15\15\15\15\15\15\15\15\15\15\15\15\15\15\15\15\15\15\15\15\15\15\15\15\15\15\15\15\15\15\15\15\15\15\15\15\15\15\15\15\15\15\15\15\15\15\15\15\15\15\15\15\15\15\15\15\15\15\15\15\15\15\15\15\15\15\15\15\15\15\15\15\15\15\15\15\15\15\15\15\15\15\15\15\15\15\15\15\15\15\15\15\15\15\15\15\15\15\15\15\15\15\15\15\15\15\15\15\15\15\15\15\15\15\15\15\15\15\15\15\15\15\15\15\15\15\15\15\15\15\15\15\15\15\15\15\15\15\15\15\15\15\15\15\15\15\15\15\15\15\15\15\15\15\15\15\15\15\15\15\15\15\15\15\15\15\15\15\15\15\15\15\15\15\15\15\15\15\15\15\15\15\15\15\15\15\15\15\15\15\15\15\15\15\15\15\15\15\15", align 16
@av1_nz_map_ctx_offset_32x32 = hidden constant [1024 x i8] c"\00\01\06\06\15\15\15\15\15\15\15\15\15\15\15\15\15\15\15\15\15\15\15\15\15\15\15\15\15\15\15\15\01\06\06\15\15\15\15\15\15\15\15\15\15\15\15\15\15\15\15\15\15\15\15\15\15\15\15\15\15\15\15\15\06\06\15\15\15\15\15\15\15\15\15\15\15\15\15\15\15\15\15\15\15\15\15\15\15\15\15\15\15\15\15\15\06\15\15\15\15\15\15\15\15\15\15\15\15\15\15\15\15\15\15\15\15\15\15\15\15\15\15\15\15\15\15\15\15\15\15\15\15\15\15\15\15\15\15\15\15\15\15\15\15\15\15\15\15\15\15\15\15\15\15\15\15\15\15\15\15\15\15\15\15\15\15\15\15\15\15\15\15\15\15\15\15\15\15\15\15\15\15\15\15\15\15\15\15\15\15\15\15\15\15\15\15\15\15\15\15\15\15\15\15\15\15\15\15\15\15\15\15\15\15\15\15\15\15\15\15\15\15\15\15\15\15\15\15\15\15\15\15\15\15\15\15\15\15\15\15\15\15\15\15\15\15\15\15\15\15\15\15\15\15\15\15\15\15\15\15\15\15\15\15\15\15\15\15\15\15\15\15\15\15\15\15\15\15\15\15\15\15\15\15\15\15\15\15\15\15\15\15\15\15\15\15\15\15\15\15\15\15\15\15\15\15\15\15\15\15\15\15\15\15\15\15\15\15\15\15\15\15\15\15\15\15\15\15\15\15\15\15\15\15\15\15\15\15\15\15\15\15\15\15\15\15\15\15\15\15\15\15\15\15\15\15\15\15\15\15\15\15\15\15\15\15\15\15\15\15\15\15\15\15\15\15\15\15\15\15\15\15\15\15\15\15\15\15\15\15\15\15\15\15\15\15\15\15\15\15\15\15\15\15\15\15\15\15\15\15\15\15\15\15\15\15\15\15\15\15\15\15\15\15\15\15\15\15\15\15\15\15\15\15\15\15\15\15\15\15\15\15\15\15\15\15\15\15\15\15\15\15\15\15\15\15\15\15\15\15\15\15\15\15\15\15\15\15\15\15\15\15\15\15\15\15\15\15\15\15\15\15\15\15\15\15\15\15\15\15\15\15\15\15\15\15\15\15\15\15\15\15\15\15\15\15\15\15\15\15\15\15\15\15\15\15\15\15\15\15\15\15\15\15\15\15\15\15\15\15\15\15\15\15\15\15\15\15\15\15\15\15\15\15\15\15\15\15\15\15\15\15\15\15\15\15\15\15\15\15\15\15\15\15\15\15\15\15\15\15\15\15\15\15\15\15\15\15\15\15\15\15\15\15\15\15\15\15\15\15\15\15\15\15\15\15\15\15\15\15\15\15\15\15\15\15\15\15\15\15\15\15\15\15\15\15\15\15\15\15\15\15\15\15\15\15\15\15\15\15\15\15\15\15\15\15\15\15\15\15\15\15\15\15\15\15\15\15\15\15\15\15\15\15\15\15\15\15\15\15\15\15\15\15\15\15\15\15\15\15\15\15\15\15\15\15\15\15\15\15\15\15\15\15\15\15\15\15\15\15\15\15\15\15\15\15\15\15\15\15\15\15\15\15\15\15\15\15\15\15\15\15\15\15\15\15\15\15\15\15\15\15\15\15\15\15\15\15\15\15\15\15\15\15\15\15\15\15\15\15\15\15\15\15\15\15\15\15\15\15\15\15\15\15\15\15\15\15\15\15\15\15\15\15\15\15\15\15\15\15\15\15\15\15\15\15\15\15\15\15\15\15\15\15\15\15\15\15\15\15\15\15\15\15\15\15\15\15\15\15\15\15\15\15\15\15\15\15\15\15\15\15\15\15\15\15\15\15\15\15\15\15\15\15\15\15\15\15\15\15\15\15\15\15\15\15\15\15\15\15\15\15\15\15\15\15\15\15\15\15\15\15\15\15\15\15\15\15\15\15\15\15\15\15\15\15\15\15\15\15\15\15\15\15\15\15\15\15\15\15\15\15\15\15\15\15\15\15\15\15\15\15\15\15\15\15\15\15\15\15\15\15\15\15\15\15\15\15\15\15\15\15\15\15\15\15\15\15\15\15\15\15\15\15\15\15\15\15\15\15\15\15\15\15\15\15\15\15\15\15\15\15\15\15\15\15\15\15\15\15\15\15\15\15\15\15\15\15\15\15\15\15\15\15\15\15\15\15\15\15\15\15\15\15\15\15\15\15\15\15\15\15\15\15\15\15\15\15\15\15\15\15\15\15\15\15\15\15\15\15\15\15\15\15\15\15\15\15\15\15\15\15\15\15\15\15\15\15\15\15\15\15\15", align 16
@av1_nz_map_ctx_offset_8x4 = hidden constant [32 x i8] c"\00\10\06\06\15\15\15\15\10\10\06\15\15\15\15\15\10\10\15\15\15\15\15\15\10\10\15\15\15\15\15\15", align 16
@av1_nz_map_ctx_offset_8x16 = hidden constant [128 x i8] c"\00\0B\0B\0B\0B\0B\0B\0B\0B\0B\0B\0B\0B\0B\0B\0B\06\06\15\15\15\15\15\15\06\15\15\15\15\15\15\15\15\15\15\15\15\15\15\15\15\15\15\15\15\15\15\15\15\15\15\15\15\15\15\15\15\15\15\15\15\15\15\15\15\15\15\15\15\15\15\15\15\15\15\15\15\15\15\15\15\15\15\15\15\15\15\15\15\15\15\15\15\15\15\15\15\15\15\15\15\15\15\15\15\15\15\15\15\15\15\15\15\15\15\15\15\15\15\15\15\15\15\15\15\15\15\15", align 16
@av1_nz_map_ctx_offset_16x8 = hidden constant [128 x i8] c"\00\10\06\06\15\15\15\15\15\15\15\15\15\15\15\15\10\10\06\15\15\15\15\15\15\15\15\15\15\15\15\15\10\10\15\15\15\15\15\15\15\15\15\15\15\15\15\15\10\10\15\15\15\15\15\15\15\15\15\15\15\15\15\15\10\10\15\15\15\15\15\15\15\15\15\15\15\15\15\15\10\10\15\15\15\15\15\15\15\15\15\15\15\15\15\15\10\10\15\15\15\15\15\15\15\15\15\15\15\15\15\15\10\10\15\15\15\15\15\15\15\15\15\15\15\15\15\15", align 16
@av1_nz_map_ctx_offset_16x32 = hidden constant [512 x i8] c"\00\0B\0B\0B\0B\0B\0B\0B\0B\0B\0B\0B\0B\0B\0B\0B\0B\0B\0B\0B\0B\0B\0B\0B\0B\0B\0B\0B\0B\0B\0B\0B\06\06\15\15\15\15\15\15\15\15\15\15\15\15\15\15\06\15\15\15\15\15\15\15\15\15\15\15\15\15\15\15\15\15\15\15\15\15\15\15\15\15\15\15\15\15\15\15\15\15\15\15\15\15\15\15\15\15\15\15\15\15\15\15\15\15\15\15\15\15\15\15\15\15\15\15\15\15\15\15\15\15\15\15\15\15\15\15\15\15\15\15\15\15\15\15\15\15\15\15\15\15\15\15\15\15\15\15\15\15\15\15\15\15\15\15\15\15\15\15\15\15\15\15\15\15\15\15\15\15\15\15\15\15\15\15\15\15\15\15\15\15\15\15\15\15\15\15\15\15\15\15\15\15\15\15\15\15\15\15\15\15\15\15\15\15\15\15\15\15\15\15\15\15\15\15\15\15\15\15\15\15\15\15\15\15\15\15\15\15\15\15\15\15\15\15\15\15\15\15\15\15\15\15\15\15\15\15\15\15\15\15\15\15\15\15\15\15\15\15\15\15\15\15\15\15\15\15\15\15\15\15\15\15\15\15\15\15\15\15\15\15\15\15\15\15\15\15\15\15\15\15\15\15\15\15\15\15\15\15\15\15\15\15\15\15\15\15\15\15\15\15\15\15\15\15\15\15\15\15\15\15\15\15\15\15\15\15\15\15\15\15\15\15\15\15\15\15\15\15\15\15\15\15\15\15\15\15\15\15\15\15\15\15\15\15\15\15\15\15\15\15\15\15\15\15\15\15\15\15\15\15\15\15\15\15\15\15\15\15\15\15\15\15\15\15\15\15\15\15\15\15\15\15\15\15\15\15\15\15\15\15\15\15\15\15\15\15\15\15\15\15\15\15\15\15\15\15\15\15\15\15\15\15\15\15\15\15\15\15\15\15\15\15\15\15\15\15\15\15\15\15\15\15\15\15\15\15\15\15\15\15\15\15\15\15\15\15\15\15\15\15\15\15\15\15\15\15\15\15\15\15\15\15\15\15\15\15\15\15\15\15\15\15\15\15\15\15\15\15\15\15\15\15\15\15\15\15\15\15\15\15\15\15\15\15\15\15\15\15\15\15\15\15\15\15\15\15\15\15", align 16
@av1_nz_map_ctx_offset_32x16 = hidden constant [512 x i8] c"\00\10\06\06\15\15\15\15\15\15\15\15\15\15\15\15\15\15\15\15\15\15\15\15\15\15\15\15\15\15\15\15\10\10\06\15\15\15\15\15\15\15\15\15\15\15\15\15\15\15\15\15\15\15\15\15\15\15\15\15\15\15\15\15\10\10\15\15\15\15\15\15\15\15\15\15\15\15\15\15\15\15\15\15\15\15\15\15\15\15\15\15\15\15\15\15\10\10\15\15\15\15\15\15\15\15\15\15\15\15\15\15\15\15\15\15\15\15\15\15\15\15\15\15\15\15\15\15\10\10\15\15\15\15\15\15\15\15\15\15\15\15\15\15\15\15\15\15\15\15\15\15\15\15\15\15\15\15\15\15\10\10\15\15\15\15\15\15\15\15\15\15\15\15\15\15\15\15\15\15\15\15\15\15\15\15\15\15\15\15\15\15\10\10\15\15\15\15\15\15\15\15\15\15\15\15\15\15\15\15\15\15\15\15\15\15\15\15\15\15\15\15\15\15\10\10\15\15\15\15\15\15\15\15\15\15\15\15\15\15\15\15\15\15\15\15\15\15\15\15\15\15\15\15\15\15\10\10\15\15\15\15\15\15\15\15\15\15\15\15\15\15\15\15\15\15\15\15\15\15\15\15\15\15\15\15\15\15\10\10\15\15\15\15\15\15\15\15\15\15\15\15\15\15\15\15\15\15\15\15\15\15\15\15\15\15\15\15\15\15\10\10\15\15\15\15\15\15\15\15\15\15\15\15\15\15\15\15\15\15\15\15\15\15\15\15\15\15\15\15\15\15\10\10\15\15\15\15\15\15\15\15\15\15\15\15\15\15\15\15\15\15\15\15\15\15\15\15\15\15\15\15\15\15\10\10\15\15\15\15\15\15\15\15\15\15\15\15\15\15\15\15\15\15\15\15\15\15\15\15\15\15\15\15\15\15\10\10\15\15\15\15\15\15\15\15\15\15\15\15\15\15\15\15\15\15\15\15\15\15\15\15\15\15\15\15\15\15\10\10\15\15\15\15\15\15\15\15\15\15\15\15\15\15\15\15\15\15\15\15\15\15\15\15\15\15\15\15\15\15\10\10\15\15\15\15\15\15\15\15\15\15\15\15\15\15\15\15\15\15\15\15\15\15\15\15\15\15\15\15\15\15", align 16
@av1_nz_map_ctx_offset_32x64 = hidden constant [1024 x i8] c"\00\0B\0B\0B\0B\0B\0B\0B\0B\0B\0B\0B\0B\0B\0B\0B\0B\0B\0B\0B\0B\0B\0B\0B\0B\0B\0B\0B\0B\0B\0B\0B\0B\0B\0B\0B\0B\0B\0B\0B\0B\0B\0B\0B\0B\0B\0B\0B\0B\0B\0B\0B\0B\0B\0B\0B\0B\0B\0B\0B\0B\0B\0B\0B\06\06\15\15\15\15\15\15\15\15\15\15\15\15\15\15\15\15\15\15\15\15\15\15\15\15\15\15\15\15\15\15\06\15\15\15\15\15\15\15\15\15\15\15\15\15\15\15\15\15\15\15\15\15\15\15\15\15\15\15\15\15\15\15\15\15\15\15\15\15\15\15\15\15\15\15\15\15\15\15\15\15\15\15\15\15\15\15\15\15\15\15\15\15\15\15\15\15\15\15\15\15\15\15\15\15\15\15\15\15\15\15\15\15\15\15\15\15\15\15\15\15\15\15\15\15\15\15\15\15\15\15\15\15\15\15\15\15\15\15\15\15\15\15\15\15\15\15\15\15\15\15\15\15\15\15\15\15\15\15\15\15\15\15\15\15\15\15\15\15\15\15\15\15\15\15\15\15\15\15\15\15\15\15\15\15\15\15\15\15\15\15\15\15\15\15\15\15\15\15\15\15\15\15\15\15\15\15\15\15\15\15\15\15\15\15\15\15\15\15\15\15\15\15\15\15\15\15\15\15\15\15\15\15\15\15\15\15\15\15\15\15\15\15\15\15\15\15\15\15\15\15\15\15\15\15\15\15\15\15\15\15\15\15\15\15\15\15\15\15\15\15\15\15\15\15\15\15\15\15\15\15\15\15\15\15\15\15\15\15\15\15\15\15\15\15\15\15\15\15\15\15\15\15\15\15\15\15\15\15\15\15\15\15\15\15\15\15\15\15\15\15\15\15\15\15\15\15\15\15\15\15\15\15\15\15\15\15\15\15\15\15\15\15\15\15\15\15\15\15\15\15\15\15\15\15\15\15\15\15\15\15\15\15\15\15\15\15\15\15\15\15\15\15\15\15\15\15\15\15\15\15\15\15\15\15\15\15\15\15\15\15\15\15\15\15\15\15\15\15\15\15\15\15\15\15\15\15\15\15\15\15\15\15\15\15\15\15\15\15\15\15\15\15\15\15\15\15\15\15\15\15\15\15\15\15\15\15\15\15\15\15\15\15\15\15\15\15\15\15\15\15\15\15\15\15\15\15\15\15\15\15\15\15\15\15\15\15\15\15\15\15\15\15\15\15\15\15\15\15\15\15\15\15\15\15\15\15\15\15\15\15\15\15\15\15\15\15\15\15\15\15\15\15\15\15\15\15\15\15\15\15\15\15\15\15\15\15\15\15\15\15\15\15\15\15\15\15\15\15\15\15\15\15\15\15\15\15\15\15\15\15\15\15\15\15\15\15\15\15\15\15\15\15\15\15\15\15\15\15\15\15\15\15\15\15\15\15\15\15\15\15\15\15\15\15\15\15\15\15\15\15\15\15\15\15\15\15\15\15\15\15\15\15\15\15\15\15\15\15\15\15\15\15\15\15\15\15\15\15\15\15\15\15\15\15\15\15\15\15\15\15\15\15\15\15\15\15\15\15\15\15\15\15\15\15\15\15\15\15\15\15\15\15\15\15\15\15\15\15\15\15\15\15\15\15\15\15\15\15\15\15\15\15\15\15\15\15\15\15\15\15\15\15\15\15\15\15\15\15\15\15\15\15\15\15\15\15\15\15\15\15\15\15\15\15\15\15\15\15\15\15\15\15\15\15\15\15\15\15\15\15\15\15\15\15\15\15\15\15\15\15\15\15\15\15\15\15\15\15\15\15\15\15\15\15\15\15\15\15\15\15\15\15\15\15\15\15\15\15\15\15\15\15\15\15\15\15\15\15\15\15\15\15\15\15\15\15\15\15\15\15\15\15\15\15\15\15\15\15\15\15\15\15\15\15\15\15\15\15\15\15\15\15\15\15\15\15\15\15\15\15\15\15\15\15\15\15\15\15\15\15\15\15\15\15\15\15\15\15\15\15\15\15\15\15\15\15\15\15\15\15\15\15\15\15\15\15\15\15\15\15\15\15\15\15\15\15\15\15\15\15\15\15\15\15\15\15\15\15\15\15\15\15\15\15\15\15\15\15\15\15\15\15\15\15\15\15\15\15\15\15\15\15\15\15\15\15\15\15\15\15\15\15\15\15\15\15\15\15\15\15\15\15\15\15\15\15\15\15\15\15\15\15\15\15\15\15\15\15\15\15\15\15\15\15\15\15\15\15\15\15\15\15\15\15\15\15\15\15\15\15\15\15\15\15\15\15\15\15\15\15\15\15\15\15\15\15\15\15", align 16
@av1_nz_map_ctx_offset_64x32 = hidden constant [1024 x i8] c"\00\10\06\06\15\15\15\15\15\15\15\15\15\15\15\15\15\15\15\15\15\15\15\15\15\15\15\15\15\15\15\15\10\10\06\15\15\15\15\15\15\15\15\15\15\15\15\15\15\15\15\15\15\15\15\15\15\15\15\15\15\15\15\15\10\10\15\15\15\15\15\15\15\15\15\15\15\15\15\15\15\15\15\15\15\15\15\15\15\15\15\15\15\15\15\15\10\10\15\15\15\15\15\15\15\15\15\15\15\15\15\15\15\15\15\15\15\15\15\15\15\15\15\15\15\15\15\15\10\10\15\15\15\15\15\15\15\15\15\15\15\15\15\15\15\15\15\15\15\15\15\15\15\15\15\15\15\15\15\15\10\10\15\15\15\15\15\15\15\15\15\15\15\15\15\15\15\15\15\15\15\15\15\15\15\15\15\15\15\15\15\15\10\10\15\15\15\15\15\15\15\15\15\15\15\15\15\15\15\15\15\15\15\15\15\15\15\15\15\15\15\15\15\15\10\10\15\15\15\15\15\15\15\15\15\15\15\15\15\15\15\15\15\15\15\15\15\15\15\15\15\15\15\15\15\15\10\10\15\15\15\15\15\15\15\15\15\15\15\15\15\15\15\15\15\15\15\15\15\15\15\15\15\15\15\15\15\15\10\10\15\15\15\15\15\15\15\15\15\15\15\15\15\15\15\15\15\15\15\15\15\15\15\15\15\15\15\15\15\15\10\10\15\15\15\15\15\15\15\15\15\15\15\15\15\15\15\15\15\15\15\15\15\15\15\15\15\15\15\15\15\15\10\10\15\15\15\15\15\15\15\15\15\15\15\15\15\15\15\15\15\15\15\15\15\15\15\15\15\15\15\15\15\15\10\10\15\15\15\15\15\15\15\15\15\15\15\15\15\15\15\15\15\15\15\15\15\15\15\15\15\15\15\15\15\15\10\10\15\15\15\15\15\15\15\15\15\15\15\15\15\15\15\15\15\15\15\15\15\15\15\15\15\15\15\15\15\15\10\10\15\15\15\15\15\15\15\15\15\15\15\15\15\15\15\15\15\15\15\15\15\15\15\15\15\15\15\15\15\15\10\10\15\15\15\15\15\15\15\15\15\15\15\15\15\15\15\15\15\15\15\15\15\15\15\15\15\15\15\15\15\15\10\10\15\15\15\15\15\15\15\15\15\15\15\15\15\15\15\15\15\15\15\15\15\15\15\15\15\15\15\15\15\15\10\10\15\15\15\15\15\15\15\15\15\15\15\15\15\15\15\15\15\15\15\15\15\15\15\15\15\15\15\15\15\15\10\10\15\15\15\15\15\15\15\15\15\15\15\15\15\15\15\15\15\15\15\15\15\15\15\15\15\15\15\15\15\15\10\10\15\15\15\15\15\15\15\15\15\15\15\15\15\15\15\15\15\15\15\15\15\15\15\15\15\15\15\15\15\15\10\10\15\15\15\15\15\15\15\15\15\15\15\15\15\15\15\15\15\15\15\15\15\15\15\15\15\15\15\15\15\15\10\10\15\15\15\15\15\15\15\15\15\15\15\15\15\15\15\15\15\15\15\15\15\15\15\15\15\15\15\15\15\15\10\10\15\15\15\15\15\15\15\15\15\15\15\15\15\15\15\15\15\15\15\15\15\15\15\15\15\15\15\15\15\15\10\10\15\15\15\15\15\15\15\15\15\15\15\15\15\15\15\15\15\15\15\15\15\15\15\15\15\15\15\15\15\15\10\10\15\15\15\15\15\15\15\15\15\15\15\15\15\15\15\15\15\15\15\15\15\15\15\15\15\15\15\15\15\15\10\10\15\15\15\15\15\15\15\15\15\15\15\15\15\15\15\15\15\15\15\15\15\15\15\15\15\15\15\15\15\15\10\10\15\15\15\15\15\15\15\15\15\15\15\15\15\15\15\15\15\15\15\15\15\15\15\15\15\15\15\15\15\15\10\10\15\15\15\15\15\15\15\15\15\15\15\15\15\15\15\15\15\15\15\15\15\15\15\15\15\15\15\15\15\15\10\10\15\15\15\15\15\15\15\15\15\15\15\15\15\15\15\15\15\15\15\15\15\15\15\15\15\15\15\15\15\15\10\10\15\15\15\15\15\15\15\15\15\15\15\15\15\15\15\15\15\15\15\15\15\15\15\15\15\15\15\15\15\15\10\10\15\15\15\15\15\15\15\15\15\15\15\15\15\15\15\15\15\15\15\15\15\15\15\15\15\15\15\15\15\15\10\10\15\15\15\15\15\15\15\15\15\15\15\15\15\15\15\15\15\15\15\15\15\15\15\15\15\15\15\15\15\15", align 16
@av1_nz_map_ctx_offset_4x16 = hidden constant [64 x i8] c"\00\0B\0B\0B\0B\0B\0B\0B\06\06\15\15\06\15\15\15\15\15\15\15\15\15\15\15\15\15\15\15\15\15\15\15\15\15\15\15\15\15\15\15\15\15\15\15\15\15\15\15\15\15\15\15\15\15\15\15\15\15\15\15\15\15\15\15", align 16
@av1_nz_map_ctx_offset_16x4 = hidden constant [64 x i8] c"\00\10\06\06\15\15\15\15\15\15\15\15\15\15\15\15\10\10\06\15\15\15\15\15\15\15\15\15\15\15\15\15\10\10\15\15\15\15\15\15\15\15\15\15\15\15\15\15\10\10\15\15\15\15\15\15\15\15\15\15\15\15\15\15", align 16
@av1_nz_map_ctx_offset_8x32 = hidden constant [256 x i8] c"\00\0B\0B\0B\0B\0B\0B\0B\0B\0B\0B\0B\0B\0B\0B\0B\06\06\15\15\15\15\15\15\06\15\15\15\15\15\15\15\15\15\15\15\15\15\15\15\15\15\15\15\15\15\15\15\15\15\15\15\15\15\15\15\15\15\15\15\15\15\15\15\15\15\15\15\15\15\15\15\15\15\15\15\15\15\15\15\15\15\15\15\15\15\15\15\15\15\15\15\15\15\15\15\15\15\15\15\15\15\15\15\15\15\15\15\15\15\15\15\15\15\15\15\15\15\15\15\15\15\15\15\15\15\15\15\15\15\15\15\15\15\15\15\15\15\15\15\15\15\15\15\15\15\15\15\15\15\15\15\15\15\15\15\15\15\15\15\15\15\15\15\15\15\15\15\15\15\15\15\15\15\15\15\15\15\15\15\15\15\15\15\15\15\15\15\15\15\15\15\15\15\15\15\15\15\15\15\15\15\15\15\15\15\15\15\15\15\15\15\15\15\15\15\15\15\15\15\15\15\15\15\15\15\15\15\15\15\15\15\15\15\15\15\15\15\15\15\15\15\15\15\15\15\15\15\15\15\15\15\15\15\15\15", align 16
@av1_nz_map_ctx_offset_32x8 = hidden constant [256 x i8] c"\00\10\06\06\15\15\15\15\15\15\15\15\15\15\15\15\15\15\15\15\15\15\15\15\15\15\15\15\15\15\15\15\10\10\06\15\15\15\15\15\15\15\15\15\15\15\15\15\15\15\15\15\15\15\15\15\15\15\15\15\15\15\15\15\10\10\15\15\15\15\15\15\15\15\15\15\15\15\15\15\15\15\15\15\15\15\15\15\15\15\15\15\15\15\15\15\10\10\15\15\15\15\15\15\15\15\15\15\15\15\15\15\15\15\15\15\15\15\15\15\15\15\15\15\15\15\15\15\10\10\15\15\15\15\15\15\15\15\15\15\15\15\15\15\15\15\15\15\15\15\15\15\15\15\15\15\15\15\15\15\10\10\15\15\15\15\15\15\15\15\15\15\15\15\15\15\15\15\15\15\15\15\15\15\15\15\15\15\15\15\15\15\10\10\15\15\15\15\15\15\15\15\15\15\15\15\15\15\15\15\15\15\15\15\15\15\15\15\15\15\15\15\15\15\10\10\15\15\15\15\15\15\15\15\15\15\15\15\15\15\15\15\15\15\15\15\15\15\15\15\15\15\15\15\15\15", align 16
@av1_nz_map_ctx_offset = hidden global [19 x i8*] [i8* getelementptr inbounds ([16 x i8], [16 x i8]* @av1_nz_map_ctx_offset_4x4, i32 0, i32 0), i8* getelementptr inbounds ([64 x i8], [64 x i8]* @av1_nz_map_ctx_offset_8x8, i32 0, i32 0), i8* getelementptr inbounds ([256 x i8], [256 x i8]* @av1_nz_map_ctx_offset_16x16, i32 0, i32 0), i8* getelementptr inbounds ([1024 x i8], [1024 x i8]* @av1_nz_map_ctx_offset_32x32, i32 0, i32 0), i8* getelementptr inbounds ([1024 x i8], [1024 x i8]* @av1_nz_map_ctx_offset_32x32, i32 0, i32 0), i8* getelementptr inbounds ([64 x i8], [64 x i8]* @av1_nz_map_ctx_offset_4x16, i32 0, i32 0), i8* getelementptr inbounds ([32 x i8], [32 x i8]* @av1_nz_map_ctx_offset_8x4, i32 0, i32 0), i8* getelementptr inbounds ([256 x i8], [256 x i8]* @av1_nz_map_ctx_offset_8x32, i32 0, i32 0), i8* getelementptr inbounds ([128 x i8], [128 x i8]* @av1_nz_map_ctx_offset_16x8, i32 0, i32 0), i8* getelementptr inbounds ([512 x i8], [512 x i8]* @av1_nz_map_ctx_offset_16x32, i32 0, i32 0), i8* getelementptr inbounds ([512 x i8], [512 x i8]* @av1_nz_map_ctx_offset_32x16, i32 0, i32 0), i8* getelementptr inbounds ([1024 x i8], [1024 x i8]* @av1_nz_map_ctx_offset_32x64, i32 0, i32 0), i8* getelementptr inbounds ([1024 x i8], [1024 x i8]* @av1_nz_map_ctx_offset_64x32, i32 0, i32 0), i8* getelementptr inbounds ([64 x i8], [64 x i8]* @av1_nz_map_ctx_offset_4x16, i32 0, i32 0), i8* getelementptr inbounds ([64 x i8], [64 x i8]* @av1_nz_map_ctx_offset_16x4, i32 0, i32 0), i8* getelementptr inbounds ([256 x i8], [256 x i8]* @av1_nz_map_ctx_offset_8x32, i32 0, i32 0), i8* getelementptr inbounds ([256 x i8], [256 x i8]* @av1_nz_map_ctx_offset_32x8, i32 0, i32 0), i8* getelementptr inbounds ([512 x i8], [512 x i8]* @av1_nz_map_ctx_offset_16x32, i32 0, i32 0), i8* getelementptr inbounds ([1024 x i8], [1024 x i8]* @av1_nz_map_ctx_offset_64x32, i32 0, i32 0)], align 16
@av1_eob_group_start = hidden constant [12 x i16] [i16 0, i16 1, i16 2, i16 3, i16 5, i16 9, i16 17, i16 33, i16 65, i16 129, i16 257, i16 513], align 16
@av1_eob_offset_bits = hidden constant [12 x i16] [i16 0, i16 0, i16 0, i16 1, i16 2, i16 3, i16 4, i16 5, i16 6, i16 7, i16 8, i16 9], align 16

!llvm.module.flags = !{!0}
!llvm.ident = !{!1}

!0 = !{i32 1, !"wchar_size", i32 4}
!1 = !{!"clang version 11.0.0 (/b/s/w/ir/cache/git/chromium.googlesource.com-external-github.com-llvm-llvm--project 613c4a87ba9bb39d1927402f4dd4c1ef1f9a02f7)"}
