; ModuleID = '/data/Code/wasm-optimizer-study/Projects/blend4web/Source/uranium/bullet/src/BulletCollision/BroadphaseCollision/btBroadphaseProxy.cpp'
source_filename = "/data/Code/wasm-optimizer-study/Projects/blend4web/Source/uranium/bullet/src/BulletCollision/BroadphaseCollision/btBroadphaseProxy.cpp"
target datalayout = "e-m:e-p:32:32-i64:64-n32:64-S128"
target triple = "wasm32-unknown-emscripten"

%struct.btInfMaskConverter = type { %union.anon }
%union.anon = type { float }

$_ZN18btInfMaskConverterC2Ei = comdat any

@_ZL14btInfinityMask = internal global %struct.btInfMaskConverter zeroinitializer, align 4
@llvm.global_ctors = appending global [1 x { i32, void ()*, i8* }] [{ i32, void ()*, i8* } { i32 65535, void ()* @_GLOBAL__sub_I_btBroadphaseProxy.cpp, i8* null }]

; Function Attrs: noinline
define internal void @__cxx_global_var_init() #0 {
entry:
  %call = call %struct.btInfMaskConverter* @_ZN18btInfMaskConverterC2Ei(%struct.btInfMaskConverter* @_ZL14btInfinityMask, i32 2139095040)
  ret void
}

; Function Attrs: noinline nounwind optnone
define linkonce_odr hidden %struct.btInfMaskConverter* @_ZN18btInfMaskConverterC2Ei(%struct.btInfMaskConverter* returned %this, i32 %mask) unnamed_addr #1 comdat {
entry:
  %this.addr = alloca %struct.btInfMaskConverter*, align 4
  %mask.addr = alloca i32, align 4
  store %struct.btInfMaskConverter* %this, %struct.btInfMaskConverter** %this.addr, align 4
  store i32 %mask, i32* %mask.addr, align 4
  %this1 = load %struct.btInfMaskConverter*, %struct.btInfMaskConverter** %this.addr, align 4
  %0 = getelementptr inbounds %struct.btInfMaskConverter, %struct.btInfMaskConverter* %this1, i32 0, i32 0
  %intmask = bitcast %union.anon* %0 to i32*
  %1 = load i32, i32* %mask.addr, align 4
  store i32 %1, i32* %intmask, align 4
  ret %struct.btInfMaskConverter* %this1
}

; Function Attrs: noinline
define internal void @_GLOBAL__sub_I_btBroadphaseProxy.cpp() #0 {
entry:
  call void @__cxx_global_var_init()
  ret void
}

attributes #0 = { noinline "correctly-rounded-divide-sqrt-fp-math"="false" "disable-tail-calls"="false" "frame-pointer"="none" "less-precise-fpmad"="false" "min-legal-vector-width"="0" "no-infs-fp-math"="false" "no-jump-tables"="false" "no-nans-fp-math"="false" "no-signed-zeros-fp-math"="false" "no-trapping-math"="true" "stack-protector-buffer-size"="8" "target-cpu"="generic" "unsafe-fp-math"="false" "use-soft-float"="false" }
attributes #1 = { noinline nounwind optnone "correctly-rounded-divide-sqrt-fp-math"="false" "disable-tail-calls"="false" "frame-pointer"="none" "less-precise-fpmad"="false" "min-legal-vector-width"="0" "no-infs-fp-math"="false" "no-jump-tables"="false" "no-nans-fp-math"="false" "no-signed-zeros-fp-math"="false" "no-trapping-math"="true" "stack-protector-buffer-size"="8" "target-cpu"="generic" "unsafe-fp-math"="false" "use-soft-float"="false" }

!llvm.module.flags = !{!0}
!llvm.ident = !{!1}

!0 = !{i32 1, !"wchar_size", i32 4}
!1 = !{!"clang version 11.0.0 (/b/s/w/ir/cache/git/chromium.googlesource.com-external-github.com-llvm-llvm--project 613c4a87ba9bb39d1927402f4dd4c1ef1f9a02f7)"}
