; ModuleID = '/data/Code/wasm-optimizer-study/Projects/blend4web/Source/uranium/bullet/src/LinearMath/btSerializer.cpp'
source_filename = "/data/Code/wasm-optimizer-study/Projects/blend4web/Source/uranium/bullet/src/LinearMath/btSerializer.cpp"
target datalayout = "e-m:e-p:32:32-i64:64-n32:64-S128"
target triple = "wasm32-unknown-emscripten"

@sBulletDNAstr = hidden global [11836 x i8] c"SDNANAME\80\01\00\00m_size\00m_capacity\00*m_data\00m_collisionShapes\00m_collisionObjects\00m_constraints\00*first\00*last\00m_floats[4]\00m_el[3]\00m_basis\00m_origin\00m_rootNodeIndex\00m_subtreeSize\00m_quantizedAabbMin[3]\00m_quantizedAabbMax[3]\00m_aabbMinOrg\00m_aabbMaxOrg\00m_escapeIndex\00m_subPart\00m_triangleIndex\00m_pad[4]\00m_escapeIndexOrTriangleIndex\00m_bvhAabbMin\00m_bvhAabbMax\00m_bvhQuantization\00m_curNodeIndex\00m_useQuantization\00m_numContiguousLeafNodes\00m_numQuantizedContiguousNodes\00*m_contiguousNodesPtr\00*m_quantizedContiguousNodesPtr\00*m_subTreeInfoPtr\00m_traversalMode\00m_numSubtreeHeaders\00*m_name\00m_shapeType\00m_padding[4]\00m_collisionShapeData\00m_localScaling\00m_planeNormal\00m_planeConstant\00m_implicitShapeDimensions\00m_collisionMargin\00m_padding\00m_pos\00m_radius\00m_convexInternalShapeData\00*m_localPositionArrayPtr\00m_localPositionArraySize\00m_value\00m_pad[2]\00m_values[3]\00m_pad\00*m_vertices3f\00*m_vertices3d\00*m_indices32\00*m_3indices16\00*m_3indices8\00*m_indices16\00m_numTriangles\00m_numVertices\00*m_meshPartsPtr\00m_scaling\00m_numMeshParts\00m_meshInterface\00*m_quantizedFloatBvh\00*m_quantizedDoubleBvh\00*m_triangleInfoMap\00m_pad3[4]\00m_trimeshShapeData\00m_transform\00*m_childShape\00m_childShapeType\00m_childMargin\00*m_childShapePtr\00m_numChildShapes\00m_upAxis\00m_upIndex\00m_flags\00m_edgeV0V1Angle\00m_edgeV1V2Angle\00m_edgeV2V0Angle\00*m_hashTablePtr\00*m_nextPtr\00*m_valueArrayPtr\00*m_keyArrayPtr\00m_convexEpsilon\00m_planarEpsilon\00m_equalVertexThreshold\00m_edgeDistanceThreshold\00m_zeroAreaThreshold\00m_nextSize\00m_hashTableSize\00m_numValues\00m_numKeys\00m_gimpactSubType\00*m_unscaledPointsFloatPtr\00*m_unscaledPointsDoublePtr\00m_numUnscaledPoints\00m_padding3[4]\00*m_broadphaseHandle\00*m_collisionShape\00*m_rootCollisionShape\00m_worldTransform\00m_interpolationWorldTransform\00m_interpolationLinearVelocity\00m_interpolationAngularVelocity\00m_anisotropicFriction\00m_contactProcessingThreshold\00m_deactivationTime\00m_friction\00m_rollingFriction\00m_contactDamping\00m_contactStiffness\00m_restitution\00m_hitFraction\00m_ccdSweptSphereRadius\00m_ccdMotionThreshold\00m_hasAnisotropicFriction\00m_collisionFlags\00m_islandTag1\00m_companionId\00m_activationState1\00m_internalType\00m_checkCollideWith\00m_tau\00m_damping\00m_timeStep\00m_maxErrorReduction\00m_sor\00m_erp\00m_erp2\00m_globalCfm\00m_splitImpulsePenetrationThreshold\00m_splitImpulseTurnErp\00m_linearSlop\00m_warmstartingFactor\00m_maxGyroscopicForce\00m_singleAxisRollingFrictionThreshold\00m_numIterations\00m_solverMode\00m_restingContactRestitutionThreshold\00m_minimumSolverBatchSize\00m_splitImpulse\00m_solverInfo\00m_gravity\00m_collisionObjectData\00m_invInertiaTensorWorld\00m_linearVelocity\00m_angularVelocity\00m_angularFactor\00m_linearFactor\00m_gravity_acceleration\00m_invInertiaLocal\00m_totalForce\00m_totalTorque\00m_inverseMass\00m_linearDamping\00m_angularDamping\00m_additionalDampingFactor\00m_additionalLinearDampingThresholdSqr\00m_additionalAngularDampingThresholdSqr\00m_additionalAngularDampingFactor\00m_linearSleepingThreshold\00m_angularSleepingThreshold\00m_additionalDamping\00m_numConstraintRows\00nub\00*m_rbA\00*m_rbB\00m_objectType\00m_userConstraintType\00m_userConstraintId\00m_needsFeedback\00m_appliedImpulse\00m_dbgDrawSize\00m_disableCollisionsBetweenLinkedBodies\00m_overrideNumSolverIterations\00m_breakingImpulseThreshold\00m_isEnabled\00padding[4]\00m_typeConstraintData\00m_pivotInA\00m_pivotInB\00m_rbAFrame\00m_rbBFrame\00m_useReferenceFrameA\00m_angularOnly\00m_enableAngularMotor\00m_motorTargetVelocity\00m_maxMotorImpulse\00m_lowerLimit\00m_upperLimit\00m_limitSoftness\00m_biasFactor\00m_relaxationFactor\00m_padding1[4]\00m_swingSpan1\00m_swingSpan2\00m_twistSpan\00m_linearUpperLimit\00m_linearLowerLimit\00m_angularUpperLimit\00m_angularLowerLimit\00m_useLinearReferenceFrameA\00m_useOffsetForConstraintFrame\00m_6dofData\00m_springEnabled[6]\00m_equilibriumPoint[6]\00m_springStiffness[6]\00m_springDamping[6]\00m_linearBounce\00m_linearStopERP\00m_linearStopCFM\00m_linearMotorERP\00m_linearMotorCFM\00m_linearTargetVelocity\00m_linearMaxMotorForce\00m_linearServoTarget\00m_linearSpringStiffness\00m_linearSpringDamping\00m_linearEquilibriumPoint\00m_linearEnableMotor[4]\00m_linearServoMotor[4]\00m_linearEnableSpring[4]\00m_linearSpringStiffnessLimited[4]\00m_linearSpringDampingLimited[4]\00m_angularBounce\00m_angularStopERP\00m_angularStopCFM\00m_angularMotorERP\00m_angularMotorCFM\00m_angularTargetVelocity\00m_angularMaxMotorForce\00m_angularServoTarget\00m_angularSpringStiffness\00m_angularSpringDamping\00m_angularEquilibriumPoint\00m_angularEnableMotor[4]\00m_angularServoMotor[4]\00m_angularEnableSpring[4]\00m_angularSpringStiffnessLimited[4]\00m_angularSpringDampingLimited[4]\00m_rotateOrder\00m_axisInA\00m_axisInB\00m_ratio\00m_linearStiffness\00m_angularStiffness\00m_volumeStiffness\00*m_material\00m_position\00m_previousPosition\00m_velocity\00m_accumulatedForce\00m_normal\00m_area\00m_attach\00m_nodeIndices[2]\00m_restLength\00m_bbending\00m_nodeIndices[3]\00m_restArea\00m_c0[4]\00m_nodeIndices[4]\00m_restVolume\00m_c1\00m_c2\00m_c0\00m_localFrame\00*m_rigidBody\00m_nodeIndex\00m_aeroModel\00m_baumgarte\00m_drag\00m_lift\00m_pressure\00m_volume\00m_dynamicFriction\00m_poseMatch\00m_rigidContactHardness\00m_kineticContactHardness\00m_softContactHardness\00m_anchorHardness\00m_softRigidClusterHardness\00m_softKineticClusterHardness\00m_softSoftClusterHardness\00m_softRigidClusterImpulseSplit\00m_softKineticClusterImpulseSplit\00m_softSoftClusterImpulseSplit\00m_maxVolume\00m_timeScale\00m_velocityIterations\00m_positionIterations\00m_driftIterations\00m_clusterIterations\00m_rot\00m_scale\00m_aqq\00m_com\00*m_positions\00*m_weights\00m_numPositions\00m_numWeigts\00m_bvolume\00m_bframe\00m_framexform\00m_locii\00m_invwi\00m_vimpulses[2]\00m_dimpulses[2]\00m_lv\00m_av\00*m_framerefs\00*m_nodeIndices\00*m_masses\00m_numFrameRefs\00m_numNodes\00m_numMasses\00m_idmass\00m_imass\00m_nvimpulses\00m_ndimpulses\00m_ndamping\00m_ldamping\00m_adamping\00m_matching\00m_maxSelfCollisionImpulse\00m_selfCollisionImpulseFactor\00m_containsAnchor\00m_collide\00m_clusterIndex\00*m_bodyA\00*m_bodyB\00m_refs[2]\00m_cfm\00m_split\00m_delete\00m_relPosition[2]\00m_bodyAtype\00m_bodyBtype\00m_jointType\00*m_pose\00**m_materials\00*m_nodes\00*m_links\00*m_faces\00*m_tetrahedra\00*m_anchors\00*m_clusters\00*m_joints\00m_numMaterials\00m_numLinks\00m_numFaces\00m_numTetrahedra\00m_numAnchors\00m_numClusters\00m_numJoints\00m_config\00m_zeroRotParentToThis\00m_parentComToThisComOffset\00m_thisPivotToThisComOffset\00m_jointAxisTop[6]\00m_jointAxisBottom[6]\00m_linkInertia\00m_linkMass\00m_parentIndex\00m_dofCount\00m_posVarCount\00m_jointPos[7]\00m_jointVel[6]\00m_jointTorque[6]\00m_jointDamping\00m_jointFriction\00*m_linkName\00*m_jointName\00*m_linkCollider\00*m_paddingPtr\00m_baseWorldTransform\00m_baseInertia\00m_baseMass\00*m_baseName\00*m_baseCollider\00\00\00\00TYPE_\00\00\00char\00uchar\00short\00ushort\00int\00long\00ulong\00float\00double\00void\00PointerArray\00btPhysicsSystem\00ListBase\00btVector3FloatData\00btVector3DoubleData\00btQuaternionFloatData\00btQuaternionDoubleData\00btMatrix3x3FloatData\00btMatrix3x3DoubleData\00btTransformFloatData\00btTransformDoubleData\00btBvhSubtreeInfoData\00btOptimizedBvhNodeFloatData\00btOptimizedBvhNodeDoubleData\00btQuantizedBvhNodeData\00btQuantizedBvhFloatData\00btQuantizedBvhDoubleData\00btCollisionShapeData\00btStaticPlaneShapeData\00btConvexInternalShapeData\00btPositionAndRadius\00btMultiSphereShapeData\00btIntIndexData\00btShortIntIndexData\00btShortIntIndexTripletData\00btCharIndexTripletData\00btMeshPartData\00btStridingMeshInterfaceData\00btTriangleMeshShapeData\00btTriangleInfoMapData\00btScaledTriangleMeshShapeData\00btCompoundShapeChildData\00btCompoundShapeData\00btCylinderShapeData\00btConeShapeData\00btCapsuleShapeData\00btTriangleInfoData\00btGImpactMeshShapeData\00btConvexHullShapeData\00btCollisionObjectDoubleData\00btCollisionObjectFloatData\00btContactSolverInfoDoubleData\00btContactSolverInfoFloatData\00btDynamicsWorldDoubleData\00btDynamicsWorldFloatData\00btRigidBodyFloatData\00btRigidBodyDoubleData\00btConstraintInfo1\00btTypedConstraintFloatData\00btTypedConstraintData\00btRigidBodyData\00btTypedConstraintDoubleData\00btPoint2PointConstraintFloatData\00btPoint2PointConstraintDoubleData2\00btPoint2PointConstraintDoubleData\00btHingeConstraintDoubleData\00btHingeConstraintFloatData\00btHingeConstraintDoubleData2\00btConeTwistConstraintDoubleData\00btConeTwistConstraintData\00btGeneric6DofConstraintData\00btGeneric6DofConstraintDoubleData2\00btGeneric6DofSpringConstraintData\00btGeneric6DofSpringConstraintDoubleData2\00btGeneric6DofSpring2ConstraintData\00btGeneric6DofSpring2ConstraintDoubleData2\00btSliderConstraintData\00btSliderConstraintDoubleData\00btGearConstraintFloatData\00btGearConstraintDoubleData\00SoftBodyMaterialData\00SoftBodyNodeData\00SoftBodyLinkData\00SoftBodyFaceData\00SoftBodyTetraData\00SoftRigidAnchorData\00SoftBodyConfigData\00SoftBodyPoseData\00SoftBodyClusterData\00btSoftBodyJointData\00btSoftBodyFloatData\00btMultiBodyLinkDoubleData\00btMultiBodyLinkFloatData\00btMultiBodyDoubleData\00btMultiBodyFloatData\00\00TLEN\01\00\01\00\02\00\02\00\04\00\04\00\04\00\04\00\08\00\00\00\0C\00$\00\08\00\10\00 \00\10\00 \000\00`\00@\00\80\00\14\000\00P\00\10\00T\00\84\00\0C\004\004\00\14\00@\00\04\00\04\00\08\00\04\00 \00\1C\00<\008\00L\00L\00\18\00<\00<\00<\00\10\00@\00D\00\E0\01\08\01\98\00X\00\B8\00h\00\F0\01\B0\03\08\004\004\00\00\00D\00T\00\84\00t\00\\\01\DC\00\8C\01|\01\D4\00\FC\00\CC\01\\\01t\02\84\02\B4\04\CC\00l\01\\\00\8C\00\10\00d\00\14\00$\00d\00\\\00h\00\C0\00\\\01h\00\B4\01\D0\02x\01\C0\00d\00\00\00STRCT\00\00\00\0A\00\03\00\04\00\00\00\04\00\01\00\09\00\02\00\0B\00\03\00\0A\00\03\00\0A\00\04\00\0A\00\05\00\0C\00\02\00\09\00\06\00\09\00\07\00\0D\00\01\00\07\00\08\00\0E\00\01\00\08\00\08\00\0F\00\01\00\07\00\08\00\10\00\01\00\08\00\08\00\11\00\01\00\0D\00\09\00\12\00\01\00\0E\00\09\00\13\00\02\00\11\00\0A\00\0D\00\0B\00\14\00\02\00\12\00\0A\00\0E\00\0B\00\15\00\04\00\04\00\0C\00\04\00\0D\00\02\00\0E\00\02\00\0F\00\16\00\06\00\0D\00\10\00\0D\00\11\00\04\00\12\00\04\00\13\00\04\00\14\00\00\00\15\00\17\00\06\00\0E\00\10\00\0E\00\11\00\04\00\12\00\04\00\13\00\04\00\14\00\00\00\15\00\18\00\03\00\02\00\0E\00\02\00\0F\00\04\00\16\00\19\00\0C\00\0D\00\17\00\0D\00\18\00\0D\00\19\00\04\00\1A\00\04\00\1B\00\04\00\1C\00\04\00\1D\00\16\00\1E\00\18\00\1F\00\15\00 \00\04\00!\00\04\00\22\00\1A\00\0C\00\0E\00\17\00\0E\00\18\00\0E\00\19\00\04\00\1A\00\04\00\1B\00\04\00\1C\00\04\00\1D\00\17\00\1E\00\18\00\1F\00\04\00!\00\04\00\22\00\15\00 \00\1B\00\03\00\00\00#\00\04\00$\00\00\00%\00\1C\00\05\00\1B\00&\00\0D\00'\00\0D\00(\00\07\00)\00\00\00\15\00\1D\00\05\00\1B\00&\00\0D\00'\00\0D\00*\00\07\00+\00\04\00,\00\1E\00\02\00\0D\00-\00\07\00.\00\1F\00\04\00\1D\00/\00\1E\000\00\04\001\00\00\00%\00 \00\01\00\04\002\00!\00\02\00\02\002\00\00\003\00\22\00\02\00\02\004\00\00\003\00#\00\02\00\00\004\00\00\005\00$\00\08\00\0D\006\00\0E\007\00 \008\00\22\009\00#\00:\00!\00;\00\04\00<\00\04\00=\00%\00\04\00$\00>\00\0D\00?\00\04\00@\00\00\00%\00&\00\07\00\1B\00&\00%\00A\00\19\00B\00\1A\00C\00'\00D\00\07\00+\00\00\00E\00(\00\02\00&\00F\00\0D\00'\00)\00\04\00\13\00G\00\1B\00H\00\04\00I\00\07\00J\00*\00\04\00\1B\00&\00)\00K\00\04\00L\00\07\00+\00+\00\03\00\1D\00/\00\04\00M\00\00\00%\00,\00\03\00\1D\00/\00\04\00N\00\00\00%\00-\00\03\00\1D\00/\00\04\00M\00\00\00%\00.\00\04\00\04\00O\00\07\00P\00\07\00Q\00\07\00R\00'\00\0E\00\04\00S\00\04\00T\00.\00U\00\04\00V\00\07\00W\00\07\00X\00\07\00Y\00\07\00Z\00\07\00[\00\04\00\\\00\04\00]\00\04\00^\00\04\00_\00\00\00%\00/\00\05\00\1B\00&\00%\00A\00\0D\00'\00\07\00+\00\04\00`\000\00\05\00\1D\00/\00\0D\00a\00\0E\00b\00\04\00c\00\00\00d\001\00\1B\00\09\00e\00\09\00f\00\1B\00g\00\00\00#\00\14\00h\00\14\00i\00\0E\00j\00\0E\00k\00\0E\00l\00\08\00m\00\08\00n\00\08\00o\00\08\00p\00\08\00q\00\08\00r\00\08\00s\00\08\00t\00\08\00u\00\08\00v\00\04\00w\00\04\00x\00\04\00y\00\04\00z\00\04\00{\00\04\00|\00\04\00}\00\00\00%\002\00\1B\00\09\00e\00\09\00f\00\1B\00g\00\00\00#\00\13\00h\00\13\00i\00\0D\00j\00\0D\00k\00\0D\00l\00\07\00m\00\07\00n\00\07\00o\00\07\00p\00\07\00q\00\07\00r\00\07\00s\00\07\00t\00\07\00u\00\07\00v\00\04\00w\00\04\00x\00\04\00y\00\04\00z\00\04\00{\00\04\00|\00\04\00}\00\00\00%\003\00\16\00\08\00~\00\08\00\7F\00\08\00o\00\08\00\80\00\08\00s\00\08\00\81\00\08\00\82\00\08\00\83\00\08\00\84\00\08\00\85\00\08\00\86\00\08\00\87\00\08\00\88\00\08\00\89\00\08\00\8A\00\08\00\8B\00\04\00\8C\00\04\00\8D\00\04\00\8E\00\04\00\8F\00\04\00\90\00\00\00%\004\00\16\00\07\00~\00\07\00\7F\00\07\00o\00\07\00\80\00\07\00s\00\07\00\81\00\07\00\82\00\07\00\83\00\07\00\84\00\07\00\85\00\07\00\86\00\07\00\87\00\07\00\88\00\07\00\89\00\07\00\8A\00\07\00\8B\00\04\00\8C\00\04\00\8D\00\04\00\8E\00\04\00\8F\00\04\00\90\00\00\00%\005\00\02\003\00\91\00\0E\00\92\006\00\02\004\00\91\00\0D\00\92\007\00\15\002\00\93\00\11\00\94\00\0D\00\95\00\0D\00\96\00\0D\00\97\00\0D\00\98\00\0D\00\92\00\0D\00\99\00\0D\00\9A\00\0D\00\9B\00\0D\00\9C\00\07\00\9D\00\07\00\9E\00\07\00\9F\00\07\00\A0\00\07\00\A1\00\07\00\A2\00\07\00\A3\00\07\00\A4\00\07\00\A5\00\04\00\A6\008\00\16\001\00\93\00\12\00\94\00\0E\00\95\00\0E\00\96\00\0E\00\97\00\0E\00\98\00\0E\00\92\00\0E\00\99\00\0E\00\9A\00\0E\00\9B\00\0E\00\9C\00\08\00\9D\00\08\00\9E\00\08\00\9F\00\08\00\A0\00\08\00\A1\00\08\00\A2\00\08\00\A3\00\08\00\A4\00\08\00\A5\00\04\00\A6\00\00\00%\009\00\02\00\04\00\A7\00\04\00\A8\00:\00\0D\007\00\A9\007\00\AA\00\00\00#\00\04\00\AB\00\04\00\AC\00\04\00\AD\00\04\00\AE\00\07\00\AF\00\07\00\B0\00\04\00\B1\00\04\00\B2\00\07\00\B3\00\04\00\B4\00;\00\0D\00<\00\A9\00<\00\AA\00\00\00#\00\04\00\AB\00\04\00\AC\00\04\00\AD\00\04\00\AE\00\07\00\AF\00\07\00\B0\00\04\00\B1\00\04\00\B2\00\07\00\B3\00\04\00\B4\00=\00\0E\008\00\A9\008\00\AA\00\00\00#\00\04\00\AB\00\04\00\AC\00\04\00\AD\00\04\00\AE\00\08\00\AF\00\08\00\B0\00\04\00\B1\00\04\00\B2\00\08\00\B3\00\04\00\B4\00\00\00\B5\00>\00\03\00;\00\B6\00\0D\00\B7\00\0D\00\B8\00?\00\03\00=\00\B6\00\0E\00\B7\00\0E\00\B8\00@\00\03\00;\00\B6\00\0E\00\B7\00\0E\00\B8\00A\00\0D\00;\00\B6\00\14\00\B9\00\14\00\BA\00\04\00\BB\00\04\00\BC\00\04\00\BD\00\07\00\BE\00\07\00\BF\00\07\00\C0\00\07\00\C1\00\07\00\C2\00\07\00\C3\00\07\00\C4\00B\00\0D\00;\00\B6\00\13\00\B9\00\13\00\BA\00\04\00\BB\00\04\00\BC\00\04\00\BD\00\07\00\BE\00\07\00\BF\00\07\00\C0\00\07\00\C1\00\07\00\C2\00\07\00\C3\00\07\00\C4\00C\00\0E\00=\00\B6\00\14\00\B9\00\14\00\BA\00\04\00\BB\00\04\00\BC\00\04\00\BD\00\08\00\BE\00\08\00\BF\00\08\00\C0\00\08\00\C1\00\08\00\C2\00\08\00\C3\00\08\00\C4\00\00\00\C5\00D\00\0A\00=\00\B6\00\14\00\B9\00\14\00\BA\00\08\00\C6\00\08\00\C7\00\08\00\C8\00\08\00\C2\00\08\00\C3\00\08\00\C4\00\08\00\7F\00E\00\0B\00;\00\B6\00\13\00\B9\00\13\00\BA\00\07\00\C6\00\07\00\C7\00\07\00\C8\00\07\00\C2\00\07\00\C3\00\07\00\C4\00\07\00\7F\00\00\00\15\00F\00\09\00;\00\B6\00\13\00\B9\00\13\00\BA\00\0D\00\C9\00\0D\00\CA\00\0D\00\CB\00\0D\00\CC\00\04\00\CD\00\04\00\CE\00G\00\09\00=\00\B6\00\14\00\B9\00\14\00\BA\00\0E\00\C9\00\0E\00\CA\00\0E\00\CB\00\0E\00\CC\00\04\00\CD\00\04\00\CE\00H\00\05\00F\00\CF\00\04\00\D0\00\07\00\D1\00\07\00\D2\00\07\00\D3\00I\00\05\00G\00\CF\00\04\00\D0\00\08\00\D1\00\08\00\D2\00\08\00\D3\00J\00)\00;\00\B6\00\13\00\B9\00\13\00\BA\00\0D\00\C9\00\0D\00\CA\00\0D\00\D4\00\0D\00\D5\00\0D\00\D6\00\0D\00\D7\00\0D\00\D8\00\0D\00\D9\00\0D\00\DA\00\0D\00\DB\00\0D\00\DC\00\0D\00\DD\00\0D\00\DE\00\00\00\DF\00\00\00\E0\00\00\00\E1\00\00\00\E2\00\00\00\E3\00\00\00\C5\00\0D\00\CB\00\0D\00\CC\00\0D\00\E4\00\0D\00\E5\00\0D\00\E6\00\0D\00\E7\00\0D\00\E8\00\0D\00\E9\00\0D\00\EA\00\0D\00\EB\00\0D\00\EC\00\0D\00\ED\00\0D\00\EE\00\00\00\EF\00\00\00\F0\00\00\00\F1\00\00\00\F2\00\00\00\F3\00\04\00\F4\00K\00)\00=\00\B6\00\14\00\B9\00\14\00\BA\00\0E\00\C9\00\0E\00\CA\00\0E\00\D4\00\0E\00\D5\00\0E\00\D6\00\0E\00\D7\00\0E\00\D8\00\0E\00\D9\00\0E\00\DA\00\0E\00\DB\00\0E\00\DC\00\0E\00\DD\00\0E\00\DE\00\00\00\DF\00\00\00\E0\00\00\00\E1\00\00\00\E2\00\00\00\E3\00\00\00\C5\00\0E\00\CB\00\0E\00\CC\00\0E\00\E4\00\0E\00\E5\00\0E\00\E6\00\0E\00\E7\00\0E\00\E8\00\0E\00\E9\00\0E\00\EA\00\0E\00\EB\00\0E\00\EC\00\0E\00\ED\00\0E\00\EE\00\00\00\EF\00\00\00\F0\00\00\00\F1\00\00\00\F2\00\00\00\F3\00\04\00\F4\00L\00\09\00;\00\B6\00\13\00\B9\00\13\00\BA\00\07\00\C9\00\07\00\CA\00\07\00\CB\00\07\00\CC\00\04\00\CD\00\04\00\CE\00M\00\09\00=\00\B6\00\14\00\B9\00\14\00\BA\00\08\00\C9\00\08\00\CA\00\08\00\CB\00\08\00\CC\00\04\00\CD\00\04\00\CE\00N\00\05\00:\00\B6\00\0D\00\F5\00\0D\00\F6\00\07\00\F7\00\00\00%\00O\00\04\00=\00\B6\00\0E\00\F5\00\0E\00\F6\00\08\00\F7\00P\00\04\00\07\00\F8\00\07\00\F9\00\07\00\FA\00\04\00O\00Q\00\0A\00P\00\FB\00\0D\00\FC\00\0D\00\FD\00\0D\00\FE\00\0D\00\FF\00\0D\00\00\01\07\00\9D\00\07\00\01\01\04\00\02\01\04\005\00R\00\04\00P\00\FB\00\04\00\03\01\07\00\04\01\04\00\05\01S\00\04\00\0D\00\00\01P\00\FB\00\04\00\06\01\07\00\07\01T\00\07\00\0D\00\08\01P\00\FB\00\04\00\09\01\07\00\0A\01\07\00\0B\01\07\00\0C\01\04\005\00U\00\06\00\11\00\0D\01\0D\00\0B\01\0D\00\0E\01<\00\0F\01\04\00\10\01\07\00\0C\01V\00\1A\00\04\00\11\01\07\00\12\01\07\00\7F\00\07\00\13\01\07\00\14\01\07\00\15\01\07\00\16\01\07\00\17\01\07\00\18\01\07\00\19\01\07\00\1A\01\07\00\1B\01\07\00\1C\01\07\00\1D\01\07\00\1E\01\07\00\1F\01\07\00 \01\07\00!\01\07\00\22\01\07\00#\01\07\00$\01\04\00%\01\04\00&\01\04\00'\01\04\00(\01\04\00x\00W\00\0C\00\11\00)\01\11\00*\01\11\00+\01\0D\00,\01\0D\00-\01\07\00.\01\04\00/\01\04\000\01\04\001\01\04\002\01\07\00\0A\01\04\005\00X\00\1B\00\13\003\01\11\004\01\11\005\01\0D\00,\01\0D\006\01\0D\007\01\0D\008\01\0D\009\01\0D\00:\01\04\00;\01\07\00<\01\04\00=\01\04\00>\01\04\00?\01\07\00@\01\07\00A\01\04\00B\01\04\00C\01\07\00D\01\07\00E\01\07\00F\01\07\00G\01\07\00H\01\07\00I\01\04\00J\01\04\00K\01\04\00L\01Y\00\0C\00\09\00M\01\09\00N\01\0D\00O\01\07\00P\01\07\00\83\00\07\00Q\01\04\00R\01\0D\00S\01\04\00T\01\04\00U\01\04\00V\01\04\005\00Z\00\13\002\00\93\00W\00W\01P\00X\01Q\00Y\01R\00Z\01S\00[\01T\00\\\01U\00]\01X\00^\01Y\00_\01\04\00`\01\04\00>\01\04\00a\01\04\00b\01\04\00c\01\04\00d\01\04\00e\01\04\00f\01V\00g\01[\00\14\00\10\00h\01\0E\00i\01\0E\00j\01\0E\00k\01\0E\00l\01\0E\00m\01\08\00n\01\04\00o\01\04\00V\01\04\00p\01\04\00q\01\08\00r\01\08\00s\01\08\00t\01\08\00u\01\08\00v\01\00\00w\01\00\00x\011\00y\01\00\00z\01\\\00\14\00\0F\00h\01\0D\00i\01\0D\00j\01\0D\00k\01\0D\00l\01\0D\00m\01\04\00p\01\07\00n\01\04\00o\01\04\00V\01\07\00r\01\07\00s\01\07\00t\01\04\00q\01\07\00u\01\07\00v\01\00\00w\01\00\00x\012\00y\01\00\00z\01]\00\09\00\14\00{\01\0E\00|\01\08\00}\01\00\00~\01[\00Z\011\00\7F\01\00\00z\01\04\00a\01\00\00%\00^\00\07\00\00\00~\01\\\00Z\012\00\7F\01\13\00{\01\0D\00|\01\07\00}\01\04\00a\01", align 16
@sBulletDNAlen = hidden global i32 11836, align 4
@sBulletDNAstr64 = hidden global [11836 x i8] c"SDNANAME\80\01\00\00m_size\00m_capacity\00*m_data\00m_collisionShapes\00m_collisionObjects\00m_constraints\00*first\00*last\00m_floats[4]\00m_el[3]\00m_basis\00m_origin\00m_rootNodeIndex\00m_subtreeSize\00m_quantizedAabbMin[3]\00m_quantizedAabbMax[3]\00m_aabbMinOrg\00m_aabbMaxOrg\00m_escapeIndex\00m_subPart\00m_triangleIndex\00m_pad[4]\00m_escapeIndexOrTriangleIndex\00m_bvhAabbMin\00m_bvhAabbMax\00m_bvhQuantization\00m_curNodeIndex\00m_useQuantization\00m_numContiguousLeafNodes\00m_numQuantizedContiguousNodes\00*m_contiguousNodesPtr\00*m_quantizedContiguousNodesPtr\00*m_subTreeInfoPtr\00m_traversalMode\00m_numSubtreeHeaders\00*m_name\00m_shapeType\00m_padding[4]\00m_collisionShapeData\00m_localScaling\00m_planeNormal\00m_planeConstant\00m_implicitShapeDimensions\00m_collisionMargin\00m_padding\00m_pos\00m_radius\00m_convexInternalShapeData\00*m_localPositionArrayPtr\00m_localPositionArraySize\00m_value\00m_pad[2]\00m_values[3]\00m_pad\00*m_vertices3f\00*m_vertices3d\00*m_indices32\00*m_3indices16\00*m_3indices8\00*m_indices16\00m_numTriangles\00m_numVertices\00*m_meshPartsPtr\00m_scaling\00m_numMeshParts\00m_meshInterface\00*m_quantizedFloatBvh\00*m_quantizedDoubleBvh\00*m_triangleInfoMap\00m_pad3[4]\00m_trimeshShapeData\00m_transform\00*m_childShape\00m_childShapeType\00m_childMargin\00*m_childShapePtr\00m_numChildShapes\00m_upAxis\00m_upIndex\00m_flags\00m_edgeV0V1Angle\00m_edgeV1V2Angle\00m_edgeV2V0Angle\00*m_hashTablePtr\00*m_nextPtr\00*m_valueArrayPtr\00*m_keyArrayPtr\00m_convexEpsilon\00m_planarEpsilon\00m_equalVertexThreshold\00m_edgeDistanceThreshold\00m_zeroAreaThreshold\00m_nextSize\00m_hashTableSize\00m_numValues\00m_numKeys\00m_gimpactSubType\00*m_unscaledPointsFloatPtr\00*m_unscaledPointsDoublePtr\00m_numUnscaledPoints\00m_padding3[4]\00*m_broadphaseHandle\00*m_collisionShape\00*m_rootCollisionShape\00m_worldTransform\00m_interpolationWorldTransform\00m_interpolationLinearVelocity\00m_interpolationAngularVelocity\00m_anisotropicFriction\00m_contactProcessingThreshold\00m_deactivationTime\00m_friction\00m_rollingFriction\00m_contactDamping\00m_contactStiffness\00m_restitution\00m_hitFraction\00m_ccdSweptSphereRadius\00m_ccdMotionThreshold\00m_hasAnisotropicFriction\00m_collisionFlags\00m_islandTag1\00m_companionId\00m_activationState1\00m_internalType\00m_checkCollideWith\00m_tau\00m_damping\00m_timeStep\00m_maxErrorReduction\00m_sor\00m_erp\00m_erp2\00m_globalCfm\00m_splitImpulsePenetrationThreshold\00m_splitImpulseTurnErp\00m_linearSlop\00m_warmstartingFactor\00m_maxGyroscopicForce\00m_singleAxisRollingFrictionThreshold\00m_numIterations\00m_solverMode\00m_restingContactRestitutionThreshold\00m_minimumSolverBatchSize\00m_splitImpulse\00m_solverInfo\00m_gravity\00m_collisionObjectData\00m_invInertiaTensorWorld\00m_linearVelocity\00m_angularVelocity\00m_angularFactor\00m_linearFactor\00m_gravity_acceleration\00m_invInertiaLocal\00m_totalForce\00m_totalTorque\00m_inverseMass\00m_linearDamping\00m_angularDamping\00m_additionalDampingFactor\00m_additionalLinearDampingThresholdSqr\00m_additionalAngularDampingThresholdSqr\00m_additionalAngularDampingFactor\00m_linearSleepingThreshold\00m_angularSleepingThreshold\00m_additionalDamping\00m_numConstraintRows\00nub\00*m_rbA\00*m_rbB\00m_objectType\00m_userConstraintType\00m_userConstraintId\00m_needsFeedback\00m_appliedImpulse\00m_dbgDrawSize\00m_disableCollisionsBetweenLinkedBodies\00m_overrideNumSolverIterations\00m_breakingImpulseThreshold\00m_isEnabled\00padding[4]\00m_typeConstraintData\00m_pivotInA\00m_pivotInB\00m_rbAFrame\00m_rbBFrame\00m_useReferenceFrameA\00m_angularOnly\00m_enableAngularMotor\00m_motorTargetVelocity\00m_maxMotorImpulse\00m_lowerLimit\00m_upperLimit\00m_limitSoftness\00m_biasFactor\00m_relaxationFactor\00m_padding1[4]\00m_swingSpan1\00m_swingSpan2\00m_twistSpan\00m_linearUpperLimit\00m_linearLowerLimit\00m_angularUpperLimit\00m_angularLowerLimit\00m_useLinearReferenceFrameA\00m_useOffsetForConstraintFrame\00m_6dofData\00m_springEnabled[6]\00m_equilibriumPoint[6]\00m_springStiffness[6]\00m_springDamping[6]\00m_linearBounce\00m_linearStopERP\00m_linearStopCFM\00m_linearMotorERP\00m_linearMotorCFM\00m_linearTargetVelocity\00m_linearMaxMotorForce\00m_linearServoTarget\00m_linearSpringStiffness\00m_linearSpringDamping\00m_linearEquilibriumPoint\00m_linearEnableMotor[4]\00m_linearServoMotor[4]\00m_linearEnableSpring[4]\00m_linearSpringStiffnessLimited[4]\00m_linearSpringDampingLimited[4]\00m_angularBounce\00m_angularStopERP\00m_angularStopCFM\00m_angularMotorERP\00m_angularMotorCFM\00m_angularTargetVelocity\00m_angularMaxMotorForce\00m_angularServoTarget\00m_angularSpringStiffness\00m_angularSpringDamping\00m_angularEquilibriumPoint\00m_angularEnableMotor[4]\00m_angularServoMotor[4]\00m_angularEnableSpring[4]\00m_angularSpringStiffnessLimited[4]\00m_angularSpringDampingLimited[4]\00m_rotateOrder\00m_axisInA\00m_axisInB\00m_ratio\00m_linearStiffness\00m_angularStiffness\00m_volumeStiffness\00*m_material\00m_position\00m_previousPosition\00m_velocity\00m_accumulatedForce\00m_normal\00m_area\00m_attach\00m_nodeIndices[2]\00m_restLength\00m_bbending\00m_nodeIndices[3]\00m_restArea\00m_c0[4]\00m_nodeIndices[4]\00m_restVolume\00m_c1\00m_c2\00m_c0\00m_localFrame\00*m_rigidBody\00m_nodeIndex\00m_aeroModel\00m_baumgarte\00m_drag\00m_lift\00m_pressure\00m_volume\00m_dynamicFriction\00m_poseMatch\00m_rigidContactHardness\00m_kineticContactHardness\00m_softContactHardness\00m_anchorHardness\00m_softRigidClusterHardness\00m_softKineticClusterHardness\00m_softSoftClusterHardness\00m_softRigidClusterImpulseSplit\00m_softKineticClusterImpulseSplit\00m_softSoftClusterImpulseSplit\00m_maxVolume\00m_timeScale\00m_velocityIterations\00m_positionIterations\00m_driftIterations\00m_clusterIterations\00m_rot\00m_scale\00m_aqq\00m_com\00*m_positions\00*m_weights\00m_numPositions\00m_numWeigts\00m_bvolume\00m_bframe\00m_framexform\00m_locii\00m_invwi\00m_vimpulses[2]\00m_dimpulses[2]\00m_lv\00m_av\00*m_framerefs\00*m_nodeIndices\00*m_masses\00m_numFrameRefs\00m_numNodes\00m_numMasses\00m_idmass\00m_imass\00m_nvimpulses\00m_ndimpulses\00m_ndamping\00m_ldamping\00m_adamping\00m_matching\00m_maxSelfCollisionImpulse\00m_selfCollisionImpulseFactor\00m_containsAnchor\00m_collide\00m_clusterIndex\00*m_bodyA\00*m_bodyB\00m_refs[2]\00m_cfm\00m_split\00m_delete\00m_relPosition[2]\00m_bodyAtype\00m_bodyBtype\00m_jointType\00*m_pose\00**m_materials\00*m_nodes\00*m_links\00*m_faces\00*m_tetrahedra\00*m_anchors\00*m_clusters\00*m_joints\00m_numMaterials\00m_numLinks\00m_numFaces\00m_numTetrahedra\00m_numAnchors\00m_numClusters\00m_numJoints\00m_config\00m_zeroRotParentToThis\00m_parentComToThisComOffset\00m_thisPivotToThisComOffset\00m_jointAxisTop[6]\00m_jointAxisBottom[6]\00m_linkInertia\00m_linkMass\00m_parentIndex\00m_dofCount\00m_posVarCount\00m_jointPos[7]\00m_jointVel[6]\00m_jointTorque[6]\00m_jointDamping\00m_jointFriction\00*m_linkName\00*m_jointName\00*m_linkCollider\00*m_paddingPtr\00m_baseWorldTransform\00m_baseInertia\00m_baseMass\00*m_baseName\00*m_baseCollider\00\00\00\00TYPE_\00\00\00char\00uchar\00short\00ushort\00int\00long\00ulong\00float\00double\00void\00PointerArray\00btPhysicsSystem\00ListBase\00btVector3FloatData\00btVector3DoubleData\00btQuaternionFloatData\00btQuaternionDoubleData\00btMatrix3x3FloatData\00btMatrix3x3DoubleData\00btTransformFloatData\00btTransformDoubleData\00btBvhSubtreeInfoData\00btOptimizedBvhNodeFloatData\00btOptimizedBvhNodeDoubleData\00btQuantizedBvhNodeData\00btQuantizedBvhFloatData\00btQuantizedBvhDoubleData\00btCollisionShapeData\00btStaticPlaneShapeData\00btConvexInternalShapeData\00btPositionAndRadius\00btMultiSphereShapeData\00btIntIndexData\00btShortIntIndexData\00btShortIntIndexTripletData\00btCharIndexTripletData\00btMeshPartData\00btStridingMeshInterfaceData\00btTriangleMeshShapeData\00btTriangleInfoMapData\00btScaledTriangleMeshShapeData\00btCompoundShapeChildData\00btCompoundShapeData\00btCylinderShapeData\00btConeShapeData\00btCapsuleShapeData\00btTriangleInfoData\00btGImpactMeshShapeData\00btConvexHullShapeData\00btCollisionObjectDoubleData\00btCollisionObjectFloatData\00btContactSolverInfoDoubleData\00btContactSolverInfoFloatData\00btDynamicsWorldDoubleData\00btDynamicsWorldFloatData\00btRigidBodyFloatData\00btRigidBodyDoubleData\00btConstraintInfo1\00btTypedConstraintFloatData\00btTypedConstraintData\00btRigidBodyData\00btTypedConstraintDoubleData\00btPoint2PointConstraintFloatData\00btPoint2PointConstraintDoubleData2\00btPoint2PointConstraintDoubleData\00btHingeConstraintDoubleData\00btHingeConstraintFloatData\00btHingeConstraintDoubleData2\00btConeTwistConstraintDoubleData\00btConeTwistConstraintData\00btGeneric6DofConstraintData\00btGeneric6DofConstraintDoubleData2\00btGeneric6DofSpringConstraintData\00btGeneric6DofSpringConstraintDoubleData2\00btGeneric6DofSpring2ConstraintData\00btGeneric6DofSpring2ConstraintDoubleData2\00btSliderConstraintData\00btSliderConstraintDoubleData\00btGearConstraintFloatData\00btGearConstraintDoubleData\00SoftBodyMaterialData\00SoftBodyNodeData\00SoftBodyLinkData\00SoftBodyFaceData\00SoftBodyTetraData\00SoftRigidAnchorData\00SoftBodyConfigData\00SoftBodyPoseData\00SoftBodyClusterData\00btSoftBodyJointData\00btSoftBodyFloatData\00btMultiBodyLinkDoubleData\00btMultiBodyLinkFloatData\00btMultiBodyDoubleData\00btMultiBodyFloatData\00\00TLEN\01\00\01\00\02\00\02\00\04\00\04\00\04\00\04\00\08\00\00\00\10\000\00\10\00\10\00 \00\10\00 \000\00`\00@\00\80\00\14\000\00P\00\10\00`\00\90\00\10\008\008\00\14\00H\00\04\00\04\00\08\00\04\008\00 \00P\00H\00`\00P\00 \00@\00@\00@\00\10\00H\00P\00\F0\01\18\01\98\00X\00\B8\00h\00\00\02\C0\03\08\00@\00@\00\00\00P\00`\00\90\00\80\00h\01\E8\00\98\01\88\01\E0\00\08\01\D8\01h\01\80\02\90\02\C0\04\D8\00x\01h\00\98\00\10\00h\00\18\00(\00h\00`\00h\00\C8\00h\01p\00\E8\01\E0\02\88\01\D0\00p\00\00\00STRCT\00\00\00\0A\00\03\00\04\00\00\00\04\00\01\00\09\00\02\00\0B\00\03\00\0A\00\03\00\0A\00\04\00\0A\00\05\00\0C\00\02\00\09\00\06\00\09\00\07\00\0D\00\01\00\07\00\08\00\0E\00\01\00\08\00\08\00\0F\00\01\00\07\00\08\00\10\00\01\00\08\00\08\00\11\00\01\00\0D\00\09\00\12\00\01\00\0E\00\09\00\13\00\02\00\11\00\0A\00\0D\00\0B\00\14\00\02\00\12\00\0A\00\0E\00\0B\00\15\00\04\00\04\00\0C\00\04\00\0D\00\02\00\0E\00\02\00\0F\00\16\00\06\00\0D\00\10\00\0D\00\11\00\04\00\12\00\04\00\13\00\04\00\14\00\00\00\15\00\17\00\06\00\0E\00\10\00\0E\00\11\00\04\00\12\00\04\00\13\00\04\00\14\00\00\00\15\00\18\00\03\00\02\00\0E\00\02\00\0F\00\04\00\16\00\19\00\0C\00\0D\00\17\00\0D\00\18\00\0D\00\19\00\04\00\1A\00\04\00\1B\00\04\00\1C\00\04\00\1D\00\16\00\1E\00\18\00\1F\00\15\00 \00\04\00!\00\04\00\22\00\1A\00\0C\00\0E\00\17\00\0E\00\18\00\0E\00\19\00\04\00\1A\00\04\00\1B\00\04\00\1C\00\04\00\1D\00\17\00\1E\00\18\00\1F\00\04\00!\00\04\00\22\00\15\00 \00\1B\00\03\00\00\00#\00\04\00$\00\00\00%\00\1C\00\05\00\1B\00&\00\0D\00'\00\0D\00(\00\07\00)\00\00\00\15\00\1D\00\05\00\1B\00&\00\0D\00'\00\0D\00*\00\07\00+\00\04\00,\00\1E\00\02\00\0D\00-\00\07\00.\00\1F\00\04\00\1D\00/\00\1E\000\00\04\001\00\00\00%\00 \00\01\00\04\002\00!\00\02\00\02\002\00\00\003\00\22\00\02\00\02\004\00\00\003\00#\00\02\00\00\004\00\00\005\00$\00\08\00\0D\006\00\0E\007\00 \008\00\22\009\00#\00:\00!\00;\00\04\00<\00\04\00=\00%\00\04\00$\00>\00\0D\00?\00\04\00@\00\00\00%\00&\00\07\00\1B\00&\00%\00A\00\19\00B\00\1A\00C\00'\00D\00\07\00+\00\00\00E\00(\00\02\00&\00F\00\0D\00'\00)\00\04\00\13\00G\00\1B\00H\00\04\00I\00\07\00J\00*\00\04\00\1B\00&\00)\00K\00\04\00L\00\07\00+\00+\00\03\00\1D\00/\00\04\00M\00\00\00%\00,\00\03\00\1D\00/\00\04\00N\00\00\00%\00-\00\03\00\1D\00/\00\04\00M\00\00\00%\00.\00\04\00\04\00O\00\07\00P\00\07\00Q\00\07\00R\00'\00\0E\00\04\00S\00\04\00T\00.\00U\00\04\00V\00\07\00W\00\07\00X\00\07\00Y\00\07\00Z\00\07\00[\00\04\00\\\00\04\00]\00\04\00^\00\04\00_\00\00\00%\00/\00\05\00\1B\00&\00%\00A\00\0D\00'\00\07\00+\00\04\00`\000\00\05\00\1D\00/\00\0D\00a\00\0E\00b\00\04\00c\00\00\00d\001\00\1B\00\09\00e\00\09\00f\00\1B\00g\00\00\00#\00\14\00h\00\14\00i\00\0E\00j\00\0E\00k\00\0E\00l\00\08\00m\00\08\00n\00\08\00o\00\08\00p\00\08\00q\00\08\00r\00\08\00s\00\08\00t\00\08\00u\00\08\00v\00\04\00w\00\04\00x\00\04\00y\00\04\00z\00\04\00{\00\04\00|\00\04\00}\00\00\00%\002\00\1B\00\09\00e\00\09\00f\00\1B\00g\00\00\00#\00\13\00h\00\13\00i\00\0D\00j\00\0D\00k\00\0D\00l\00\07\00m\00\07\00n\00\07\00o\00\07\00p\00\07\00q\00\07\00r\00\07\00s\00\07\00t\00\07\00u\00\07\00v\00\04\00w\00\04\00x\00\04\00y\00\04\00z\00\04\00{\00\04\00|\00\04\00}\00\00\00%\003\00\16\00\08\00~\00\08\00\7F\00\08\00o\00\08\00\80\00\08\00s\00\08\00\81\00\08\00\82\00\08\00\83\00\08\00\84\00\08\00\85\00\08\00\86\00\08\00\87\00\08\00\88\00\08\00\89\00\08\00\8A\00\08\00\8B\00\04\00\8C\00\04\00\8D\00\04\00\8E\00\04\00\8F\00\04\00\90\00\00\00%\004\00\16\00\07\00~\00\07\00\7F\00\07\00o\00\07\00\80\00\07\00s\00\07\00\81\00\07\00\82\00\07\00\83\00\07\00\84\00\07\00\85\00\07\00\86\00\07\00\87\00\07\00\88\00\07\00\89\00\07\00\8A\00\07\00\8B\00\04\00\8C\00\04\00\8D\00\04\00\8E\00\04\00\8F\00\04\00\90\00\00\00%\005\00\02\003\00\91\00\0E\00\92\006\00\02\004\00\91\00\0D\00\92\007\00\15\002\00\93\00\11\00\94\00\0D\00\95\00\0D\00\96\00\0D\00\97\00\0D\00\98\00\0D\00\92\00\0D\00\99\00\0D\00\9A\00\0D\00\9B\00\0D\00\9C\00\07\00\9D\00\07\00\9E\00\07\00\9F\00\07\00\A0\00\07\00\A1\00\07\00\A2\00\07\00\A3\00\07\00\A4\00\07\00\A5\00\04\00\A6\008\00\16\001\00\93\00\12\00\94\00\0E\00\95\00\0E\00\96\00\0E\00\97\00\0E\00\98\00\0E\00\92\00\0E\00\99\00\0E\00\9A\00\0E\00\9B\00\0E\00\9C\00\08\00\9D\00\08\00\9E\00\08\00\9F\00\08\00\A0\00\08\00\A1\00\08\00\A2\00\08\00\A3\00\08\00\A4\00\08\00\A5\00\04\00\A6\00\00\00%\009\00\02\00\04\00\A7\00\04\00\A8\00:\00\0D\007\00\A9\007\00\AA\00\00\00#\00\04\00\AB\00\04\00\AC\00\04\00\AD\00\04\00\AE\00\07\00\AF\00\07\00\B0\00\04\00\B1\00\04\00\B2\00\07\00\B3\00\04\00\B4\00;\00\0D\00<\00\A9\00<\00\AA\00\00\00#\00\04\00\AB\00\04\00\AC\00\04\00\AD\00\04\00\AE\00\07\00\AF\00\07\00\B0\00\04\00\B1\00\04\00\B2\00\07\00\B3\00\04\00\B4\00=\00\0E\008\00\A9\008\00\AA\00\00\00#\00\04\00\AB\00\04\00\AC\00\04\00\AD\00\04\00\AE\00\08\00\AF\00\08\00\B0\00\04\00\B1\00\04\00\B2\00\08\00\B3\00\04\00\B4\00\00\00\B5\00>\00\03\00;\00\B6\00\0D\00\B7\00\0D\00\B8\00?\00\03\00=\00\B6\00\0E\00\B7\00\0E\00\B8\00@\00\03\00;\00\B6\00\0E\00\B7\00\0E\00\B8\00A\00\0D\00;\00\B6\00\14\00\B9\00\14\00\BA\00\04\00\BB\00\04\00\BC\00\04\00\BD\00\07\00\BE\00\07\00\BF\00\07\00\C0\00\07\00\C1\00\07\00\C2\00\07\00\C3\00\07\00\C4\00B\00\0D\00;\00\B6\00\13\00\B9\00\13\00\BA\00\04\00\BB\00\04\00\BC\00\04\00\BD\00\07\00\BE\00\07\00\BF\00\07\00\C0\00\07\00\C1\00\07\00\C2\00\07\00\C3\00\07\00\C4\00C\00\0E\00=\00\B6\00\14\00\B9\00\14\00\BA\00\04\00\BB\00\04\00\BC\00\04\00\BD\00\08\00\BE\00\08\00\BF\00\08\00\C0\00\08\00\C1\00\08\00\C2\00\08\00\C3\00\08\00\C4\00\00\00\C5\00D\00\0A\00=\00\B6\00\14\00\B9\00\14\00\BA\00\08\00\C6\00\08\00\C7\00\08\00\C8\00\08\00\C2\00\08\00\C3\00\08\00\C4\00\08\00\7F\00E\00\0B\00;\00\B6\00\13\00\B9\00\13\00\BA\00\07\00\C6\00\07\00\C7\00\07\00\C8\00\07\00\C2\00\07\00\C3\00\07\00\C4\00\07\00\7F\00\00\00\15\00F\00\09\00;\00\B6\00\13\00\B9\00\13\00\BA\00\0D\00\C9\00\0D\00\CA\00\0D\00\CB\00\0D\00\CC\00\04\00\CD\00\04\00\CE\00G\00\09\00=\00\B6\00\14\00\B9\00\14\00\BA\00\0E\00\C9\00\0E\00\CA\00\0E\00\CB\00\0E\00\CC\00\04\00\CD\00\04\00\CE\00H\00\05\00F\00\CF\00\04\00\D0\00\07\00\D1\00\07\00\D2\00\07\00\D3\00I\00\05\00G\00\CF\00\04\00\D0\00\08\00\D1\00\08\00\D2\00\08\00\D3\00J\00)\00;\00\B6\00\13\00\B9\00\13\00\BA\00\0D\00\C9\00\0D\00\CA\00\0D\00\D4\00\0D\00\D5\00\0D\00\D6\00\0D\00\D7\00\0D\00\D8\00\0D\00\D9\00\0D\00\DA\00\0D\00\DB\00\0D\00\DC\00\0D\00\DD\00\0D\00\DE\00\00\00\DF\00\00\00\E0\00\00\00\E1\00\00\00\E2\00\00\00\E3\00\00\00\C5\00\0D\00\CB\00\0D\00\CC\00\0D\00\E4\00\0D\00\E5\00\0D\00\E6\00\0D\00\E7\00\0D\00\E8\00\0D\00\E9\00\0D\00\EA\00\0D\00\EB\00\0D\00\EC\00\0D\00\ED\00\0D\00\EE\00\00\00\EF\00\00\00\F0\00\00\00\F1\00\00\00\F2\00\00\00\F3\00\04\00\F4\00K\00)\00=\00\B6\00\14\00\B9\00\14\00\BA\00\0E\00\C9\00\0E\00\CA\00\0E\00\D4\00\0E\00\D5\00\0E\00\D6\00\0E\00\D7\00\0E\00\D8\00\0E\00\D9\00\0E\00\DA\00\0E\00\DB\00\0E\00\DC\00\0E\00\DD\00\0E\00\DE\00\00\00\DF\00\00\00\E0\00\00\00\E1\00\00\00\E2\00\00\00\E3\00\00\00\C5\00\0E\00\CB\00\0E\00\CC\00\0E\00\E4\00\0E\00\E5\00\0E\00\E6\00\0E\00\E7\00\0E\00\E8\00\0E\00\E9\00\0E\00\EA\00\0E\00\EB\00\0E\00\EC\00\0E\00\ED\00\0E\00\EE\00\00\00\EF\00\00\00\F0\00\00\00\F1\00\00\00\F2\00\00\00\F3\00\04\00\F4\00L\00\09\00;\00\B6\00\13\00\B9\00\13\00\BA\00\07\00\C9\00\07\00\CA\00\07\00\CB\00\07\00\CC\00\04\00\CD\00\04\00\CE\00M\00\09\00=\00\B6\00\14\00\B9\00\14\00\BA\00\08\00\C9\00\08\00\CA\00\08\00\CB\00\08\00\CC\00\04\00\CD\00\04\00\CE\00N\00\05\00:\00\B6\00\0D\00\F5\00\0D\00\F6\00\07\00\F7\00\00\00%\00O\00\04\00=\00\B6\00\0E\00\F5\00\0E\00\F6\00\08\00\F7\00P\00\04\00\07\00\F8\00\07\00\F9\00\07\00\FA\00\04\00O\00Q\00\0A\00P\00\FB\00\0D\00\FC\00\0D\00\FD\00\0D\00\FE\00\0D\00\FF\00\0D\00\00\01\07\00\9D\00\07\00\01\01\04\00\02\01\04\005\00R\00\04\00P\00\FB\00\04\00\03\01\07\00\04\01\04\00\05\01S\00\04\00\0D\00\00\01P\00\FB\00\04\00\06\01\07\00\07\01T\00\07\00\0D\00\08\01P\00\FB\00\04\00\09\01\07\00\0A\01\07\00\0B\01\07\00\0C\01\04\005\00U\00\06\00\11\00\0D\01\0D\00\0B\01\0D\00\0E\01<\00\0F\01\04\00\10\01\07\00\0C\01V\00\1A\00\04\00\11\01\07\00\12\01\07\00\7F\00\07\00\13\01\07\00\14\01\07\00\15\01\07\00\16\01\07\00\17\01\07\00\18\01\07\00\19\01\07\00\1A\01\07\00\1B\01\07\00\1C\01\07\00\1D\01\07\00\1E\01\07\00\1F\01\07\00 \01\07\00!\01\07\00\22\01\07\00#\01\07\00$\01\04\00%\01\04\00&\01\04\00'\01\04\00(\01\04\00x\00W\00\0C\00\11\00)\01\11\00*\01\11\00+\01\0D\00,\01\0D\00-\01\07\00.\01\04\00/\01\04\000\01\04\001\01\04\002\01\07\00\0A\01\04\005\00X\00\1B\00\13\003\01\11\004\01\11\005\01\0D\00,\01\0D\006\01\0D\007\01\0D\008\01\0D\009\01\0D\00:\01\04\00;\01\07\00<\01\04\00=\01\04\00>\01\04\00?\01\07\00@\01\07\00A\01\04\00B\01\04\00C\01\07\00D\01\07\00E\01\07\00F\01\07\00G\01\07\00H\01\07\00I\01\04\00J\01\04\00K\01\04\00L\01Y\00\0C\00\09\00M\01\09\00N\01\0D\00O\01\07\00P\01\07\00\83\00\07\00Q\01\04\00R\01\0D\00S\01\04\00T\01\04\00U\01\04\00V\01\04\005\00Z\00\13\002\00\93\00W\00W\01P\00X\01Q\00Y\01R\00Z\01S\00[\01T\00\\\01U\00]\01X\00^\01Y\00_\01\04\00`\01\04\00>\01\04\00a\01\04\00b\01\04\00c\01\04\00d\01\04\00e\01\04\00f\01V\00g\01[\00\14\00\10\00h\01\0E\00i\01\0E\00j\01\0E\00k\01\0E\00l\01\0E\00m\01\08\00n\01\04\00o\01\04\00V\01\04\00p\01\04\00q\01\08\00r\01\08\00s\01\08\00t\01\08\00u\01\08\00v\01\00\00w\01\00\00x\011\00y\01\00\00z\01\\\00\14\00\0F\00h\01\0D\00i\01\0D\00j\01\0D\00k\01\0D\00l\01\0D\00m\01\04\00p\01\07\00n\01\04\00o\01\04\00V\01\07\00r\01\07\00s\01\07\00t\01\04\00q\01\07\00u\01\07\00v\01\00\00w\01\00\00x\012\00y\01\00\00z\01]\00\09\00\14\00{\01\0E\00|\01\08\00}\01\00\00~\01[\00Z\011\00\7F\01\00\00z\01\04\00a\01\00\00%\00^\00\07\00\00\00~\01\\\00Z\012\00\7F\01\13\00{\01\0D\00|\01\07\00}\01\04\00a\01", align 16
@sBulletDNAlen64 = hidden global i32 11836, align 4

!llvm.module.flags = !{!0}
!llvm.ident = !{!1}

!0 = !{i32 1, !"wchar_size", i32 4}
!1 = !{!"clang version 11.0.0 (/b/s/w/ir/cache/git/chromium.googlesource.com-external-github.com-llvm-llvm--project 613c4a87ba9bb39d1927402f4dd4c1ef1f9a02f7)"}
