; ModuleID = '/data/Code/wasm-optimizer-study/Projects/blend4web/Source/uranium/bullet/src/BulletCollision/CollisionShapes/btStaticPlaneShape.cpp'
source_filename = "/data/Code/wasm-optimizer-study/Projects/blend4web/Source/uranium/bullet/src/BulletCollision/CollisionShapes/btStaticPlaneShape.cpp"
target datalayout = "e-m:e-p:32:32-i64:64-n32:64-S128"
target triple = "wasm32-unknown-emscripten"

%struct.btInfMaskConverter = type { %union.anon }
%union.anon = type { float }
%class.btStaticPlaneShape = type { %class.btConcaveShape, %class.btVector3, %class.btVector3, %class.btVector3, float, %class.btVector3 }
%class.btConcaveShape = type { %class.btCollisionShape, float }
%class.btCollisionShape = type { i32 (...)**, i32, i8*, i32 }
%class.btVector3 = type { [4 x float] }
%class.btTransform = type { %class.btMatrix3x3, %class.btVector3 }
%class.btMatrix3x3 = type { [3 x %class.btVector3] }
%class.btTriangleCallback = type { i32 (...)** }
%class.btSerializer = type opaque
%struct.btStaticPlaneShapeData = type { %struct.btCollisionShapeData, %struct.btVector3FloatData, %struct.btVector3FloatData, float, [4 x i8] }
%struct.btCollisionShapeData = type { i8*, i32, [4 x i8] }
%struct.btVector3FloatData = type { [4 x float] }

$_ZN18btInfMaskConverterC2Ei = comdat any

$_ZN9btVector3C2Ev = comdat any

$_ZNK9btVector310normalizedEv = comdat any

$_ZN9btVector3C2ERKfS1_S1_ = comdat any

$_ZN18btStaticPlaneShapedlEPv = comdat any

$_ZN9btVector38setValueERKfS1_S1_ = comdat any

$_ZmlRK9btVector3RKf = comdat any

$_ZmiRK9btVector3S1_ = comdat any

$_ZNK9btVector36lengthEv = comdat any

$_ZplRK9btVector3S1_ = comdat any

$_Z13btPlaneSpace1I9btVector3EvRKT_RS1_S4_ = comdat any

$_ZmlRKfRK9btVector3 = comdat any

$_ZNK9btVector33dotERKS_ = comdat any

$_ZNK18btStaticPlaneShape7getNameEv = comdat any

$_ZNK16btCollisionShape38getAnisotropicRollingFrictionDirectionEv = comdat any

$_ZN14btConcaveShape9setMarginEf = comdat any

$_ZNK14btConcaveShape9getMarginEv = comdat any

$_ZNK18btStaticPlaneShape28calculateSerializeBufferSizeEv = comdat any

$_ZNK18btStaticPlaneShape9serializeEPvP12btSerializer = comdat any

$_ZN9btVector39normalizeEv = comdat any

$_ZN9btVector3dVERKf = comdat any

$_ZN9btVector3mLERKf = comdat any

$_Z6btSqrtf = comdat any

$_ZNK9btVector37length2Ev = comdat any

$_ZNK9btVector314serializeFloatER18btVector3FloatData = comdat any

$_Z6btFabsf = comdat any

$_ZNK9btVector3cvPKfEv = comdat any

$_ZN9btVector3cvPfEv = comdat any

@_ZL14btInfinityMask = internal global %struct.btInfMaskConverter zeroinitializer, align 4
@_ZTV18btStaticPlaneShape = hidden unnamed_addr constant { [19 x i8*] } { [19 x i8*] [i8* null, i8* bitcast ({ i8*, i8*, i8* }* @_ZTI18btStaticPlaneShape to i8*), i8* bitcast (%class.btStaticPlaneShape* (%class.btStaticPlaneShape*)* @_ZN18btStaticPlaneShapeD1Ev to i8*), i8* bitcast (void (%class.btStaticPlaneShape*)* @_ZN18btStaticPlaneShapeD0Ev to i8*), i8* bitcast (void (%class.btStaticPlaneShape*, %class.btTransform*, %class.btVector3*, %class.btVector3*)* @_ZNK18btStaticPlaneShape7getAabbERK11btTransformR9btVector3S4_ to i8*), i8* bitcast (void (%class.btCollisionShape*, %class.btVector3*, float*)* @_ZNK16btCollisionShape17getBoundingSphereER9btVector3Rf to i8*), i8* bitcast (float (%class.btCollisionShape*)* @_ZNK16btCollisionShape20getAngularMotionDiscEv to i8*), i8* bitcast (float (%class.btCollisionShape*, float)* @_ZNK16btCollisionShape27getContactBreakingThresholdEf to i8*), i8* bitcast (void (%class.btStaticPlaneShape*, %class.btVector3*)* @_ZN18btStaticPlaneShape15setLocalScalingERK9btVector3 to i8*), i8* bitcast (%class.btVector3* (%class.btStaticPlaneShape*)* @_ZNK18btStaticPlaneShape15getLocalScalingEv to i8*), i8* bitcast (void (%class.btStaticPlaneShape*, float, %class.btVector3*)* @_ZNK18btStaticPlaneShape21calculateLocalInertiaEfR9btVector3 to i8*), i8* bitcast (i8* (%class.btStaticPlaneShape*)* @_ZNK18btStaticPlaneShape7getNameEv to i8*), i8* bitcast (void (%class.btVector3*, %class.btCollisionShape*)* @_ZNK16btCollisionShape38getAnisotropicRollingFrictionDirectionEv to i8*), i8* bitcast (void (%class.btConcaveShape*, float)* @_ZN14btConcaveShape9setMarginEf to i8*), i8* bitcast (float (%class.btConcaveShape*)* @_ZNK14btConcaveShape9getMarginEv to i8*), i8* bitcast (i32 (%class.btStaticPlaneShape*)* @_ZNK18btStaticPlaneShape28calculateSerializeBufferSizeEv to i8*), i8* bitcast (i8* (%class.btStaticPlaneShape*, i8*, %class.btSerializer*)* @_ZNK18btStaticPlaneShape9serializeEPvP12btSerializer to i8*), i8* bitcast (void (%class.btCollisionShape*, %class.btSerializer*)* @_ZNK16btCollisionShape20serializeSingleShapeEP12btSerializer to i8*), i8* bitcast (void (%class.btStaticPlaneShape*, %class.btTriangleCallback*, %class.btVector3*, %class.btVector3*)* @_ZNK18btStaticPlaneShape19processAllTrianglesEP18btTriangleCallbackRK9btVector3S4_ to i8*)] }, align 4
@_ZTVN10__cxxabiv120__si_class_type_infoE = external global i8*
@_ZTS18btStaticPlaneShape = hidden constant [21 x i8] c"18btStaticPlaneShape\00", align 1
@_ZTI14btConcaveShape = external constant i8*
@_ZTI18btStaticPlaneShape = hidden constant { i8*, i8*, i8* } { i8* bitcast (i8** getelementptr inbounds (i8*, i8** @_ZTVN10__cxxabiv120__si_class_type_infoE, i32 2) to i8*), i8* getelementptr inbounds ([21 x i8], [21 x i8]* @_ZTS18btStaticPlaneShape, i32 0, i32 0), i8* bitcast (i8** @_ZTI14btConcaveShape to i8*) }, align 4
@.str = private unnamed_addr constant [12 x i8] c"STATICPLANE\00", align 1
@.str.1 = private unnamed_addr constant [23 x i8] c"btStaticPlaneShapeData\00", align 1
@llvm.global_ctors = appending global [1 x { i32, void ()*, i8* }] [{ i32, void ()*, i8* } { i32 65535, void ()* @_GLOBAL__sub_I_btStaticPlaneShape.cpp, i8* null }]

@_ZN18btStaticPlaneShapeC1ERK9btVector3f = hidden unnamed_addr alias %class.btStaticPlaneShape* (%class.btStaticPlaneShape*, %class.btVector3*, float), %class.btStaticPlaneShape* (%class.btStaticPlaneShape*, %class.btVector3*, float)* @_ZN18btStaticPlaneShapeC2ERK9btVector3f
@_ZN18btStaticPlaneShapeD1Ev = hidden unnamed_addr alias %class.btStaticPlaneShape* (%class.btStaticPlaneShape*), %class.btStaticPlaneShape* (%class.btStaticPlaneShape*)* @_ZN18btStaticPlaneShapeD2Ev

; Function Attrs: noinline
define internal void @__cxx_global_var_init() #0 {
entry:
  %call = call %struct.btInfMaskConverter* @_ZN18btInfMaskConverterC2Ei(%struct.btInfMaskConverter* @_ZL14btInfinityMask, i32 2139095040)
  ret void
}

; Function Attrs: noinline nounwind optnone
define linkonce_odr hidden %struct.btInfMaskConverter* @_ZN18btInfMaskConverterC2Ei(%struct.btInfMaskConverter* returned %this, i32 %mask) unnamed_addr #1 comdat {
entry:
  %this.addr = alloca %struct.btInfMaskConverter*, align 4
  %mask.addr = alloca i32, align 4
  store %struct.btInfMaskConverter* %this, %struct.btInfMaskConverter** %this.addr, align 4
  store i32 %mask, i32* %mask.addr, align 4
  %this1 = load %struct.btInfMaskConverter*, %struct.btInfMaskConverter** %this.addr, align 4
  %0 = getelementptr inbounds %struct.btInfMaskConverter, %struct.btInfMaskConverter* %this1, i32 0, i32 0
  %intmask = bitcast %union.anon* %0 to i32*
  %1 = load i32, i32* %mask.addr, align 4
  store i32 %1, i32* %intmask, align 4
  ret %struct.btInfMaskConverter* %this1
}

; Function Attrs: noinline optnone
define hidden %class.btStaticPlaneShape* @_ZN18btStaticPlaneShapeC2ERK9btVector3f(%class.btStaticPlaneShape* returned %this, %class.btVector3* nonnull align 4 dereferenceable(16) %planeNormal, float %planeConstant) unnamed_addr #2 {
entry:
  %this.addr = alloca %class.btStaticPlaneShape*, align 4
  %planeNormal.addr = alloca %class.btVector3*, align 4
  %planeConstant.addr = alloca float, align 4
  %ref.tmp = alloca float, align 4
  %ref.tmp4 = alloca float, align 4
  %ref.tmp5 = alloca float, align 4
  store %class.btStaticPlaneShape* %this, %class.btStaticPlaneShape** %this.addr, align 4
  store %class.btVector3* %planeNormal, %class.btVector3** %planeNormal.addr, align 4
  store float %planeConstant, float* %planeConstant.addr, align 4
  %this1 = load %class.btStaticPlaneShape*, %class.btStaticPlaneShape** %this.addr, align 4
  %0 = bitcast %class.btStaticPlaneShape* %this1 to %class.btConcaveShape*
  %call = call %class.btConcaveShape* @_ZN14btConcaveShapeC2Ev(%class.btConcaveShape* %0)
  %1 = bitcast %class.btStaticPlaneShape* %this1 to i32 (...)***
  store i32 (...)** bitcast (i8** getelementptr inbounds ({ [19 x i8*] }, { [19 x i8*] }* @_ZTV18btStaticPlaneShape, i32 0, inrange i32 0, i32 2) to i32 (...)**), i32 (...)*** %1, align 4
  %m_localAabbMin = getelementptr inbounds %class.btStaticPlaneShape, %class.btStaticPlaneShape* %this1, i32 0, i32 1
  %call2 = call %class.btVector3* @_ZN9btVector3C2Ev(%class.btVector3* %m_localAabbMin)
  %m_localAabbMax = getelementptr inbounds %class.btStaticPlaneShape, %class.btStaticPlaneShape* %this1, i32 0, i32 2
  %call3 = call %class.btVector3* @_ZN9btVector3C2Ev(%class.btVector3* %m_localAabbMax)
  %m_planeNormal = getelementptr inbounds %class.btStaticPlaneShape, %class.btStaticPlaneShape* %this1, i32 0, i32 3
  %2 = load %class.btVector3*, %class.btVector3** %planeNormal.addr, align 4
  call void @_ZNK9btVector310normalizedEv(%class.btVector3* sret align 4 %m_planeNormal, %class.btVector3* %2)
  %m_planeConstant = getelementptr inbounds %class.btStaticPlaneShape, %class.btStaticPlaneShape* %this1, i32 0, i32 4
  %3 = load float, float* %planeConstant.addr, align 4
  store float %3, float* %m_planeConstant, align 4
  %m_localScaling = getelementptr inbounds %class.btStaticPlaneShape, %class.btStaticPlaneShape* %this1, i32 0, i32 5
  store float 1.000000e+00, float* %ref.tmp, align 4
  store float 1.000000e+00, float* %ref.tmp4, align 4
  store float 1.000000e+00, float* %ref.tmp5, align 4
  %call6 = call %class.btVector3* @_ZN9btVector3C2ERKfS1_S1_(%class.btVector3* %m_localScaling, float* nonnull align 4 dereferenceable(4) %ref.tmp, float* nonnull align 4 dereferenceable(4) %ref.tmp4, float* nonnull align 4 dereferenceable(4) %ref.tmp5)
  %4 = bitcast %class.btStaticPlaneShape* %this1 to %class.btCollisionShape*
  %m_shapeType = getelementptr inbounds %class.btCollisionShape, %class.btCollisionShape* %4, i32 0, i32 1
  store i32 28, i32* %m_shapeType, align 4
  ret %class.btStaticPlaneShape* %this1
}

declare %class.btConcaveShape* @_ZN14btConcaveShapeC2Ev(%class.btConcaveShape* returned) unnamed_addr #3

; Function Attrs: noinline nounwind optnone
define linkonce_odr hidden %class.btVector3* @_ZN9btVector3C2Ev(%class.btVector3* returned %this) unnamed_addr #1 comdat {
entry:
  %this.addr = alloca %class.btVector3*, align 4
  store %class.btVector3* %this, %class.btVector3** %this.addr, align 4
  %this1 = load %class.btVector3*, %class.btVector3** %this.addr, align 4
  ret %class.btVector3* %this1
}

; Function Attrs: noinline optnone
define linkonce_odr hidden void @_ZNK9btVector310normalizedEv(%class.btVector3* noalias sret align 4 %agg.result, %class.btVector3* %this) #2 comdat {
entry:
  %this.addr = alloca %class.btVector3*, align 4
  %nrm = alloca %class.btVector3, align 4
  store %class.btVector3* %this, %class.btVector3** %this.addr, align 4
  %this1 = load %class.btVector3*, %class.btVector3** %this.addr, align 4
  %0 = bitcast %class.btVector3* %nrm to i8*
  %1 = bitcast %class.btVector3* %this1 to i8*
  call void @llvm.memcpy.p0i8.p0i8.i32(i8* align 4 %0, i8* align 4 %1, i32 16, i1 false)
  %call = call nonnull align 4 dereferenceable(16) %class.btVector3* @_ZN9btVector39normalizeEv(%class.btVector3* %nrm)
  %2 = bitcast %class.btVector3* %agg.result to i8*
  %3 = bitcast %class.btVector3* %call to i8*
  call void @llvm.memcpy.p0i8.p0i8.i32(i8* align 4 %2, i8* align 4 %3, i32 16, i1 false)
  ret void
}

; Function Attrs: noinline nounwind optnone
define linkonce_odr hidden %class.btVector3* @_ZN9btVector3C2ERKfS1_S1_(%class.btVector3* returned %this, float* nonnull align 4 dereferenceable(4) %_x, float* nonnull align 4 dereferenceable(4) %_y, float* nonnull align 4 dereferenceable(4) %_z) unnamed_addr #1 comdat {
entry:
  %this.addr = alloca %class.btVector3*, align 4
  %_x.addr = alloca float*, align 4
  %_y.addr = alloca float*, align 4
  %_z.addr = alloca float*, align 4
  store %class.btVector3* %this, %class.btVector3** %this.addr, align 4
  store float* %_x, float** %_x.addr, align 4
  store float* %_y, float** %_y.addr, align 4
  store float* %_z, float** %_z.addr, align 4
  %this1 = load %class.btVector3*, %class.btVector3** %this.addr, align 4
  %0 = load float*, float** %_x.addr, align 4
  %1 = load float, float* %0, align 4
  %m_floats = getelementptr inbounds %class.btVector3, %class.btVector3* %this1, i32 0, i32 0
  %arrayidx = getelementptr inbounds [4 x float], [4 x float]* %m_floats, i32 0, i32 0
  store float %1, float* %arrayidx, align 4
  %2 = load float*, float** %_y.addr, align 4
  %3 = load float, float* %2, align 4
  %m_floats2 = getelementptr inbounds %class.btVector3, %class.btVector3* %this1, i32 0, i32 0
  %arrayidx3 = getelementptr inbounds [4 x float], [4 x float]* %m_floats2, i32 0, i32 1
  store float %3, float* %arrayidx3, align 4
  %4 = load float*, float** %_z.addr, align 4
  %5 = load float, float* %4, align 4
  %m_floats4 = getelementptr inbounds %class.btVector3, %class.btVector3* %this1, i32 0, i32 0
  %arrayidx5 = getelementptr inbounds [4 x float], [4 x float]* %m_floats4, i32 0, i32 2
  store float %5, float* %arrayidx5, align 4
  %m_floats6 = getelementptr inbounds %class.btVector3, %class.btVector3* %this1, i32 0, i32 0
  %arrayidx7 = getelementptr inbounds [4 x float], [4 x float]* %m_floats6, i32 0, i32 3
  store float 0.000000e+00, float* %arrayidx7, align 4
  ret %class.btVector3* %this1
}

; Function Attrs: noinline nounwind optnone
define hidden %class.btStaticPlaneShape* @_ZN18btStaticPlaneShapeD2Ev(%class.btStaticPlaneShape* returned %this) unnamed_addr #1 {
entry:
  %this.addr = alloca %class.btStaticPlaneShape*, align 4
  store %class.btStaticPlaneShape* %this, %class.btStaticPlaneShape** %this.addr, align 4
  %this1 = load %class.btStaticPlaneShape*, %class.btStaticPlaneShape** %this.addr, align 4
  %0 = bitcast %class.btStaticPlaneShape* %this1 to %class.btConcaveShape*
  %call = call %class.btConcaveShape* @_ZN14btConcaveShapeD2Ev(%class.btConcaveShape* %0) #7
  ret %class.btStaticPlaneShape* %this1
}

; Function Attrs: nounwind
declare %class.btConcaveShape* @_ZN14btConcaveShapeD2Ev(%class.btConcaveShape* returned) unnamed_addr #4

; Function Attrs: noinline nounwind optnone
define hidden void @_ZN18btStaticPlaneShapeD0Ev(%class.btStaticPlaneShape* %this) unnamed_addr #1 {
entry:
  %this.addr = alloca %class.btStaticPlaneShape*, align 4
  store %class.btStaticPlaneShape* %this, %class.btStaticPlaneShape** %this.addr, align 4
  %this1 = load %class.btStaticPlaneShape*, %class.btStaticPlaneShape** %this.addr, align 4
  %call = call %class.btStaticPlaneShape* @_ZN18btStaticPlaneShapeD1Ev(%class.btStaticPlaneShape* %this1) #7
  %0 = bitcast %class.btStaticPlaneShape* %this1 to i8*
  call void @_ZN18btStaticPlaneShapedlEPv(i8* %0) #7
  ret void
}

; Function Attrs: noinline nounwind optnone
define linkonce_odr hidden void @_ZN18btStaticPlaneShapedlEPv(i8* %ptr) #1 comdat {
entry:
  %ptr.addr = alloca i8*, align 4
  store i8* %ptr, i8** %ptr.addr, align 4
  %0 = load i8*, i8** %ptr.addr, align 4
  call void @_Z21btAlignedFreeInternalPv(i8* %0)
  ret void
}

; Function Attrs: noinline optnone
define hidden void @_ZNK18btStaticPlaneShape7getAabbERK11btTransformR9btVector3S4_(%class.btStaticPlaneShape* %this, %class.btTransform* nonnull align 4 dereferenceable(64) %t, %class.btVector3* nonnull align 4 dereferenceable(16) %aabbMin, %class.btVector3* nonnull align 4 dereferenceable(16) %aabbMax) unnamed_addr #2 {
entry:
  %this.addr = alloca %class.btStaticPlaneShape*, align 4
  %t.addr = alloca %class.btTransform*, align 4
  %aabbMin.addr = alloca %class.btVector3*, align 4
  %aabbMax.addr = alloca %class.btVector3*, align 4
  %ref.tmp = alloca float, align 4
  %ref.tmp2 = alloca float, align 4
  %ref.tmp3 = alloca float, align 4
  %ref.tmp4 = alloca float, align 4
  %ref.tmp5 = alloca float, align 4
  %ref.tmp6 = alloca float, align 4
  store %class.btStaticPlaneShape* %this, %class.btStaticPlaneShape** %this.addr, align 4
  store %class.btTransform* %t, %class.btTransform** %t.addr, align 4
  store %class.btVector3* %aabbMin, %class.btVector3** %aabbMin.addr, align 4
  store %class.btVector3* %aabbMax, %class.btVector3** %aabbMax.addr, align 4
  %this1 = load %class.btStaticPlaneShape*, %class.btStaticPlaneShape** %this.addr, align 4
  %0 = load %class.btTransform*, %class.btTransform** %t.addr, align 4
  %1 = load %class.btVector3*, %class.btVector3** %aabbMin.addr, align 4
  store float 0xC3ABC16D60000000, float* %ref.tmp, align 4
  store float 0xC3ABC16D60000000, float* %ref.tmp2, align 4
  store float 0xC3ABC16D60000000, float* %ref.tmp3, align 4
  call void @_ZN9btVector38setValueERKfS1_S1_(%class.btVector3* %1, float* nonnull align 4 dereferenceable(4) %ref.tmp, float* nonnull align 4 dereferenceable(4) %ref.tmp2, float* nonnull align 4 dereferenceable(4) %ref.tmp3)
  %2 = load %class.btVector3*, %class.btVector3** %aabbMax.addr, align 4
  store float 0x43ABC16D60000000, float* %ref.tmp4, align 4
  store float 0x43ABC16D60000000, float* %ref.tmp5, align 4
  store float 0x43ABC16D60000000, float* %ref.tmp6, align 4
  call void @_ZN9btVector38setValueERKfS1_S1_(%class.btVector3* %2, float* nonnull align 4 dereferenceable(4) %ref.tmp4, float* nonnull align 4 dereferenceable(4) %ref.tmp5, float* nonnull align 4 dereferenceable(4) %ref.tmp6)
  ret void
}

; Function Attrs: noinline nounwind optnone
define linkonce_odr hidden void @_ZN9btVector38setValueERKfS1_S1_(%class.btVector3* %this, float* nonnull align 4 dereferenceable(4) %_x, float* nonnull align 4 dereferenceable(4) %_y, float* nonnull align 4 dereferenceable(4) %_z) #1 comdat {
entry:
  %this.addr = alloca %class.btVector3*, align 4
  %_x.addr = alloca float*, align 4
  %_y.addr = alloca float*, align 4
  %_z.addr = alloca float*, align 4
  store %class.btVector3* %this, %class.btVector3** %this.addr, align 4
  store float* %_x, float** %_x.addr, align 4
  store float* %_y, float** %_y.addr, align 4
  store float* %_z, float** %_z.addr, align 4
  %this1 = load %class.btVector3*, %class.btVector3** %this.addr, align 4
  %0 = load float*, float** %_x.addr, align 4
  %1 = load float, float* %0, align 4
  %m_floats = getelementptr inbounds %class.btVector3, %class.btVector3* %this1, i32 0, i32 0
  %arrayidx = getelementptr inbounds [4 x float], [4 x float]* %m_floats, i32 0, i32 0
  store float %1, float* %arrayidx, align 4
  %2 = load float*, float** %_y.addr, align 4
  %3 = load float, float* %2, align 4
  %m_floats2 = getelementptr inbounds %class.btVector3, %class.btVector3* %this1, i32 0, i32 0
  %arrayidx3 = getelementptr inbounds [4 x float], [4 x float]* %m_floats2, i32 0, i32 1
  store float %3, float* %arrayidx3, align 4
  %4 = load float*, float** %_z.addr, align 4
  %5 = load float, float* %4, align 4
  %m_floats4 = getelementptr inbounds %class.btVector3, %class.btVector3* %this1, i32 0, i32 0
  %arrayidx5 = getelementptr inbounds [4 x float], [4 x float]* %m_floats4, i32 0, i32 2
  store float %5, float* %arrayidx5, align 4
  %m_floats6 = getelementptr inbounds %class.btVector3, %class.btVector3* %this1, i32 0, i32 0
  %arrayidx7 = getelementptr inbounds [4 x float], [4 x float]* %m_floats6, i32 0, i32 3
  store float 0.000000e+00, float* %arrayidx7, align 4
  ret void
}

; Function Attrs: noinline optnone
define hidden void @_ZNK18btStaticPlaneShape19processAllTrianglesEP18btTriangleCallbackRK9btVector3S4_(%class.btStaticPlaneShape* %this, %class.btTriangleCallback* %callback, %class.btVector3* nonnull align 4 dereferenceable(16) %aabbMin, %class.btVector3* nonnull align 4 dereferenceable(16) %aabbMax) unnamed_addr #2 {
entry:
  %this.addr = alloca %class.btStaticPlaneShape*, align 4
  %callback.addr = alloca %class.btTriangleCallback*, align 4
  %aabbMin.addr = alloca %class.btVector3*, align 4
  %aabbMax.addr = alloca %class.btVector3*, align 4
  %halfExtents = alloca %class.btVector3, align 4
  %ref.tmp = alloca %class.btVector3, align 4
  %ref.tmp2 = alloca float, align 4
  %radius = alloca float, align 4
  %center = alloca %class.btVector3, align 4
  %ref.tmp3 = alloca %class.btVector3, align 4
  %ref.tmp4 = alloca float, align 4
  %tangentDir0 = alloca %class.btVector3, align 4
  %tangentDir1 = alloca %class.btVector3, align 4
  %supVertex0 = alloca %class.btVector3, align 4
  %supVertex1 = alloca %class.btVector3, align 4
  %projectedCenter = alloca %class.btVector3, align 4
  %ref.tmp9 = alloca %class.btVector3, align 4
  %ref.tmp10 = alloca float, align 4
  %triangle = alloca [3 x %class.btVector3], align 16
  %ref.tmp15 = alloca %class.btVector3, align 4
  %ref.tmp16 = alloca %class.btVector3, align 4
  %ref.tmp17 = alloca %class.btVector3, align 4
  %ref.tmp18 = alloca %class.btVector3, align 4
  %ref.tmp19 = alloca %class.btVector3, align 4
  %ref.tmp20 = alloca %class.btVector3, align 4
  %ref.tmp21 = alloca %class.btVector3, align 4
  %ref.tmp22 = alloca %class.btVector3, align 4
  %ref.tmp24 = alloca %class.btVector3, align 4
  %ref.tmp25 = alloca %class.btVector3, align 4
  %ref.tmp26 = alloca %class.btVector3, align 4
  %ref.tmp27 = alloca %class.btVector3, align 4
  %ref.tmp29 = alloca %class.btVector3, align 4
  %ref.tmp30 = alloca %class.btVector3, align 4
  %ref.tmp31 = alloca %class.btVector3, align 4
  %ref.tmp32 = alloca %class.btVector3, align 4
  %ref.tmp34 = alloca %class.btVector3, align 4
  %ref.tmp35 = alloca %class.btVector3, align 4
  %ref.tmp36 = alloca %class.btVector3, align 4
  %ref.tmp37 = alloca %class.btVector3, align 4
  %ref.tmp39 = alloca %class.btVector3, align 4
  %ref.tmp40 = alloca %class.btVector3, align 4
  %ref.tmp41 = alloca %class.btVector3, align 4
  %ref.tmp42 = alloca %class.btVector3, align 4
  store %class.btStaticPlaneShape* %this, %class.btStaticPlaneShape** %this.addr, align 4
  store %class.btTriangleCallback* %callback, %class.btTriangleCallback** %callback.addr, align 4
  store %class.btVector3* %aabbMin, %class.btVector3** %aabbMin.addr, align 4
  store %class.btVector3* %aabbMax, %class.btVector3** %aabbMax.addr, align 4
  %this1 = load %class.btStaticPlaneShape*, %class.btStaticPlaneShape** %this.addr, align 4
  %0 = load %class.btVector3*, %class.btVector3** %aabbMax.addr, align 4
  %1 = load %class.btVector3*, %class.btVector3** %aabbMin.addr, align 4
  call void @_ZmiRK9btVector3S1_(%class.btVector3* sret align 4 %ref.tmp, %class.btVector3* nonnull align 4 dereferenceable(16) %0, %class.btVector3* nonnull align 4 dereferenceable(16) %1)
  store float 5.000000e-01, float* %ref.tmp2, align 4
  call void @_ZmlRK9btVector3RKf(%class.btVector3* sret align 4 %halfExtents, %class.btVector3* nonnull align 4 dereferenceable(16) %ref.tmp, float* nonnull align 4 dereferenceable(4) %ref.tmp2)
  %call = call float @_ZNK9btVector36lengthEv(%class.btVector3* %halfExtents)
  store float %call, float* %radius, align 4
  %2 = load %class.btVector3*, %class.btVector3** %aabbMax.addr, align 4
  %3 = load %class.btVector3*, %class.btVector3** %aabbMin.addr, align 4
  call void @_ZplRK9btVector3S1_(%class.btVector3* sret align 4 %ref.tmp3, %class.btVector3* nonnull align 4 dereferenceable(16) %2, %class.btVector3* nonnull align 4 dereferenceable(16) %3)
  store float 5.000000e-01, float* %ref.tmp4, align 4
  call void @_ZmlRK9btVector3RKf(%class.btVector3* sret align 4 %center, %class.btVector3* nonnull align 4 dereferenceable(16) %ref.tmp3, float* nonnull align 4 dereferenceable(4) %ref.tmp4)
  %call5 = call %class.btVector3* @_ZN9btVector3C2Ev(%class.btVector3* %tangentDir0)
  %call6 = call %class.btVector3* @_ZN9btVector3C2Ev(%class.btVector3* %tangentDir1)
  %m_planeNormal = getelementptr inbounds %class.btStaticPlaneShape, %class.btStaticPlaneShape* %this1, i32 0, i32 3
  call void @_Z13btPlaneSpace1I9btVector3EvRKT_RS1_S4_(%class.btVector3* nonnull align 4 dereferenceable(16) %m_planeNormal, %class.btVector3* nonnull align 4 dereferenceable(16) %tangentDir0, %class.btVector3* nonnull align 4 dereferenceable(16) %tangentDir1)
  %call7 = call %class.btVector3* @_ZN9btVector3C2Ev(%class.btVector3* %supVertex0)
  %call8 = call %class.btVector3* @_ZN9btVector3C2Ev(%class.btVector3* %supVertex1)
  %m_planeNormal11 = getelementptr inbounds %class.btStaticPlaneShape, %class.btStaticPlaneShape* %this1, i32 0, i32 3
  %call12 = call float @_ZNK9btVector33dotERKS_(%class.btVector3* %m_planeNormal11, %class.btVector3* nonnull align 4 dereferenceable(16) %center)
  %m_planeConstant = getelementptr inbounds %class.btStaticPlaneShape, %class.btStaticPlaneShape* %this1, i32 0, i32 4
  %4 = load float, float* %m_planeConstant, align 4
  %sub = fsub float %call12, %4
  store float %sub, float* %ref.tmp10, align 4
  %m_planeNormal13 = getelementptr inbounds %class.btStaticPlaneShape, %class.btStaticPlaneShape* %this1, i32 0, i32 3
  call void @_ZmlRKfRK9btVector3(%class.btVector3* sret align 4 %ref.tmp9, float* nonnull align 4 dereferenceable(4) %ref.tmp10, %class.btVector3* nonnull align 4 dereferenceable(16) %m_planeNormal13)
  call void @_ZmiRK9btVector3S1_(%class.btVector3* sret align 4 %projectedCenter, %class.btVector3* nonnull align 4 dereferenceable(16) %center, %class.btVector3* nonnull align 4 dereferenceable(16) %ref.tmp9)
  %array.begin = getelementptr inbounds [3 x %class.btVector3], [3 x %class.btVector3]* %triangle, i32 0, i32 0
  %arrayctor.end = getelementptr inbounds %class.btVector3, %class.btVector3* %array.begin, i32 3
  br label %arrayctor.loop

arrayctor.loop:                                   ; preds = %arrayctor.loop, %entry
  %arrayctor.cur = phi %class.btVector3* [ %array.begin, %entry ], [ %arrayctor.next, %arrayctor.loop ]
  %call14 = call %class.btVector3* @_ZN9btVector3C2Ev(%class.btVector3* %arrayctor.cur)
  %arrayctor.next = getelementptr inbounds %class.btVector3, %class.btVector3* %arrayctor.cur, i32 1
  %arrayctor.done = icmp eq %class.btVector3* %arrayctor.next, %arrayctor.end
  br i1 %arrayctor.done, label %arrayctor.cont, label %arrayctor.loop

arrayctor.cont:                                   ; preds = %arrayctor.loop
  call void @_ZmlRK9btVector3RKf(%class.btVector3* sret align 4 %ref.tmp17, %class.btVector3* nonnull align 4 dereferenceable(16) %tangentDir0, float* nonnull align 4 dereferenceable(4) %radius)
  call void @_ZplRK9btVector3S1_(%class.btVector3* sret align 4 %ref.tmp16, %class.btVector3* nonnull align 4 dereferenceable(16) %projectedCenter, %class.btVector3* nonnull align 4 dereferenceable(16) %ref.tmp17)
  call void @_ZmlRK9btVector3RKf(%class.btVector3* sret align 4 %ref.tmp18, %class.btVector3* nonnull align 4 dereferenceable(16) %tangentDir1, float* nonnull align 4 dereferenceable(4) %radius)
  call void @_ZplRK9btVector3S1_(%class.btVector3* sret align 4 %ref.tmp15, %class.btVector3* nonnull align 4 dereferenceable(16) %ref.tmp16, %class.btVector3* nonnull align 4 dereferenceable(16) %ref.tmp18)
  %arrayidx = getelementptr inbounds [3 x %class.btVector3], [3 x %class.btVector3]* %triangle, i32 0, i32 0
  %5 = bitcast %class.btVector3* %arrayidx to i8*
  %6 = bitcast %class.btVector3* %ref.tmp15 to i8*
  call void @llvm.memcpy.p0i8.p0i8.i32(i8* align 16 %5, i8* align 4 %6, i32 16, i1 false)
  call void @_ZmlRK9btVector3RKf(%class.btVector3* sret align 4 %ref.tmp21, %class.btVector3* nonnull align 4 dereferenceable(16) %tangentDir0, float* nonnull align 4 dereferenceable(4) %radius)
  call void @_ZplRK9btVector3S1_(%class.btVector3* sret align 4 %ref.tmp20, %class.btVector3* nonnull align 4 dereferenceable(16) %projectedCenter, %class.btVector3* nonnull align 4 dereferenceable(16) %ref.tmp21)
  call void @_ZmlRK9btVector3RKf(%class.btVector3* sret align 4 %ref.tmp22, %class.btVector3* nonnull align 4 dereferenceable(16) %tangentDir1, float* nonnull align 4 dereferenceable(4) %radius)
  call void @_ZmiRK9btVector3S1_(%class.btVector3* sret align 4 %ref.tmp19, %class.btVector3* nonnull align 4 dereferenceable(16) %ref.tmp20, %class.btVector3* nonnull align 4 dereferenceable(16) %ref.tmp22)
  %arrayidx23 = getelementptr inbounds [3 x %class.btVector3], [3 x %class.btVector3]* %triangle, i32 0, i32 1
  %7 = bitcast %class.btVector3* %arrayidx23 to i8*
  %8 = bitcast %class.btVector3* %ref.tmp19 to i8*
  call void @llvm.memcpy.p0i8.p0i8.i32(i8* align 16 %7, i8* align 4 %8, i32 16, i1 false)
  call void @_ZmlRK9btVector3RKf(%class.btVector3* sret align 4 %ref.tmp26, %class.btVector3* nonnull align 4 dereferenceable(16) %tangentDir0, float* nonnull align 4 dereferenceable(4) %radius)
  call void @_ZmiRK9btVector3S1_(%class.btVector3* sret align 4 %ref.tmp25, %class.btVector3* nonnull align 4 dereferenceable(16) %projectedCenter, %class.btVector3* nonnull align 4 dereferenceable(16) %ref.tmp26)
  call void @_ZmlRK9btVector3RKf(%class.btVector3* sret align 4 %ref.tmp27, %class.btVector3* nonnull align 4 dereferenceable(16) %tangentDir1, float* nonnull align 4 dereferenceable(4) %radius)
  call void @_ZmiRK9btVector3S1_(%class.btVector3* sret align 4 %ref.tmp24, %class.btVector3* nonnull align 4 dereferenceable(16) %ref.tmp25, %class.btVector3* nonnull align 4 dereferenceable(16) %ref.tmp27)
  %arrayidx28 = getelementptr inbounds [3 x %class.btVector3], [3 x %class.btVector3]* %triangle, i32 0, i32 2
  %9 = bitcast %class.btVector3* %arrayidx28 to i8*
  %10 = bitcast %class.btVector3* %ref.tmp24 to i8*
  call void @llvm.memcpy.p0i8.p0i8.i32(i8* align 16 %9, i8* align 4 %10, i32 16, i1 false)
  %11 = load %class.btTriangleCallback*, %class.btTriangleCallback** %callback.addr, align 4
  %arraydecay = getelementptr inbounds [3 x %class.btVector3], [3 x %class.btVector3]* %triangle, i32 0, i32 0
  %12 = bitcast %class.btTriangleCallback* %11 to void (%class.btTriangleCallback*, %class.btVector3*, i32, i32)***
  %vtable = load void (%class.btTriangleCallback*, %class.btVector3*, i32, i32)**, void (%class.btTriangleCallback*, %class.btVector3*, i32, i32)*** %12, align 4
  %vfn = getelementptr inbounds void (%class.btTriangleCallback*, %class.btVector3*, i32, i32)*, void (%class.btTriangleCallback*, %class.btVector3*, i32, i32)** %vtable, i64 2
  %13 = load void (%class.btTriangleCallback*, %class.btVector3*, i32, i32)*, void (%class.btTriangleCallback*, %class.btVector3*, i32, i32)** %vfn, align 4
  call void %13(%class.btTriangleCallback* %11, %class.btVector3* %arraydecay, i32 0, i32 0)
  call void @_ZmlRK9btVector3RKf(%class.btVector3* sret align 4 %ref.tmp31, %class.btVector3* nonnull align 4 dereferenceable(16) %tangentDir0, float* nonnull align 4 dereferenceable(4) %radius)
  call void @_ZmiRK9btVector3S1_(%class.btVector3* sret align 4 %ref.tmp30, %class.btVector3* nonnull align 4 dereferenceable(16) %projectedCenter, %class.btVector3* nonnull align 4 dereferenceable(16) %ref.tmp31)
  call void @_ZmlRK9btVector3RKf(%class.btVector3* sret align 4 %ref.tmp32, %class.btVector3* nonnull align 4 dereferenceable(16) %tangentDir1, float* nonnull align 4 dereferenceable(4) %radius)
  call void @_ZmiRK9btVector3S1_(%class.btVector3* sret align 4 %ref.tmp29, %class.btVector3* nonnull align 4 dereferenceable(16) %ref.tmp30, %class.btVector3* nonnull align 4 dereferenceable(16) %ref.tmp32)
  %arrayidx33 = getelementptr inbounds [3 x %class.btVector3], [3 x %class.btVector3]* %triangle, i32 0, i32 0
  %14 = bitcast %class.btVector3* %arrayidx33 to i8*
  %15 = bitcast %class.btVector3* %ref.tmp29 to i8*
  call void @llvm.memcpy.p0i8.p0i8.i32(i8* align 16 %14, i8* align 4 %15, i32 16, i1 false)
  call void @_ZmlRK9btVector3RKf(%class.btVector3* sret align 4 %ref.tmp36, %class.btVector3* nonnull align 4 dereferenceable(16) %tangentDir0, float* nonnull align 4 dereferenceable(4) %radius)
  call void @_ZmiRK9btVector3S1_(%class.btVector3* sret align 4 %ref.tmp35, %class.btVector3* nonnull align 4 dereferenceable(16) %projectedCenter, %class.btVector3* nonnull align 4 dereferenceable(16) %ref.tmp36)
  call void @_ZmlRK9btVector3RKf(%class.btVector3* sret align 4 %ref.tmp37, %class.btVector3* nonnull align 4 dereferenceable(16) %tangentDir1, float* nonnull align 4 dereferenceable(4) %radius)
  call void @_ZplRK9btVector3S1_(%class.btVector3* sret align 4 %ref.tmp34, %class.btVector3* nonnull align 4 dereferenceable(16) %ref.tmp35, %class.btVector3* nonnull align 4 dereferenceable(16) %ref.tmp37)
  %arrayidx38 = getelementptr inbounds [3 x %class.btVector3], [3 x %class.btVector3]* %triangle, i32 0, i32 1
  %16 = bitcast %class.btVector3* %arrayidx38 to i8*
  %17 = bitcast %class.btVector3* %ref.tmp34 to i8*
  call void @llvm.memcpy.p0i8.p0i8.i32(i8* align 16 %16, i8* align 4 %17, i32 16, i1 false)
  call void @_ZmlRK9btVector3RKf(%class.btVector3* sret align 4 %ref.tmp41, %class.btVector3* nonnull align 4 dereferenceable(16) %tangentDir0, float* nonnull align 4 dereferenceable(4) %radius)
  call void @_ZplRK9btVector3S1_(%class.btVector3* sret align 4 %ref.tmp40, %class.btVector3* nonnull align 4 dereferenceable(16) %projectedCenter, %class.btVector3* nonnull align 4 dereferenceable(16) %ref.tmp41)
  call void @_ZmlRK9btVector3RKf(%class.btVector3* sret align 4 %ref.tmp42, %class.btVector3* nonnull align 4 dereferenceable(16) %tangentDir1, float* nonnull align 4 dereferenceable(4) %radius)
  call void @_ZplRK9btVector3S1_(%class.btVector3* sret align 4 %ref.tmp39, %class.btVector3* nonnull align 4 dereferenceable(16) %ref.tmp40, %class.btVector3* nonnull align 4 dereferenceable(16) %ref.tmp42)
  %arrayidx43 = getelementptr inbounds [3 x %class.btVector3], [3 x %class.btVector3]* %triangle, i32 0, i32 2
  %18 = bitcast %class.btVector3* %arrayidx43 to i8*
  %19 = bitcast %class.btVector3* %ref.tmp39 to i8*
  call void @llvm.memcpy.p0i8.p0i8.i32(i8* align 16 %18, i8* align 4 %19, i32 16, i1 false)
  %20 = load %class.btTriangleCallback*, %class.btTriangleCallback** %callback.addr, align 4
  %arraydecay44 = getelementptr inbounds [3 x %class.btVector3], [3 x %class.btVector3]* %triangle, i32 0, i32 0
  %21 = bitcast %class.btTriangleCallback* %20 to void (%class.btTriangleCallback*, %class.btVector3*, i32, i32)***
  %vtable45 = load void (%class.btTriangleCallback*, %class.btVector3*, i32, i32)**, void (%class.btTriangleCallback*, %class.btVector3*, i32, i32)*** %21, align 4
  %vfn46 = getelementptr inbounds void (%class.btTriangleCallback*, %class.btVector3*, i32, i32)*, void (%class.btTriangleCallback*, %class.btVector3*, i32, i32)** %vtable45, i64 2
  %22 = load void (%class.btTriangleCallback*, %class.btVector3*, i32, i32)*, void (%class.btTriangleCallback*, %class.btVector3*, i32, i32)** %vfn46, align 4
  call void %22(%class.btTriangleCallback* %20, %class.btVector3* %arraydecay44, i32 0, i32 1)
  ret void
}

; Function Attrs: noinline optnone
define linkonce_odr hidden void @_ZmlRK9btVector3RKf(%class.btVector3* noalias sret align 4 %agg.result, %class.btVector3* nonnull align 4 dereferenceable(16) %v, float* nonnull align 4 dereferenceable(4) %s) #2 comdat {
entry:
  %v.addr = alloca %class.btVector3*, align 4
  %s.addr = alloca float*, align 4
  %ref.tmp = alloca float, align 4
  %ref.tmp1 = alloca float, align 4
  %ref.tmp5 = alloca float, align 4
  store %class.btVector3* %v, %class.btVector3** %v.addr, align 4
  store float* %s, float** %s.addr, align 4
  %0 = load %class.btVector3*, %class.btVector3** %v.addr, align 4
  %m_floats = getelementptr inbounds %class.btVector3, %class.btVector3* %0, i32 0, i32 0
  %arrayidx = getelementptr inbounds [4 x float], [4 x float]* %m_floats, i32 0, i32 0
  %1 = load float, float* %arrayidx, align 4
  %2 = load float*, float** %s.addr, align 4
  %3 = load float, float* %2, align 4
  %mul = fmul float %1, %3
  store float %mul, float* %ref.tmp, align 4
  %4 = load %class.btVector3*, %class.btVector3** %v.addr, align 4
  %m_floats2 = getelementptr inbounds %class.btVector3, %class.btVector3* %4, i32 0, i32 0
  %arrayidx3 = getelementptr inbounds [4 x float], [4 x float]* %m_floats2, i32 0, i32 1
  %5 = load float, float* %arrayidx3, align 4
  %6 = load float*, float** %s.addr, align 4
  %7 = load float, float* %6, align 4
  %mul4 = fmul float %5, %7
  store float %mul4, float* %ref.tmp1, align 4
  %8 = load %class.btVector3*, %class.btVector3** %v.addr, align 4
  %m_floats6 = getelementptr inbounds %class.btVector3, %class.btVector3* %8, i32 0, i32 0
  %arrayidx7 = getelementptr inbounds [4 x float], [4 x float]* %m_floats6, i32 0, i32 2
  %9 = load float, float* %arrayidx7, align 4
  %10 = load float*, float** %s.addr, align 4
  %11 = load float, float* %10, align 4
  %mul8 = fmul float %9, %11
  store float %mul8, float* %ref.tmp5, align 4
  %call = call %class.btVector3* @_ZN9btVector3C2ERKfS1_S1_(%class.btVector3* %agg.result, float* nonnull align 4 dereferenceable(4) %ref.tmp, float* nonnull align 4 dereferenceable(4) %ref.tmp1, float* nonnull align 4 dereferenceable(4) %ref.tmp5)
  ret void
}

; Function Attrs: noinline optnone
define linkonce_odr hidden void @_ZmiRK9btVector3S1_(%class.btVector3* noalias sret align 4 %agg.result, %class.btVector3* nonnull align 4 dereferenceable(16) %v1, %class.btVector3* nonnull align 4 dereferenceable(16) %v2) #2 comdat {
entry:
  %v1.addr = alloca %class.btVector3*, align 4
  %v2.addr = alloca %class.btVector3*, align 4
  %ref.tmp = alloca float, align 4
  %ref.tmp3 = alloca float, align 4
  %ref.tmp9 = alloca float, align 4
  store %class.btVector3* %v1, %class.btVector3** %v1.addr, align 4
  store %class.btVector3* %v2, %class.btVector3** %v2.addr, align 4
  %0 = load %class.btVector3*, %class.btVector3** %v1.addr, align 4
  %m_floats = getelementptr inbounds %class.btVector3, %class.btVector3* %0, i32 0, i32 0
  %arrayidx = getelementptr inbounds [4 x float], [4 x float]* %m_floats, i32 0, i32 0
  %1 = load float, float* %arrayidx, align 4
  %2 = load %class.btVector3*, %class.btVector3** %v2.addr, align 4
  %m_floats1 = getelementptr inbounds %class.btVector3, %class.btVector3* %2, i32 0, i32 0
  %arrayidx2 = getelementptr inbounds [4 x float], [4 x float]* %m_floats1, i32 0, i32 0
  %3 = load float, float* %arrayidx2, align 4
  %sub = fsub float %1, %3
  store float %sub, float* %ref.tmp, align 4
  %4 = load %class.btVector3*, %class.btVector3** %v1.addr, align 4
  %m_floats4 = getelementptr inbounds %class.btVector3, %class.btVector3* %4, i32 0, i32 0
  %arrayidx5 = getelementptr inbounds [4 x float], [4 x float]* %m_floats4, i32 0, i32 1
  %5 = load float, float* %arrayidx5, align 4
  %6 = load %class.btVector3*, %class.btVector3** %v2.addr, align 4
  %m_floats6 = getelementptr inbounds %class.btVector3, %class.btVector3* %6, i32 0, i32 0
  %arrayidx7 = getelementptr inbounds [4 x float], [4 x float]* %m_floats6, i32 0, i32 1
  %7 = load float, float* %arrayidx7, align 4
  %sub8 = fsub float %5, %7
  store float %sub8, float* %ref.tmp3, align 4
  %8 = load %class.btVector3*, %class.btVector3** %v1.addr, align 4
  %m_floats10 = getelementptr inbounds %class.btVector3, %class.btVector3* %8, i32 0, i32 0
  %arrayidx11 = getelementptr inbounds [4 x float], [4 x float]* %m_floats10, i32 0, i32 2
  %9 = load float, float* %arrayidx11, align 4
  %10 = load %class.btVector3*, %class.btVector3** %v2.addr, align 4
  %m_floats12 = getelementptr inbounds %class.btVector3, %class.btVector3* %10, i32 0, i32 0
  %arrayidx13 = getelementptr inbounds [4 x float], [4 x float]* %m_floats12, i32 0, i32 2
  %11 = load float, float* %arrayidx13, align 4
  %sub14 = fsub float %9, %11
  store float %sub14, float* %ref.tmp9, align 4
  %call = call %class.btVector3* @_ZN9btVector3C2ERKfS1_S1_(%class.btVector3* %agg.result, float* nonnull align 4 dereferenceable(4) %ref.tmp, float* nonnull align 4 dereferenceable(4) %ref.tmp3, float* nonnull align 4 dereferenceable(4) %ref.tmp9)
  ret void
}

; Function Attrs: noinline optnone
define linkonce_odr hidden float @_ZNK9btVector36lengthEv(%class.btVector3* %this) #2 comdat {
entry:
  %this.addr = alloca %class.btVector3*, align 4
  store %class.btVector3* %this, %class.btVector3** %this.addr, align 4
  %this1 = load %class.btVector3*, %class.btVector3** %this.addr, align 4
  %call = call float @_ZNK9btVector37length2Ev(%class.btVector3* %this1)
  %call2 = call float @_Z6btSqrtf(float %call)
  ret float %call2
}

; Function Attrs: noinline optnone
define linkonce_odr hidden void @_ZplRK9btVector3S1_(%class.btVector3* noalias sret align 4 %agg.result, %class.btVector3* nonnull align 4 dereferenceable(16) %v1, %class.btVector3* nonnull align 4 dereferenceable(16) %v2) #2 comdat {
entry:
  %v1.addr = alloca %class.btVector3*, align 4
  %v2.addr = alloca %class.btVector3*, align 4
  %ref.tmp = alloca float, align 4
  %ref.tmp3 = alloca float, align 4
  %ref.tmp9 = alloca float, align 4
  store %class.btVector3* %v1, %class.btVector3** %v1.addr, align 4
  store %class.btVector3* %v2, %class.btVector3** %v2.addr, align 4
  %0 = load %class.btVector3*, %class.btVector3** %v1.addr, align 4
  %m_floats = getelementptr inbounds %class.btVector3, %class.btVector3* %0, i32 0, i32 0
  %arrayidx = getelementptr inbounds [4 x float], [4 x float]* %m_floats, i32 0, i32 0
  %1 = load float, float* %arrayidx, align 4
  %2 = load %class.btVector3*, %class.btVector3** %v2.addr, align 4
  %m_floats1 = getelementptr inbounds %class.btVector3, %class.btVector3* %2, i32 0, i32 0
  %arrayidx2 = getelementptr inbounds [4 x float], [4 x float]* %m_floats1, i32 0, i32 0
  %3 = load float, float* %arrayidx2, align 4
  %add = fadd float %1, %3
  store float %add, float* %ref.tmp, align 4
  %4 = load %class.btVector3*, %class.btVector3** %v1.addr, align 4
  %m_floats4 = getelementptr inbounds %class.btVector3, %class.btVector3* %4, i32 0, i32 0
  %arrayidx5 = getelementptr inbounds [4 x float], [4 x float]* %m_floats4, i32 0, i32 1
  %5 = load float, float* %arrayidx5, align 4
  %6 = load %class.btVector3*, %class.btVector3** %v2.addr, align 4
  %m_floats6 = getelementptr inbounds %class.btVector3, %class.btVector3* %6, i32 0, i32 0
  %arrayidx7 = getelementptr inbounds [4 x float], [4 x float]* %m_floats6, i32 0, i32 1
  %7 = load float, float* %arrayidx7, align 4
  %add8 = fadd float %5, %7
  store float %add8, float* %ref.tmp3, align 4
  %8 = load %class.btVector3*, %class.btVector3** %v1.addr, align 4
  %m_floats10 = getelementptr inbounds %class.btVector3, %class.btVector3* %8, i32 0, i32 0
  %arrayidx11 = getelementptr inbounds [4 x float], [4 x float]* %m_floats10, i32 0, i32 2
  %9 = load float, float* %arrayidx11, align 4
  %10 = load %class.btVector3*, %class.btVector3** %v2.addr, align 4
  %m_floats12 = getelementptr inbounds %class.btVector3, %class.btVector3* %10, i32 0, i32 0
  %arrayidx13 = getelementptr inbounds [4 x float], [4 x float]* %m_floats12, i32 0, i32 2
  %11 = load float, float* %arrayidx13, align 4
  %add14 = fadd float %9, %11
  store float %add14, float* %ref.tmp9, align 4
  %call = call %class.btVector3* @_ZN9btVector3C2ERKfS1_S1_(%class.btVector3* %agg.result, float* nonnull align 4 dereferenceable(4) %ref.tmp, float* nonnull align 4 dereferenceable(4) %ref.tmp3, float* nonnull align 4 dereferenceable(4) %ref.tmp9)
  ret void
}

; Function Attrs: noinline optnone
define linkonce_odr hidden void @_Z13btPlaneSpace1I9btVector3EvRKT_RS1_S4_(%class.btVector3* nonnull align 4 dereferenceable(16) %n, %class.btVector3* nonnull align 4 dereferenceable(16) %p, %class.btVector3* nonnull align 4 dereferenceable(16) %q) #2 comdat {
entry:
  %n.addr = alloca %class.btVector3*, align 4
  %p.addr = alloca %class.btVector3*, align 4
  %q.addr = alloca %class.btVector3*, align 4
  %a = alloca float, align 4
  %k = alloca float, align 4
  %a42 = alloca float, align 4
  %k54 = alloca float, align 4
  store %class.btVector3* %n, %class.btVector3** %n.addr, align 4
  store %class.btVector3* %p, %class.btVector3** %p.addr, align 4
  store %class.btVector3* %q, %class.btVector3** %q.addr, align 4
  %0 = load %class.btVector3*, %class.btVector3** %n.addr, align 4
  %call = call float* @_ZNK9btVector3cvPKfEv(%class.btVector3* %0)
  %arrayidx = getelementptr inbounds float, float* %call, i32 2
  %1 = load float, float* %arrayidx, align 4
  %call1 = call float @_Z6btFabsf(float %1)
  %cmp = fcmp ogt float %call1, 0x3FE6A09E60000000
  br i1 %cmp, label %if.then, label %if.else

if.then:                                          ; preds = %entry
  %2 = load %class.btVector3*, %class.btVector3** %n.addr, align 4
  %call2 = call float* @_ZNK9btVector3cvPKfEv(%class.btVector3* %2)
  %arrayidx3 = getelementptr inbounds float, float* %call2, i32 1
  %3 = load float, float* %arrayidx3, align 4
  %4 = load %class.btVector3*, %class.btVector3** %n.addr, align 4
  %call4 = call float* @_ZNK9btVector3cvPKfEv(%class.btVector3* %4)
  %arrayidx5 = getelementptr inbounds float, float* %call4, i32 1
  %5 = load float, float* %arrayidx5, align 4
  %mul = fmul float %3, %5
  %6 = load %class.btVector3*, %class.btVector3** %n.addr, align 4
  %call6 = call float* @_ZNK9btVector3cvPKfEv(%class.btVector3* %6)
  %arrayidx7 = getelementptr inbounds float, float* %call6, i32 2
  %7 = load float, float* %arrayidx7, align 4
  %8 = load %class.btVector3*, %class.btVector3** %n.addr, align 4
  %call8 = call float* @_ZNK9btVector3cvPKfEv(%class.btVector3* %8)
  %arrayidx9 = getelementptr inbounds float, float* %call8, i32 2
  %9 = load float, float* %arrayidx9, align 4
  %mul10 = fmul float %7, %9
  %add = fadd float %mul, %mul10
  store float %add, float* %a, align 4
  %10 = load float, float* %a, align 4
  %call11 = call float @_Z6btSqrtf(float %10)
  %div = fdiv float 1.000000e+00, %call11
  store float %div, float* %k, align 4
  %11 = load %class.btVector3*, %class.btVector3** %p.addr, align 4
  %call12 = call float* @_ZN9btVector3cvPfEv(%class.btVector3* %11)
  %arrayidx13 = getelementptr inbounds float, float* %call12, i32 0
  store float 0.000000e+00, float* %arrayidx13, align 4
  %12 = load %class.btVector3*, %class.btVector3** %n.addr, align 4
  %call14 = call float* @_ZNK9btVector3cvPKfEv(%class.btVector3* %12)
  %arrayidx15 = getelementptr inbounds float, float* %call14, i32 2
  %13 = load float, float* %arrayidx15, align 4
  %fneg = fneg float %13
  %14 = load float, float* %k, align 4
  %mul16 = fmul float %fneg, %14
  %15 = load %class.btVector3*, %class.btVector3** %p.addr, align 4
  %call17 = call float* @_ZN9btVector3cvPfEv(%class.btVector3* %15)
  %arrayidx18 = getelementptr inbounds float, float* %call17, i32 1
  store float %mul16, float* %arrayidx18, align 4
  %16 = load %class.btVector3*, %class.btVector3** %n.addr, align 4
  %call19 = call float* @_ZNK9btVector3cvPKfEv(%class.btVector3* %16)
  %arrayidx20 = getelementptr inbounds float, float* %call19, i32 1
  %17 = load float, float* %arrayidx20, align 4
  %18 = load float, float* %k, align 4
  %mul21 = fmul float %17, %18
  %19 = load %class.btVector3*, %class.btVector3** %p.addr, align 4
  %call22 = call float* @_ZN9btVector3cvPfEv(%class.btVector3* %19)
  %arrayidx23 = getelementptr inbounds float, float* %call22, i32 2
  store float %mul21, float* %arrayidx23, align 4
  %20 = load float, float* %a, align 4
  %21 = load float, float* %k, align 4
  %mul24 = fmul float %20, %21
  %22 = load %class.btVector3*, %class.btVector3** %q.addr, align 4
  %call25 = call float* @_ZN9btVector3cvPfEv(%class.btVector3* %22)
  %arrayidx26 = getelementptr inbounds float, float* %call25, i32 0
  store float %mul24, float* %arrayidx26, align 4
  %23 = load %class.btVector3*, %class.btVector3** %n.addr, align 4
  %call27 = call float* @_ZNK9btVector3cvPKfEv(%class.btVector3* %23)
  %arrayidx28 = getelementptr inbounds float, float* %call27, i32 0
  %24 = load float, float* %arrayidx28, align 4
  %fneg29 = fneg float %24
  %25 = load %class.btVector3*, %class.btVector3** %p.addr, align 4
  %call30 = call float* @_ZN9btVector3cvPfEv(%class.btVector3* %25)
  %arrayidx31 = getelementptr inbounds float, float* %call30, i32 2
  %26 = load float, float* %arrayidx31, align 4
  %mul32 = fmul float %fneg29, %26
  %27 = load %class.btVector3*, %class.btVector3** %q.addr, align 4
  %call33 = call float* @_ZN9btVector3cvPfEv(%class.btVector3* %27)
  %arrayidx34 = getelementptr inbounds float, float* %call33, i32 1
  store float %mul32, float* %arrayidx34, align 4
  %28 = load %class.btVector3*, %class.btVector3** %n.addr, align 4
  %call35 = call float* @_ZNK9btVector3cvPKfEv(%class.btVector3* %28)
  %arrayidx36 = getelementptr inbounds float, float* %call35, i32 0
  %29 = load float, float* %arrayidx36, align 4
  %30 = load %class.btVector3*, %class.btVector3** %p.addr, align 4
  %call37 = call float* @_ZN9btVector3cvPfEv(%class.btVector3* %30)
  %arrayidx38 = getelementptr inbounds float, float* %call37, i32 1
  %31 = load float, float* %arrayidx38, align 4
  %mul39 = fmul float %29, %31
  %32 = load %class.btVector3*, %class.btVector3** %q.addr, align 4
  %call40 = call float* @_ZN9btVector3cvPfEv(%class.btVector3* %32)
  %arrayidx41 = getelementptr inbounds float, float* %call40, i32 2
  store float %mul39, float* %arrayidx41, align 4
  br label %if.end

if.else:                                          ; preds = %entry
  %33 = load %class.btVector3*, %class.btVector3** %n.addr, align 4
  %call43 = call float* @_ZNK9btVector3cvPKfEv(%class.btVector3* %33)
  %arrayidx44 = getelementptr inbounds float, float* %call43, i32 0
  %34 = load float, float* %arrayidx44, align 4
  %35 = load %class.btVector3*, %class.btVector3** %n.addr, align 4
  %call45 = call float* @_ZNK9btVector3cvPKfEv(%class.btVector3* %35)
  %arrayidx46 = getelementptr inbounds float, float* %call45, i32 0
  %36 = load float, float* %arrayidx46, align 4
  %mul47 = fmul float %34, %36
  %37 = load %class.btVector3*, %class.btVector3** %n.addr, align 4
  %call48 = call float* @_ZNK9btVector3cvPKfEv(%class.btVector3* %37)
  %arrayidx49 = getelementptr inbounds float, float* %call48, i32 1
  %38 = load float, float* %arrayidx49, align 4
  %39 = load %class.btVector3*, %class.btVector3** %n.addr, align 4
  %call50 = call float* @_ZNK9btVector3cvPKfEv(%class.btVector3* %39)
  %arrayidx51 = getelementptr inbounds float, float* %call50, i32 1
  %40 = load float, float* %arrayidx51, align 4
  %mul52 = fmul float %38, %40
  %add53 = fadd float %mul47, %mul52
  store float %add53, float* %a42, align 4
  %41 = load float, float* %a42, align 4
  %call55 = call float @_Z6btSqrtf(float %41)
  %div56 = fdiv float 1.000000e+00, %call55
  store float %div56, float* %k54, align 4
  %42 = load %class.btVector3*, %class.btVector3** %n.addr, align 4
  %call57 = call float* @_ZNK9btVector3cvPKfEv(%class.btVector3* %42)
  %arrayidx58 = getelementptr inbounds float, float* %call57, i32 1
  %43 = load float, float* %arrayidx58, align 4
  %fneg59 = fneg float %43
  %44 = load float, float* %k54, align 4
  %mul60 = fmul float %fneg59, %44
  %45 = load %class.btVector3*, %class.btVector3** %p.addr, align 4
  %call61 = call float* @_ZN9btVector3cvPfEv(%class.btVector3* %45)
  %arrayidx62 = getelementptr inbounds float, float* %call61, i32 0
  store float %mul60, float* %arrayidx62, align 4
  %46 = load %class.btVector3*, %class.btVector3** %n.addr, align 4
  %call63 = call float* @_ZNK9btVector3cvPKfEv(%class.btVector3* %46)
  %arrayidx64 = getelementptr inbounds float, float* %call63, i32 0
  %47 = load float, float* %arrayidx64, align 4
  %48 = load float, float* %k54, align 4
  %mul65 = fmul float %47, %48
  %49 = load %class.btVector3*, %class.btVector3** %p.addr, align 4
  %call66 = call float* @_ZN9btVector3cvPfEv(%class.btVector3* %49)
  %arrayidx67 = getelementptr inbounds float, float* %call66, i32 1
  store float %mul65, float* %arrayidx67, align 4
  %50 = load %class.btVector3*, %class.btVector3** %p.addr, align 4
  %call68 = call float* @_ZN9btVector3cvPfEv(%class.btVector3* %50)
  %arrayidx69 = getelementptr inbounds float, float* %call68, i32 2
  store float 0.000000e+00, float* %arrayidx69, align 4
  %51 = load %class.btVector3*, %class.btVector3** %n.addr, align 4
  %call70 = call float* @_ZNK9btVector3cvPKfEv(%class.btVector3* %51)
  %arrayidx71 = getelementptr inbounds float, float* %call70, i32 2
  %52 = load float, float* %arrayidx71, align 4
  %fneg72 = fneg float %52
  %53 = load %class.btVector3*, %class.btVector3** %p.addr, align 4
  %call73 = call float* @_ZN9btVector3cvPfEv(%class.btVector3* %53)
  %arrayidx74 = getelementptr inbounds float, float* %call73, i32 1
  %54 = load float, float* %arrayidx74, align 4
  %mul75 = fmul float %fneg72, %54
  %55 = load %class.btVector3*, %class.btVector3** %q.addr, align 4
  %call76 = call float* @_ZN9btVector3cvPfEv(%class.btVector3* %55)
  %arrayidx77 = getelementptr inbounds float, float* %call76, i32 0
  store float %mul75, float* %arrayidx77, align 4
  %56 = load %class.btVector3*, %class.btVector3** %n.addr, align 4
  %call78 = call float* @_ZNK9btVector3cvPKfEv(%class.btVector3* %56)
  %arrayidx79 = getelementptr inbounds float, float* %call78, i32 2
  %57 = load float, float* %arrayidx79, align 4
  %58 = load %class.btVector3*, %class.btVector3** %p.addr, align 4
  %call80 = call float* @_ZN9btVector3cvPfEv(%class.btVector3* %58)
  %arrayidx81 = getelementptr inbounds float, float* %call80, i32 0
  %59 = load float, float* %arrayidx81, align 4
  %mul82 = fmul float %57, %59
  %60 = load %class.btVector3*, %class.btVector3** %q.addr, align 4
  %call83 = call float* @_ZN9btVector3cvPfEv(%class.btVector3* %60)
  %arrayidx84 = getelementptr inbounds float, float* %call83, i32 1
  store float %mul82, float* %arrayidx84, align 4
  %61 = load float, float* %a42, align 4
  %62 = load float, float* %k54, align 4
  %mul85 = fmul float %61, %62
  %63 = load %class.btVector3*, %class.btVector3** %q.addr, align 4
  %call86 = call float* @_ZN9btVector3cvPfEv(%class.btVector3* %63)
  %arrayidx87 = getelementptr inbounds float, float* %call86, i32 2
  store float %mul85, float* %arrayidx87, align 4
  br label %if.end

if.end:                                           ; preds = %if.else, %if.then
  ret void
}

; Function Attrs: noinline optnone
define linkonce_odr hidden void @_ZmlRKfRK9btVector3(%class.btVector3* noalias sret align 4 %agg.result, float* nonnull align 4 dereferenceable(4) %s, %class.btVector3* nonnull align 4 dereferenceable(16) %v) #2 comdat {
entry:
  %s.addr = alloca float*, align 4
  %v.addr = alloca %class.btVector3*, align 4
  store float* %s, float** %s.addr, align 4
  store %class.btVector3* %v, %class.btVector3** %v.addr, align 4
  %0 = load %class.btVector3*, %class.btVector3** %v.addr, align 4
  %1 = load float*, float** %s.addr, align 4
  call void @_ZmlRK9btVector3RKf(%class.btVector3* sret align 4 %agg.result, %class.btVector3* nonnull align 4 dereferenceable(16) %0, float* nonnull align 4 dereferenceable(4) %1)
  ret void
}

; Function Attrs: noinline nounwind optnone
define linkonce_odr hidden float @_ZNK9btVector33dotERKS_(%class.btVector3* %this, %class.btVector3* nonnull align 4 dereferenceable(16) %v) #1 comdat {
entry:
  %this.addr = alloca %class.btVector3*, align 4
  %v.addr = alloca %class.btVector3*, align 4
  store %class.btVector3* %this, %class.btVector3** %this.addr, align 4
  store %class.btVector3* %v, %class.btVector3** %v.addr, align 4
  %this1 = load %class.btVector3*, %class.btVector3** %this.addr, align 4
  %m_floats = getelementptr inbounds %class.btVector3, %class.btVector3* %this1, i32 0, i32 0
  %arrayidx = getelementptr inbounds [4 x float], [4 x float]* %m_floats, i32 0, i32 0
  %0 = load float, float* %arrayidx, align 4
  %1 = load %class.btVector3*, %class.btVector3** %v.addr, align 4
  %m_floats2 = getelementptr inbounds %class.btVector3, %class.btVector3* %1, i32 0, i32 0
  %arrayidx3 = getelementptr inbounds [4 x float], [4 x float]* %m_floats2, i32 0, i32 0
  %2 = load float, float* %arrayidx3, align 4
  %mul = fmul float %0, %2
  %m_floats4 = getelementptr inbounds %class.btVector3, %class.btVector3* %this1, i32 0, i32 0
  %arrayidx5 = getelementptr inbounds [4 x float], [4 x float]* %m_floats4, i32 0, i32 1
  %3 = load float, float* %arrayidx5, align 4
  %4 = load %class.btVector3*, %class.btVector3** %v.addr, align 4
  %m_floats6 = getelementptr inbounds %class.btVector3, %class.btVector3* %4, i32 0, i32 0
  %arrayidx7 = getelementptr inbounds [4 x float], [4 x float]* %m_floats6, i32 0, i32 1
  %5 = load float, float* %arrayidx7, align 4
  %mul8 = fmul float %3, %5
  %add = fadd float %mul, %mul8
  %m_floats9 = getelementptr inbounds %class.btVector3, %class.btVector3* %this1, i32 0, i32 0
  %arrayidx10 = getelementptr inbounds [4 x float], [4 x float]* %m_floats9, i32 0, i32 2
  %6 = load float, float* %arrayidx10, align 4
  %7 = load %class.btVector3*, %class.btVector3** %v.addr, align 4
  %m_floats11 = getelementptr inbounds %class.btVector3, %class.btVector3* %7, i32 0, i32 0
  %arrayidx12 = getelementptr inbounds [4 x float], [4 x float]* %m_floats11, i32 0, i32 2
  %8 = load float, float* %arrayidx12, align 4
  %mul13 = fmul float %6, %8
  %add14 = fadd float %add, %mul13
  ret float %add14
}

; Function Attrs: argmemonly nounwind willreturn
declare void @llvm.memcpy.p0i8.p0i8.i32(i8* noalias nocapture writeonly, i8* noalias nocapture readonly, i32, i1 immarg) #5

; Function Attrs: noinline optnone
define hidden void @_ZNK18btStaticPlaneShape21calculateLocalInertiaEfR9btVector3(%class.btStaticPlaneShape* %this, float %mass, %class.btVector3* nonnull align 4 dereferenceable(16) %inertia) unnamed_addr #2 {
entry:
  %this.addr = alloca %class.btStaticPlaneShape*, align 4
  %mass.addr = alloca float, align 4
  %inertia.addr = alloca %class.btVector3*, align 4
  %ref.tmp = alloca float, align 4
  %ref.tmp2 = alloca float, align 4
  %ref.tmp3 = alloca float, align 4
  store %class.btStaticPlaneShape* %this, %class.btStaticPlaneShape** %this.addr, align 4
  store float %mass, float* %mass.addr, align 4
  store %class.btVector3* %inertia, %class.btVector3** %inertia.addr, align 4
  %this1 = load %class.btStaticPlaneShape*, %class.btStaticPlaneShape** %this.addr, align 4
  %0 = load %class.btVector3*, %class.btVector3** %inertia.addr, align 4
  store float 0.000000e+00, float* %ref.tmp, align 4
  store float 0.000000e+00, float* %ref.tmp2, align 4
  store float 0.000000e+00, float* %ref.tmp3, align 4
  call void @_ZN9btVector38setValueERKfS1_S1_(%class.btVector3* %0, float* nonnull align 4 dereferenceable(4) %ref.tmp, float* nonnull align 4 dereferenceable(4) %ref.tmp2, float* nonnull align 4 dereferenceable(4) %ref.tmp3)
  ret void
}

; Function Attrs: noinline nounwind optnone
define hidden void @_ZN18btStaticPlaneShape15setLocalScalingERK9btVector3(%class.btStaticPlaneShape* %this, %class.btVector3* nonnull align 4 dereferenceable(16) %scaling) unnamed_addr #1 {
entry:
  %this.addr = alloca %class.btStaticPlaneShape*, align 4
  %scaling.addr = alloca %class.btVector3*, align 4
  store %class.btStaticPlaneShape* %this, %class.btStaticPlaneShape** %this.addr, align 4
  store %class.btVector3* %scaling, %class.btVector3** %scaling.addr, align 4
  %this1 = load %class.btStaticPlaneShape*, %class.btStaticPlaneShape** %this.addr, align 4
  %0 = load %class.btVector3*, %class.btVector3** %scaling.addr, align 4
  %m_localScaling = getelementptr inbounds %class.btStaticPlaneShape, %class.btStaticPlaneShape* %this1, i32 0, i32 5
  %1 = bitcast %class.btVector3* %m_localScaling to i8*
  %2 = bitcast %class.btVector3* %0 to i8*
  call void @llvm.memcpy.p0i8.p0i8.i32(i8* align 4 %1, i8* align 4 %2, i32 16, i1 false)
  ret void
}

; Function Attrs: noinline nounwind optnone
define hidden nonnull align 4 dereferenceable(16) %class.btVector3* @_ZNK18btStaticPlaneShape15getLocalScalingEv(%class.btStaticPlaneShape* %this) unnamed_addr #1 {
entry:
  %this.addr = alloca %class.btStaticPlaneShape*, align 4
  store %class.btStaticPlaneShape* %this, %class.btStaticPlaneShape** %this.addr, align 4
  %this1 = load %class.btStaticPlaneShape*, %class.btStaticPlaneShape** %this.addr, align 4
  %m_localScaling = getelementptr inbounds %class.btStaticPlaneShape, %class.btStaticPlaneShape* %this1, i32 0, i32 5
  ret %class.btVector3* %m_localScaling
}

declare void @_ZNK16btCollisionShape17getBoundingSphereER9btVector3Rf(%class.btCollisionShape*, %class.btVector3* nonnull align 4 dereferenceable(16), float* nonnull align 4 dereferenceable(4)) unnamed_addr #3

declare float @_ZNK16btCollisionShape20getAngularMotionDiscEv(%class.btCollisionShape*) unnamed_addr #3

declare float @_ZNK16btCollisionShape27getContactBreakingThresholdEf(%class.btCollisionShape*, float) unnamed_addr #3

; Function Attrs: noinline nounwind optnone
define linkonce_odr hidden i8* @_ZNK18btStaticPlaneShape7getNameEv(%class.btStaticPlaneShape* %this) unnamed_addr #1 comdat {
entry:
  %this.addr = alloca %class.btStaticPlaneShape*, align 4
  store %class.btStaticPlaneShape* %this, %class.btStaticPlaneShape** %this.addr, align 4
  %this1 = load %class.btStaticPlaneShape*, %class.btStaticPlaneShape** %this.addr, align 4
  ret i8* getelementptr inbounds ([12 x i8], [12 x i8]* @.str, i32 0, i32 0)
}

; Function Attrs: noinline optnone
define linkonce_odr hidden void @_ZNK16btCollisionShape38getAnisotropicRollingFrictionDirectionEv(%class.btVector3* noalias sret align 4 %agg.result, %class.btCollisionShape* %this) unnamed_addr #2 comdat {
entry:
  %this.addr = alloca %class.btCollisionShape*, align 4
  %ref.tmp = alloca float, align 4
  %ref.tmp2 = alloca float, align 4
  %ref.tmp3 = alloca float, align 4
  store %class.btCollisionShape* %this, %class.btCollisionShape** %this.addr, align 4
  %this1 = load %class.btCollisionShape*, %class.btCollisionShape** %this.addr, align 4
  store float 1.000000e+00, float* %ref.tmp, align 4
  store float 1.000000e+00, float* %ref.tmp2, align 4
  store float 1.000000e+00, float* %ref.tmp3, align 4
  %call = call %class.btVector3* @_ZN9btVector3C2ERKfS1_S1_(%class.btVector3* %agg.result, float* nonnull align 4 dereferenceable(4) %ref.tmp, float* nonnull align 4 dereferenceable(4) %ref.tmp2, float* nonnull align 4 dereferenceable(4) %ref.tmp3)
  ret void
}

; Function Attrs: noinline nounwind optnone
define linkonce_odr hidden void @_ZN14btConcaveShape9setMarginEf(%class.btConcaveShape* %this, float %collisionMargin) unnamed_addr #1 comdat {
entry:
  %this.addr = alloca %class.btConcaveShape*, align 4
  %collisionMargin.addr = alloca float, align 4
  store %class.btConcaveShape* %this, %class.btConcaveShape** %this.addr, align 4
  store float %collisionMargin, float* %collisionMargin.addr, align 4
  %this1 = load %class.btConcaveShape*, %class.btConcaveShape** %this.addr, align 4
  %0 = load float, float* %collisionMargin.addr, align 4
  %m_collisionMargin = getelementptr inbounds %class.btConcaveShape, %class.btConcaveShape* %this1, i32 0, i32 1
  store float %0, float* %m_collisionMargin, align 4
  ret void
}

; Function Attrs: noinline nounwind optnone
define linkonce_odr hidden float @_ZNK14btConcaveShape9getMarginEv(%class.btConcaveShape* %this) unnamed_addr #1 comdat {
entry:
  %this.addr = alloca %class.btConcaveShape*, align 4
  store %class.btConcaveShape* %this, %class.btConcaveShape** %this.addr, align 4
  %this1 = load %class.btConcaveShape*, %class.btConcaveShape** %this.addr, align 4
  %m_collisionMargin = getelementptr inbounds %class.btConcaveShape, %class.btConcaveShape* %this1, i32 0, i32 1
  %0 = load float, float* %m_collisionMargin, align 4
  ret float %0
}

; Function Attrs: noinline nounwind optnone
define linkonce_odr hidden i32 @_ZNK18btStaticPlaneShape28calculateSerializeBufferSizeEv(%class.btStaticPlaneShape* %this) unnamed_addr #1 comdat {
entry:
  %this.addr = alloca %class.btStaticPlaneShape*, align 4
  store %class.btStaticPlaneShape* %this, %class.btStaticPlaneShape** %this.addr, align 4
  %this1 = load %class.btStaticPlaneShape*, %class.btStaticPlaneShape** %this.addr, align 4
  ret i32 52
}

; Function Attrs: noinline optnone
define linkonce_odr hidden i8* @_ZNK18btStaticPlaneShape9serializeEPvP12btSerializer(%class.btStaticPlaneShape* %this, i8* %dataBuffer, %class.btSerializer* %serializer) unnamed_addr #2 comdat {
entry:
  %this.addr = alloca %class.btStaticPlaneShape*, align 4
  %dataBuffer.addr = alloca i8*, align 4
  %serializer.addr = alloca %class.btSerializer*, align 4
  %planeData = alloca %struct.btStaticPlaneShapeData*, align 4
  store %class.btStaticPlaneShape* %this, %class.btStaticPlaneShape** %this.addr, align 4
  store i8* %dataBuffer, i8** %dataBuffer.addr, align 4
  store %class.btSerializer* %serializer, %class.btSerializer** %serializer.addr, align 4
  %this1 = load %class.btStaticPlaneShape*, %class.btStaticPlaneShape** %this.addr, align 4
  %0 = load i8*, i8** %dataBuffer.addr, align 4
  %1 = bitcast i8* %0 to %struct.btStaticPlaneShapeData*
  store %struct.btStaticPlaneShapeData* %1, %struct.btStaticPlaneShapeData** %planeData, align 4
  %2 = bitcast %class.btStaticPlaneShape* %this1 to %class.btCollisionShape*
  %3 = load %struct.btStaticPlaneShapeData*, %struct.btStaticPlaneShapeData** %planeData, align 4
  %m_collisionShapeData = getelementptr inbounds %struct.btStaticPlaneShapeData, %struct.btStaticPlaneShapeData* %3, i32 0, i32 0
  %4 = bitcast %struct.btCollisionShapeData* %m_collisionShapeData to i8*
  %5 = load %class.btSerializer*, %class.btSerializer** %serializer.addr, align 4
  %call = call i8* @_ZNK16btCollisionShape9serializeEPvP12btSerializer(%class.btCollisionShape* %2, i8* %4, %class.btSerializer* %5)
  %m_localScaling = getelementptr inbounds %class.btStaticPlaneShape, %class.btStaticPlaneShape* %this1, i32 0, i32 5
  %6 = load %struct.btStaticPlaneShapeData*, %struct.btStaticPlaneShapeData** %planeData, align 4
  %m_localScaling2 = getelementptr inbounds %struct.btStaticPlaneShapeData, %struct.btStaticPlaneShapeData* %6, i32 0, i32 1
  call void @_ZNK9btVector314serializeFloatER18btVector3FloatData(%class.btVector3* %m_localScaling, %struct.btVector3FloatData* nonnull align 4 dereferenceable(16) %m_localScaling2)
  %m_planeNormal = getelementptr inbounds %class.btStaticPlaneShape, %class.btStaticPlaneShape* %this1, i32 0, i32 3
  %7 = load %struct.btStaticPlaneShapeData*, %struct.btStaticPlaneShapeData** %planeData, align 4
  %m_planeNormal3 = getelementptr inbounds %struct.btStaticPlaneShapeData, %struct.btStaticPlaneShapeData* %7, i32 0, i32 2
  call void @_ZNK9btVector314serializeFloatER18btVector3FloatData(%class.btVector3* %m_planeNormal, %struct.btVector3FloatData* nonnull align 4 dereferenceable(16) %m_planeNormal3)
  %m_planeConstant = getelementptr inbounds %class.btStaticPlaneShape, %class.btStaticPlaneShape* %this1, i32 0, i32 4
  %8 = load float, float* %m_planeConstant, align 4
  %9 = load %struct.btStaticPlaneShapeData*, %struct.btStaticPlaneShapeData** %planeData, align 4
  %m_planeConstant4 = getelementptr inbounds %struct.btStaticPlaneShapeData, %struct.btStaticPlaneShapeData* %9, i32 0, i32 3
  store float %8, float* %m_planeConstant4, align 4
  ret i8* getelementptr inbounds ([23 x i8], [23 x i8]* @.str.1, i32 0, i32 0)
}

declare void @_ZNK16btCollisionShape20serializeSingleShapeEP12btSerializer(%class.btCollisionShape*, %class.btSerializer*) unnamed_addr #3

; Function Attrs: noinline optnone
define linkonce_odr hidden nonnull align 4 dereferenceable(16) %class.btVector3* @_ZN9btVector39normalizeEv(%class.btVector3* %this) #2 comdat {
entry:
  %this.addr = alloca %class.btVector3*, align 4
  %ref.tmp = alloca float, align 4
  store %class.btVector3* %this, %class.btVector3** %this.addr, align 4
  %this1 = load %class.btVector3*, %class.btVector3** %this.addr, align 4
  %call = call float @_ZNK9btVector36lengthEv(%class.btVector3* %this1)
  store float %call, float* %ref.tmp, align 4
  %call2 = call nonnull align 4 dereferenceable(16) %class.btVector3* @_ZN9btVector3dVERKf(%class.btVector3* %this1, float* nonnull align 4 dereferenceable(4) %ref.tmp)
  ret %class.btVector3* %call2
}

; Function Attrs: noinline optnone
define linkonce_odr hidden nonnull align 4 dereferenceable(16) %class.btVector3* @_ZN9btVector3dVERKf(%class.btVector3* %this, float* nonnull align 4 dereferenceable(4) %s) #2 comdat {
entry:
  %this.addr = alloca %class.btVector3*, align 4
  %s.addr = alloca float*, align 4
  %ref.tmp = alloca float, align 4
  store %class.btVector3* %this, %class.btVector3** %this.addr, align 4
  store float* %s, float** %s.addr, align 4
  %this1 = load %class.btVector3*, %class.btVector3** %this.addr, align 4
  %0 = load float*, float** %s.addr, align 4
  %1 = load float, float* %0, align 4
  %div = fdiv float 1.000000e+00, %1
  store float %div, float* %ref.tmp, align 4
  %call = call nonnull align 4 dereferenceable(16) %class.btVector3* @_ZN9btVector3mLERKf(%class.btVector3* %this1, float* nonnull align 4 dereferenceable(4) %ref.tmp)
  ret %class.btVector3* %call
}

; Function Attrs: noinline nounwind optnone
define linkonce_odr hidden nonnull align 4 dereferenceable(16) %class.btVector3* @_ZN9btVector3mLERKf(%class.btVector3* %this, float* nonnull align 4 dereferenceable(4) %s) #1 comdat {
entry:
  %this.addr = alloca %class.btVector3*, align 4
  %s.addr = alloca float*, align 4
  store %class.btVector3* %this, %class.btVector3** %this.addr, align 4
  store float* %s, float** %s.addr, align 4
  %this1 = load %class.btVector3*, %class.btVector3** %this.addr, align 4
  %0 = load float*, float** %s.addr, align 4
  %1 = load float, float* %0, align 4
  %m_floats = getelementptr inbounds %class.btVector3, %class.btVector3* %this1, i32 0, i32 0
  %arrayidx = getelementptr inbounds [4 x float], [4 x float]* %m_floats, i32 0, i32 0
  %2 = load float, float* %arrayidx, align 4
  %mul = fmul float %2, %1
  store float %mul, float* %arrayidx, align 4
  %3 = load float*, float** %s.addr, align 4
  %4 = load float, float* %3, align 4
  %m_floats2 = getelementptr inbounds %class.btVector3, %class.btVector3* %this1, i32 0, i32 0
  %arrayidx3 = getelementptr inbounds [4 x float], [4 x float]* %m_floats2, i32 0, i32 1
  %5 = load float, float* %arrayidx3, align 4
  %mul4 = fmul float %5, %4
  store float %mul4, float* %arrayidx3, align 4
  %6 = load float*, float** %s.addr, align 4
  %7 = load float, float* %6, align 4
  %m_floats5 = getelementptr inbounds %class.btVector3, %class.btVector3* %this1, i32 0, i32 0
  %arrayidx6 = getelementptr inbounds [4 x float], [4 x float]* %m_floats5, i32 0, i32 2
  %8 = load float, float* %arrayidx6, align 4
  %mul7 = fmul float %8, %7
  store float %mul7, float* %arrayidx6, align 4
  ret %class.btVector3* %this1
}

declare void @_Z21btAlignedFreeInternalPv(i8*) #3

; Function Attrs: noinline nounwind optnone
define linkonce_odr hidden float @_Z6btSqrtf(float %y) #1 comdat {
entry:
  %y.addr = alloca float, align 4
  store float %y, float* %y.addr, align 4
  %0 = load float, float* %y.addr, align 4
  %1 = call float @llvm.sqrt.f32(float %0)
  ret float %1
}

; Function Attrs: noinline optnone
define linkonce_odr hidden float @_ZNK9btVector37length2Ev(%class.btVector3* %this) #2 comdat {
entry:
  %this.addr = alloca %class.btVector3*, align 4
  store %class.btVector3* %this, %class.btVector3** %this.addr, align 4
  %this1 = load %class.btVector3*, %class.btVector3** %this.addr, align 4
  %call = call float @_ZNK9btVector33dotERKS_(%class.btVector3* %this1, %class.btVector3* nonnull align 4 dereferenceable(16) %this1)
  ret float %call
}

; Function Attrs: nounwind readnone speculatable willreturn
declare float @llvm.sqrt.f32(float) #6

declare i8* @_ZNK16btCollisionShape9serializeEPvP12btSerializer(%class.btCollisionShape*, i8*, %class.btSerializer*) unnamed_addr #3

; Function Attrs: noinline nounwind optnone
define linkonce_odr hidden void @_ZNK9btVector314serializeFloatER18btVector3FloatData(%class.btVector3* %this, %struct.btVector3FloatData* nonnull align 4 dereferenceable(16) %dataOut) #1 comdat {
entry:
  %this.addr = alloca %class.btVector3*, align 4
  %dataOut.addr = alloca %struct.btVector3FloatData*, align 4
  %i = alloca i32, align 4
  store %class.btVector3* %this, %class.btVector3** %this.addr, align 4
  store %struct.btVector3FloatData* %dataOut, %struct.btVector3FloatData** %dataOut.addr, align 4
  %this1 = load %class.btVector3*, %class.btVector3** %this.addr, align 4
  store i32 0, i32* %i, align 4
  br label %for.cond

for.cond:                                         ; preds = %for.inc, %entry
  %0 = load i32, i32* %i, align 4
  %cmp = icmp slt i32 %0, 4
  br i1 %cmp, label %for.body, label %for.end

for.body:                                         ; preds = %for.cond
  %m_floats = getelementptr inbounds %class.btVector3, %class.btVector3* %this1, i32 0, i32 0
  %1 = load i32, i32* %i, align 4
  %arrayidx = getelementptr inbounds [4 x float], [4 x float]* %m_floats, i32 0, i32 %1
  %2 = load float, float* %arrayidx, align 4
  %3 = load %struct.btVector3FloatData*, %struct.btVector3FloatData** %dataOut.addr, align 4
  %m_floats2 = getelementptr inbounds %struct.btVector3FloatData, %struct.btVector3FloatData* %3, i32 0, i32 0
  %4 = load i32, i32* %i, align 4
  %arrayidx3 = getelementptr inbounds [4 x float], [4 x float]* %m_floats2, i32 0, i32 %4
  store float %2, float* %arrayidx3, align 4
  br label %for.inc

for.inc:                                          ; preds = %for.body
  %5 = load i32, i32* %i, align 4
  %inc = add nsw i32 %5, 1
  store i32 %inc, i32* %i, align 4
  br label %for.cond

for.end:                                          ; preds = %for.cond
  ret void
}

; Function Attrs: noinline nounwind optnone
define linkonce_odr hidden float @_Z6btFabsf(float %x) #1 comdat {
entry:
  %x.addr = alloca float, align 4
  store float %x, float* %x.addr, align 4
  %0 = load float, float* %x.addr, align 4
  %1 = call float @llvm.fabs.f32(float %0)
  ret float %1
}

; Function Attrs: noinline nounwind optnone
define linkonce_odr hidden float* @_ZNK9btVector3cvPKfEv(%class.btVector3* %this) #1 comdat {
entry:
  %this.addr = alloca %class.btVector3*, align 4
  store %class.btVector3* %this, %class.btVector3** %this.addr, align 4
  %this1 = load %class.btVector3*, %class.btVector3** %this.addr, align 4
  %m_floats = getelementptr inbounds %class.btVector3, %class.btVector3* %this1, i32 0, i32 0
  %arrayidx = getelementptr inbounds [4 x float], [4 x float]* %m_floats, i32 0, i32 0
  ret float* %arrayidx
}

; Function Attrs: noinline nounwind optnone
define linkonce_odr hidden float* @_ZN9btVector3cvPfEv(%class.btVector3* %this) #1 comdat {
entry:
  %this.addr = alloca %class.btVector3*, align 4
  store %class.btVector3* %this, %class.btVector3** %this.addr, align 4
  %this1 = load %class.btVector3*, %class.btVector3** %this.addr, align 4
  %m_floats = getelementptr inbounds %class.btVector3, %class.btVector3* %this1, i32 0, i32 0
  %arrayidx = getelementptr inbounds [4 x float], [4 x float]* %m_floats, i32 0, i32 0
  ret float* %arrayidx
}

; Function Attrs: nounwind readnone speculatable willreturn
declare float @llvm.fabs.f32(float) #6

; Function Attrs: noinline
define internal void @_GLOBAL__sub_I_btStaticPlaneShape.cpp() #0 {
entry:
  call void @__cxx_global_var_init()
  ret void
}

attributes #0 = { noinline "correctly-rounded-divide-sqrt-fp-math"="false" "disable-tail-calls"="false" "frame-pointer"="none" "less-precise-fpmad"="false" "min-legal-vector-width"="0" "no-infs-fp-math"="false" "no-jump-tables"="false" "no-nans-fp-math"="false" "no-signed-zeros-fp-math"="false" "no-trapping-math"="true" "stack-protector-buffer-size"="8" "target-cpu"="generic" "unsafe-fp-math"="false" "use-soft-float"="false" }
attributes #1 = { noinline nounwind optnone "correctly-rounded-divide-sqrt-fp-math"="false" "disable-tail-calls"="false" "frame-pointer"="none" "less-precise-fpmad"="false" "min-legal-vector-width"="0" "no-infs-fp-math"="false" "no-jump-tables"="false" "no-nans-fp-math"="false" "no-signed-zeros-fp-math"="false" "no-trapping-math"="true" "stack-protector-buffer-size"="8" "target-cpu"="generic" "unsafe-fp-math"="false" "use-soft-float"="false" }
attributes #2 = { noinline optnone "correctly-rounded-divide-sqrt-fp-math"="false" "disable-tail-calls"="false" "frame-pointer"="none" "less-precise-fpmad"="false" "min-legal-vector-width"="0" "no-infs-fp-math"="false" "no-jump-tables"="false" "no-nans-fp-math"="false" "no-signed-zeros-fp-math"="false" "no-trapping-math"="true" "stack-protector-buffer-size"="8" "target-cpu"="generic" "unsafe-fp-math"="false" "use-soft-float"="false" }
attributes #3 = { "correctly-rounded-divide-sqrt-fp-math"="false" "disable-tail-calls"="false" "frame-pointer"="none" "less-precise-fpmad"="false" "no-infs-fp-math"="false" "no-nans-fp-math"="false" "no-signed-zeros-fp-math"="false" "no-trapping-math"="true" "stack-protector-buffer-size"="8" "target-cpu"="generic" "unsafe-fp-math"="false" "use-soft-float"="false" }
attributes #4 = { nounwind "correctly-rounded-divide-sqrt-fp-math"="false" "disable-tail-calls"="false" "frame-pointer"="none" "less-precise-fpmad"="false" "no-infs-fp-math"="false" "no-nans-fp-math"="false" "no-signed-zeros-fp-math"="false" "no-trapping-math"="true" "stack-protector-buffer-size"="8" "target-cpu"="generic" "unsafe-fp-math"="false" "use-soft-float"="false" }
attributes #5 = { argmemonly nounwind willreturn }
attributes #6 = { nounwind readnone speculatable willreturn }
attributes #7 = { nounwind }

!llvm.module.flags = !{!0}
!llvm.ident = !{!1}

!0 = !{i32 1, !"wchar_size", i32 4}
!1 = !{!"clang version 11.0.0 (/b/s/w/ir/cache/git/chromium.googlesource.com-external-github.com-llvm-llvm--project 613c4a87ba9bb39d1927402f4dd4c1ef1f9a02f7)"}
