; ModuleID = './draco/src/draco/core/divide.cc'
source_filename = "./draco/src/draco/core/divide.cc"
target datalayout = "e-m:e-p:32:32-i64:64-n32:64-S128"
target triple = "wasm32-unknown-emscripten"

%"struct.draco::fastdiv_elem" = type { i32, i32 }

@_ZN5draco16vp10_fastdiv_tabE = hidden constant [256 x %"struct.draco::fastdiv_elem"] [%"struct.draco::fastdiv_elem" zeroinitializer, %"struct.draco::fastdiv_elem" zeroinitializer, %"struct.draco::fastdiv_elem" { i32 0, i32 1 }, %"struct.draco::fastdiv_elem" { i32 1431655766, i32 2 }, %"struct.draco::fastdiv_elem" { i32 0, i32 2 }, %"struct.draco::fastdiv_elem" { i32 -1717986918, i32 3 }, %"struct.draco::fastdiv_elem" { i32 1431655766, i32 3 }, %"struct.draco::fastdiv_elem" { i32 613566757, i32 3 }, %"struct.draco::fastdiv_elem" { i32 0, i32 3 }, %"struct.draco::fastdiv_elem" { i32 -954437176, i32 4 }, %"struct.draco::fastdiv_elem" { i32 -1717986918, i32 4 }, %"struct.draco::fastdiv_elem" { i32 1952257862, i32 4 }, %"struct.draco::fastdiv_elem" { i32 1431655766, i32 4 }, %"struct.draco::fastdiv_elem" { i32 991146300, i32 4 }, %"struct.draco::fastdiv_elem" { i32 613566757, i32 4 }, %"struct.draco::fastdiv_elem" { i32 286331154, i32 4 }, %"struct.draco::fastdiv_elem" { i32 0, i32 4 }, %"struct.draco::fastdiv_elem" { i32 -505290270, i32 5 }, %"struct.draco::fastdiv_elem" { i32 -954437176, i32 5 }, %"struct.draco::fastdiv_elem" { i32 -1356305461, i32 5 }, %"struct.draco::fastdiv_elem" { i32 -1717986918, i32 5 }, %"struct.draco::fastdiv_elem" { i32 -2045222521, i32 5 }, %"struct.draco::fastdiv_elem" { i32 1952257862, i32 5 }, %"struct.draco::fastdiv_elem" { i32 1680639377, i32 5 }, %"struct.draco::fastdiv_elem" { i32 1431655766, i32 5 }, %"struct.draco::fastdiv_elem" { i32 1202590843, i32 5 }, %"struct.draco::fastdiv_elem" { i32 991146300, i32 5 }, %"struct.draco::fastdiv_elem" { i32 795364315, i32 5 }, %"struct.draco::fastdiv_elem" { i32 613566757, i32 5 }, %"struct.draco::fastdiv_elem" { i32 444306962, i32 5 }, %"struct.draco::fastdiv_elem" { i32 286331154, i32 5 }, %"struct.draco::fastdiv_elem" { i32 138547333, i32 5 }, %"struct.draco::fastdiv_elem" { i32 0, i32 5 }, %"struct.draco::fastdiv_elem" { i32 -260301048, i32 6 }, %"struct.draco::fastdiv_elem" { i32 -505290270, i32 6 }, %"struct.draco::fastdiv_elem" { i32 -736280107, i32 6 }, %"struct.draco::fastdiv_elem" { i32 -954437176, i32 6 }, %"struct.draco::fastdiv_elem" { i32 -1160801971, i32 6 }, %"struct.draco::fastdiv_elem" { i32 -1356305461, i32 6 }, %"struct.draco::fastdiv_elem" { i32 -1541783131, i32 6 }, %"struct.draco::fastdiv_elem" { i32 -1717986918, i32 6 }, %"struct.draco::fastdiv_elem" { i32 -1885595398, i32 6 }, %"struct.draco::fastdiv_elem" { i32 -2045222521, i32 6 }, %"struct.draco::fastdiv_elem" { i32 2097542168, i32 6 }, %"struct.draco::fastdiv_elem" { i32 1952257862, i32 6 }, %"struct.draco::fastdiv_elem" { i32 1813430637, i32 6 }, %"struct.draco::fastdiv_elem" { i32 1680639377, i32 6 }, %"struct.draco::fastdiv_elem" { i32 1553498810, i32 6 }, %"struct.draco::fastdiv_elem" { i32 1431655766, i32 6 }, %"struct.draco::fastdiv_elem" { i32 1314785907, i32 6 }, %"struct.draco::fastdiv_elem" { i32 1202590843, i32 6 }, %"struct.draco::fastdiv_elem" { i32 1094795586, i32 6 }, %"struct.draco::fastdiv_elem" { i32 991146300, i32 6 }, %"struct.draco::fastdiv_elem" { i32 891408307, i32 6 }, %"struct.draco::fastdiv_elem" { i32 795364315, i32 6 }, %"struct.draco::fastdiv_elem" { i32 702812831, i32 6 }, %"struct.draco::fastdiv_elem" { i32 613566757, i32 6 }, %"struct.draco::fastdiv_elem" { i32 527452125, i32 6 }, %"struct.draco::fastdiv_elem" { i32 444306962, i32 6 }, %"struct.draco::fastdiv_elem" { i32 363980280, i32 6 }, %"struct.draco::fastdiv_elem" { i32 286331154, i32 6 }, %"struct.draco::fastdiv_elem" { i32 211227900, i32 6 }, %"struct.draco::fastdiv_elem" { i32 138547333, i32 6 }, %"struct.draco::fastdiv_elem" { i32 68174085, i32 6 }, %"struct.draco::fastdiv_elem" { i32 0, i32 6 }, %"struct.draco::fastdiv_elem" { i32 -132152839, i32 7 }, %"struct.draco::fastdiv_elem" { i32 -260301048, i32 7 }, %"struct.draco::fastdiv_elem" { i32 -384623936, i32 7 }, %"struct.draco::fastdiv_elem" { i32 -505290270, i32 7 }, %"struct.draco::fastdiv_elem" { i32 -622459028, i32 7 }, %"struct.draco::fastdiv_elem" { i32 -736280107, i32 7 }, %"struct.draco::fastdiv_elem" { i32 -846894959, i32 7 }, %"struct.draco::fastdiv_elem" { i32 -954437176, i32 7 }, %"struct.draco::fastdiv_elem" { i32 -1059033031, i32 7 }, %"struct.draco::fastdiv_elem" { i32 -1160801971, i32 7 }, %"struct.draco::fastdiv_elem" { i32 -1259857073, i32 7 }, %"struct.draco::fastdiv_elem" { i32 -1356305461, i32 7 }, %"struct.draco::fastdiv_elem" { i32 -1450248697, i32 7 }, %"struct.draco::fastdiv_elem" { i32 -1541783131, i32 7 }, %"struct.draco::fastdiv_elem" { i32 -1631000238, i32 7 }, %"struct.draco::fastdiv_elem" { i32 -1717986918, i32 7 }, %"struct.draco::fastdiv_elem" { i32 -1802825778, i32 7 }, %"struct.draco::fastdiv_elem" { i32 -1885595398, i32 7 }, %"struct.draco::fastdiv_elem" { i32 -1966370569, i32 7 }, %"struct.draco::fastdiv_elem" { i32 -2045222521, i32 7 }, %"struct.draco::fastdiv_elem" { i32 -2122219134, i32 7 }, %"struct.draco::fastdiv_elem" { i32 2097542168, i32 7 }, %"struct.draco::fastdiv_elem" { i32 2024065048, i32 7 }, %"struct.draco::fastdiv_elem" { i32 1952257862, i32 7 }, %"struct.draco::fastdiv_elem" { i32 1882064321, i32 7 }, %"struct.draco::fastdiv_elem" { i32 1813430637, i32 7 }, %"struct.draco::fastdiv_elem" { i32 1746305385, i32 7 }, %"struct.draco::fastdiv_elem" { i32 1680639377, i32 7 }, %"struct.draco::fastdiv_elem" { i32 1616385542, i32 7 }, %"struct.draco::fastdiv_elem" { i32 1553498810, i32 7 }, %"struct.draco::fastdiv_elem" { i32 1491936009, i32 7 }, %"struct.draco::fastdiv_elem" { i32 1431655766, i32 7 }, %"struct.draco::fastdiv_elem" { i32 1372618415, i32 7 }, %"struct.draco::fastdiv_elem" { i32 1314785907, i32 7 }, %"struct.draco::fastdiv_elem" { i32 1258121734, i32 7 }, %"struct.draco::fastdiv_elem" { i32 1202590843, i32 7 }, %"struct.draco::fastdiv_elem" { i32 1148159575, i32 7 }, %"struct.draco::fastdiv_elem" { i32 1094795586, i32 7 }, %"struct.draco::fastdiv_elem" { i32 1042467791, i32 7 }, %"struct.draco::fastdiv_elem" { i32 991146300, i32 7 }, %"struct.draco::fastdiv_elem" { i32 940802361, i32 7 }, %"struct.draco::fastdiv_elem" { i32 891408307, i32 7 }, %"struct.draco::fastdiv_elem" { i32 842937507, i32 7 }, %"struct.draco::fastdiv_elem" { i32 795364315, i32 7 }, %"struct.draco::fastdiv_elem" { i32 748664025, i32 7 }, %"struct.draco::fastdiv_elem" { i32 702812831, i32 7 }, %"struct.draco::fastdiv_elem" { i32 657787785, i32 7 }, %"struct.draco::fastdiv_elem" { i32 613566757, i32 7 }, %"struct.draco::fastdiv_elem" { i32 570128403, i32 7 }, %"struct.draco::fastdiv_elem" { i32 527452125, i32 7 }, %"struct.draco::fastdiv_elem" { i32 485518043, i32 7 }, %"struct.draco::fastdiv_elem" { i32 444306962, i32 7 }, %"struct.draco::fastdiv_elem" { i32 403800345, i32 7 }, %"struct.draco::fastdiv_elem" { i32 363980280, i32 7 }, %"struct.draco::fastdiv_elem" { i32 324829460, i32 7 }, %"struct.draco::fastdiv_elem" { i32 286331154, i32 7 }, %"struct.draco::fastdiv_elem" { i32 248469183, i32 7 }, %"struct.draco::fastdiv_elem" { i32 211227900, i32 7 }, %"struct.draco::fastdiv_elem" { i32 174592167, i32 7 }, %"struct.draco::fastdiv_elem" { i32 138547333, i32 7 }, %"struct.draco::fastdiv_elem" { i32 103079216, i32 7 }, %"struct.draco::fastdiv_elem" { i32 68174085, i32 7 }, %"struct.draco::fastdiv_elem" { i32 33818641, i32 7 }, %"struct.draco::fastdiv_elem" { i32 0, i32 7 }, %"struct.draco::fastdiv_elem" { i32 -66588640, i32 8 }, %"struct.draco::fastdiv_elem" { i32 -132152839, i32 8 }, %"struct.draco::fastdiv_elem" { i32 -196716059, i32 8 }, %"struct.draco::fastdiv_elem" { i32 -260301048, i32 8 }, %"struct.draco::fastdiv_elem" { i32 -322929871, i32 8 }, %"struct.draco::fastdiv_elem" { i32 -384623936, i32 8 }, %"struct.draco::fastdiv_elem" { i32 -445404015, i32 8 }, %"struct.draco::fastdiv_elem" { i32 -505290270, i32 8 }, %"struct.draco::fastdiv_elem" { i32 -564302272, i32 8 }, %"struct.draco::fastdiv_elem" { i32 -622459028, i32 8 }, %"struct.draco::fastdiv_elem" { i32 -679778996, i32 8 }, %"struct.draco::fastdiv_elem" { i32 -736280107, i32 8 }, %"struct.draco::fastdiv_elem" { i32 -791979785, i32 8 }, %"struct.draco::fastdiv_elem" { i32 -846894959, i32 8 }, %"struct.draco::fastdiv_elem" { i32 -901042090, i32 8 }, %"struct.draco::fastdiv_elem" { i32 -954437176, i32 8 }, %"struct.draco::fastdiv_elem" { i32 -1007095779, i32 8 }, %"struct.draco::fastdiv_elem" { i32 -1059033031, i32 8 }, %"struct.draco::fastdiv_elem" { i32 -1110263654, i32 8 }, %"struct.draco::fastdiv_elem" { i32 -1160801971, i32 8 }, %"struct.draco::fastdiv_elem" { i32 -1210661922, i32 8 }, %"struct.draco::fastdiv_elem" { i32 -1259857073, i32 8 }, %"struct.draco::fastdiv_elem" { i32 -1308400633, i32 8 }, %"struct.draco::fastdiv_elem" { i32 -1356305461, i32 8 }, %"struct.draco::fastdiv_elem" { i32 -1403584083, i32 8 }, %"struct.draco::fastdiv_elem" { i32 -1450248697, i32 8 }, %"struct.draco::fastdiv_elem" { i32 -1496311186, i32 8 }, %"struct.draco::fastdiv_elem" { i32 -1541783131, i32 8 }, %"struct.draco::fastdiv_elem" { i32 -1586675816, i32 8 }, %"struct.draco::fastdiv_elem" { i32 -1631000238, i32 8 }, %"struct.draco::fastdiv_elem" { i32 -1674767121, i32 8 }, %"struct.draco::fastdiv_elem" { i32 -1717986918, i32 8 }, %"struct.draco::fastdiv_elem" { i32 -1760669823, i32 8 }, %"struct.draco::fastdiv_elem" { i32 -1802825778, i32 8 }, %"struct.draco::fastdiv_elem" { i32 -1844464482, i32 8 }, %"struct.draco::fastdiv_elem" { i32 -1885595398, i32 8 }, %"struct.draco::fastdiv_elem" { i32 -1926227756, i32 8 }, %"struct.draco::fastdiv_elem" { i32 -1966370569, i32 8 }, %"struct.draco::fastdiv_elem" { i32 -2006032629, i32 8 }, %"struct.draco::fastdiv_elem" { i32 -2045222521, i32 8 }, %"struct.draco::fastdiv_elem" { i32 -2083948628, i32 8 }, %"struct.draco::fastdiv_elem" { i32 -2122219134, i32 8 }, %"struct.draco::fastdiv_elem" { i32 2134925265, i32 8 }, %"struct.draco::fastdiv_elem" { i32 2097542168, i32 8 }, %"struct.draco::fastdiv_elem" { i32 2060591247, i32 8 }, %"struct.draco::fastdiv_elem" { i32 2024065048, i32 8 }, %"struct.draco::fastdiv_elem" { i32 1987956292, i32 8 }, %"struct.draco::fastdiv_elem" { i32 1952257862, i32 8 }, %"struct.draco::fastdiv_elem" { i32 1916962805, i32 8 }, %"struct.draco::fastdiv_elem" { i32 1882064321, i32 8 }, %"struct.draco::fastdiv_elem" { i32 1847555765, i32 8 }, %"struct.draco::fastdiv_elem" { i32 1813430637, i32 8 }, %"struct.draco::fastdiv_elem" { i32 1779682582, i32 8 }, %"struct.draco::fastdiv_elem" { i32 1746305385, i32 8 }, %"struct.draco::fastdiv_elem" { i32 1713292966, i32 8 }, %"struct.draco::fastdiv_elem" { i32 1680639377, i32 8 }, %"struct.draco::fastdiv_elem" { i32 1648338801, i32 8 }, %"struct.draco::fastdiv_elem" { i32 1616385542, i32 8 }, %"struct.draco::fastdiv_elem" { i32 1584774030, i32 8 }, %"struct.draco::fastdiv_elem" { i32 1553498810, i32 8 }, %"struct.draco::fastdiv_elem" { i32 1522554545, i32 8 }, %"struct.draco::fastdiv_elem" { i32 1491936009, i32 8 }, %"struct.draco::fastdiv_elem" { i32 1461638086, i32 8 }, %"struct.draco::fastdiv_elem" { i32 1431655766, i32 8 }, %"struct.draco::fastdiv_elem" { i32 1401984144, i32 8 }, %"struct.draco::fastdiv_elem" { i32 1372618415, i32 8 }, %"struct.draco::fastdiv_elem" { i32 1343553873, i32 8 }, %"struct.draco::fastdiv_elem" { i32 1314785907, i32 8 }, %"struct.draco::fastdiv_elem" { i32 1286310003, i32 8 }, %"struct.draco::fastdiv_elem" { i32 1258121734, i32 8 }, %"struct.draco::fastdiv_elem" { i32 1230216764, i32 8 }, %"struct.draco::fastdiv_elem" { i32 1202590843, i32 8 }, %"struct.draco::fastdiv_elem" { i32 1175239808, i32 8 }, %"struct.draco::fastdiv_elem" { i32 1148159575, i32 8 }, %"struct.draco::fastdiv_elem" { i32 1121346142, i32 8 }, %"struct.draco::fastdiv_elem" { i32 1094795586, i32 8 }, %"struct.draco::fastdiv_elem" { i32 1068504060, i32 8 }, %"struct.draco::fastdiv_elem" { i32 1042467791, i32 8 }, %"struct.draco::fastdiv_elem" { i32 1016683080, i32 8 }, %"struct.draco::fastdiv_elem" { i32 991146300, i32 8 }, %"struct.draco::fastdiv_elem" { i32 965853890, i32 8 }, %"struct.draco::fastdiv_elem" { i32 940802361, i32 8 }, %"struct.draco::fastdiv_elem" { i32 915988286, i32 8 }, %"struct.draco::fastdiv_elem" { i32 891408307, i32 8 }, %"struct.draco::fastdiv_elem" { i32 867059126, i32 8 }, %"struct.draco::fastdiv_elem" { i32 842937507, i32 8 }, %"struct.draco::fastdiv_elem" { i32 819040276, i32 8 }, %"struct.draco::fastdiv_elem" { i32 795364315, i32 8 }, %"struct.draco::fastdiv_elem" { i32 771906565, i32 8 }, %"struct.draco::fastdiv_elem" { i32 748664025, i32 8 }, %"struct.draco::fastdiv_elem" { i32 725633745, i32 8 }, %"struct.draco::fastdiv_elem" { i32 702812831, i32 8 }, %"struct.draco::fastdiv_elem" { i32 680198441, i32 8 }, %"struct.draco::fastdiv_elem" { i32 657787785, i32 8 }, %"struct.draco::fastdiv_elem" { i32 635578121, i32 8 }, %"struct.draco::fastdiv_elem" { i32 613566757, i32 8 }, %"struct.draco::fastdiv_elem" { i32 591751050, i32 8 }, %"struct.draco::fastdiv_elem" { i32 570128403, i32 8 }, %"struct.draco::fastdiv_elem" { i32 548696263, i32 8 }, %"struct.draco::fastdiv_elem" { i32 527452125, i32 8 }, %"struct.draco::fastdiv_elem" { i32 506393524, i32 8 }, %"struct.draco::fastdiv_elem" { i32 485518043, i32 8 }, %"struct.draco::fastdiv_elem" { i32 464823301, i32 8 }, %"struct.draco::fastdiv_elem" { i32 444306962, i32 8 }, %"struct.draco::fastdiv_elem" { i32 423966729, i32 8 }, %"struct.draco::fastdiv_elem" { i32 403800345, i32 8 }, %"struct.draco::fastdiv_elem" { i32 383805589, i32 8 }, %"struct.draco::fastdiv_elem" { i32 363980280, i32 8 }, %"struct.draco::fastdiv_elem" { i32 344322273, i32 8 }, %"struct.draco::fastdiv_elem" { i32 324829460, i32 8 }, %"struct.draco::fastdiv_elem" { i32 305499766, i32 8 }, %"struct.draco::fastdiv_elem" { i32 286331154, i32 8 }, %"struct.draco::fastdiv_elem" { i32 267321616, i32 8 }, %"struct.draco::fastdiv_elem" { i32 248469183, i32 8 }, %"struct.draco::fastdiv_elem" { i32 229771913, i32 8 }, %"struct.draco::fastdiv_elem" { i32 211227900, i32 8 }, %"struct.draco::fastdiv_elem" { i32 192835267, i32 8 }, %"struct.draco::fastdiv_elem" { i32 174592167, i32 8 }, %"struct.draco::fastdiv_elem" { i32 156496785, i32 8 }, %"struct.draco::fastdiv_elem" { i32 138547333, i32 8 }, %"struct.draco::fastdiv_elem" { i32 120742053, i32 8 }, %"struct.draco::fastdiv_elem" { i32 103079216, i32 8 }, %"struct.draco::fastdiv_elem" { i32 85557118, i32 8 }, %"struct.draco::fastdiv_elem" { i32 68174085, i32 8 }, %"struct.draco::fastdiv_elem" { i32 50928466, i32 8 }, %"struct.draco::fastdiv_elem" { i32 33818641, i32 8 }, %"struct.draco::fastdiv_elem" { i32 16843010, i32 8 }], align 16

!llvm.module.flags = !{!0}
!llvm.ident = !{!1}

!0 = !{i32 1, !"wchar_size", i32 4}
!1 = !{!"clang version 11.0.0 (/b/s/w/ir/cache/git/chromium.googlesource.com-external-github.com-llvm-llvm--project 613c4a87ba9bb39d1927402f4dd4c1ef1f9a02f7)"}
