; ModuleID = '/data/Code/wasm-optimizer-study/Projects/squoosh/Source/squoosh/codecs/avif/node_modules/libavif-enc/ext/aom/build.libavif/gen_src/aom_dsp_dummy.c'
source_filename = "/data/Code/wasm-optimizer-study/Projects/squoosh/Source/squoosh/codecs/avif/node_modules/libavif-enc/ext/aom/build.libavif/gen_src/aom_dsp_dummy.c"
target datalayout = "e-m:e-p:32:32-i64:64-n32:64-S128"
target triple = "wasm32-unknown-emscripten"

; Function Attrs: nounwind
define hidden void @aom_aom_dsp_dummy_function() #0 {
entry:
  ret void
}

attributes #0 = { nounwind "correctly-rounded-divide-sqrt-fp-math"="false" "disable-tail-calls"="false" "frame-pointer"="none" "less-precise-fpmad"="false" "min-legal-vector-width"="0" "no-infs-fp-math"="false" "no-jump-tables"="false" "no-nans-fp-math"="false" "no-signed-zeros-fp-math"="false" "no-trapping-math"="true" "stack-protector-buffer-size"="8" "target-cpu"="generic" "unsafe-fp-math"="false" "use-soft-float"="false" }

!llvm.module.flags = !{!0}
!llvm.ident = !{!1}

!0 = !{i32 1, !"wchar_size", i32 4}
!1 = !{!"clang version 11.0.0 (/b/s/w/ir/cache/git/chromium.googlesource.com-external-github.com-llvm-llvm--project 613c4a87ba9bb39d1927402f4dd4c1ef1f9a02f7)"}
