; ModuleID = '/data/Code/wasm-optimizer-study/Projects/squoosh/Source/squoosh/codecs/avif/node_modules/libaom/av1/common/odintrin.c'
source_filename = "/data/Code/wasm-optimizer-study/Projects/squoosh/Source/squoosh/codecs/avif/node_modules/libaom/av1/common/odintrin.c"
target datalayout = "e-m:e-p:32:32-i64:64-n32:64-S128"
target triple = "wasm32-unknown-emscripten"

@OD_DIVU_SMALL_CONSTS = hidden global [1024 x [2 x i32]] [[2 x i32] [i32 -1, i32 -1], [2 x i32] [i32 -1, i32 -1], [2 x i32] [i32 -1431655765, i32 0], [2 x i32] [i32 -1, i32 -1], [2 x i32] [i32 -858993459, i32 0], [2 x i32] [i32 -1431655765, i32 0], [2 x i32] [i32 -1840700270, i32 -1840700270], [2 x i32] [i32 -1, i32 -1], [2 x i32] [i32 -477218588, i32 0], [2 x i32] [i32 -858993459, i32 0], [2 x i32] [i32 -1171354717, i32 0], [2 x i32] [i32 -1431655765, i32 0], [2 x i32] [i32 -1651910498, i32 0], [2 x i32] [i32 -1840700270, i32 -1840700270], [2 x i32] [i32 -2004318071, i32 0], [2 x i32] [i32 -1, i32 -1], [2 x i32] [i32 -252645135, i32 0], [2 x i32] [i32 -477218588, i32 0], [2 x i32] [i32 -678152731, i32 -678152731], [2 x i32] [i32 -858993459, i32 0], [2 x i32] [i32 -1022611261, i32 -1022611261], [2 x i32] [i32 -1171354717, i32 0], [2 x i32] [i32 -1307163959, i32 0], [2 x i32] [i32 -1431655765, i32 0], [2 x i32] [i32 -1546188226, i32 0], [2 x i32] [i32 -1651910498, i32 0], [2 x i32] [i32 -1749801491, i32 -1749801491], [2 x i32] [i32 -1840700270, i32 -1840700270], [2 x i32] [i32 -1925330167, i32 0], [2 x i32] [i32 -2004318071, i32 0], [2 x i32] [i32 -2078209982, i32 -2078209982], [2 x i32] [i32 -1, i32 -1], [2 x i32] [i32 -130150524, i32 0], [2 x i32] [i32 -252645135, i32 0], [2 x i32] [i32 -368140054, i32 -368140054], [2 x i32] [i32 -477218588, i32 0], [2 x i32] [i32 -580400986, i32 -580400986], [2 x i32] [i32 -678152731, i32 -678152731], [2 x i32] [i32 -770891566, i32 -770891566], [2 x i32] [i32 -858993459, i32 0], [2 x i32] [i32 -942797699, i32 0], [2 x i32] [i32 -1022611261, i32 -1022611261], [2 x i32] [i32 -1098712564, i32 0], [2 x i32] [i32 -1171354717, i32 0], [2 x i32] [i32 -1240768330, i32 -1240768330], [2 x i32] [i32 -1307163959, i32 0], [2 x i32] [i32 -1370734243, i32 0], [2 x i32] [i32 -1431655765, i32 0], [2 x i32] [i32 -1490090694, i32 0], [2 x i32] [i32 -1546188226, i32 0], [2 x i32] [i32 -1600085855, i32 0], [2 x i32] [i32 -1651910498, i32 0], [2 x i32] [i32 -1701779495, i32 -1701779495], [2 x i32] [i32 -1749801491, i32 -1749801491], [2 x i32] [i32 -1796077233, i32 -1796077233], [2 x i32] [i32 -1840700270, i32 -1840700270], [2 x i32] [i32 -1883757586, i32 -1883757586], [2 x i32] [i32 -1925330167, i32 0], [2 x i32] [i32 -1965493508, i32 0], [2 x i32] [i32 -2004318071, i32 0], [2 x i32] [i32 -2041869698, i32 0], [2 x i32] [i32 -2078209982, i32 -2078209982], [2 x i32] [i32 -2113396606, i32 -2113396606], [2 x i32] [i32 -1, i32 -1], [2 x i32] [i32 -66076419, i32 0], [2 x i32] [i32 -130150524, i32 0], [2 x i32] [i32 -192311968, i32 0], [2 x i32] [i32 -252645135, i32 0], [2 x i32] [i32 -311229514, i32 0], [2 x i32] [i32 -368140054, i32 -368140054], [2 x i32] [i32 -423447479, i32 0], [2 x i32] [i32 -477218588, i32 0], [2 x i32] [i32 -529516516, i32 -529516516], [2 x i32] [i32 -580400986, i32 -580400986], [2 x i32] [i32 -629928536, i32 0], [2 x i32] [i32 -678152731, i32 -678152731], [2 x i32] [i32 -725124348, i32 0], [2 x i32] [i32 -770891566, i32 -770891566], [2 x i32] [i32 -815500119, i32 0], [2 x i32] [i32 -858993459, i32 0], [2 x i32] [i32 -901412889, i32 0], [2 x i32] [i32 -942797699, i32 0], [2 x i32] [i32 -983185284, i32 0], [2 x i32] [i32 -1022611261, i32 -1022611261], [2 x i32] [i32 -1061109567, i32 0], [2 x i32] [i32 -1098712564, i32 0], [2 x i32] [i32 -1135451124, i32 0], [2 x i32] [i32 -1171354717, i32 0], [2 x i32] [i32 -1206451487, i32 0], [2 x i32] [i32 -1240768330, i32 -1240768330], [2 x i32] [i32 -1274330956, i32 -1274330956], [2 x i32] [i32 -1307163959, i32 0], [2 x i32] [i32 -1339290877, i32 0], [2 x i32] [i32 -1370734243, i32 0], [2 x i32] [i32 -1401515644, i32 -1401515644], [2 x i32] [i32 -1431655765, i32 0], [2 x i32] [i32 -1461174441, i32 -1461174441], [2 x i32] [i32 -1490090694, i32 0], [2 x i32] [i32 -1518422781, i32 0], [2 x i32] [i32 -1546188226, i32 0], [2 x i32] [i32 -1573403861, i32 -1573403861], [2 x i32] [i32 -1600085855, i32 0], [2 x i32] [i32 -1626249753, i32 -1626249753], [2 x i32] [i32 -1651910498, i32 0], [2 x i32] [i32 -1677082468, i32 -1677082468], [2 x i32] [i32 -1701779495, i32 -1701779495], [2 x i32] [i32 -1726014895, i32 -1726014895], [2 x i32] [i32 -1749801491, i32 -1749801491], [2 x i32] [i32 -1773151636, i32 -1773151636], [2 x i32] [i32 -1796077233, i32 -1796077233], [2 x i32] [i32 -1818589756, i32 -1818589756], [2 x i32] [i32 -1840700270, i32 -1840700270], [2 x i32] [i32 -1862419447, i32 -1862419447], [2 x i32] [i32 -1883757586, i32 -1883757586], [2 x i32] [i32 -1904724627, i32 -1904724627], [2 x i32] [i32 -1925330167, i32 0], [2 x i32] [i32 -1945583476, i32 -1945583476], [2 x i32] [i32 -1965493508, i32 0], [2 x i32] [i32 -1985068918, i32 0], [2 x i32] [i32 -2004318071, i32 0], [2 x i32] [i32 -2023249057, i32 -2023249057], [2 x i32] [i32 -2041869698, i32 0], [2 x i32] [i32 -2060187565, i32 -2060187565], [2 x i32] [i32 -2078209982, i32 -2078209982], [2 x i32] [i32 -2095944040, i32 0], [2 x i32] [i32 -2113396606, i32 -2113396606], [2 x i32] [i32 -2130574328, i32 -2130574328], [2 x i32] [i32 -1, i32 -1], [2 x i32] [i32 -33294320, i32 0], [2 x i32] [i32 -66076419, i32 0], [2 x i32] [i32 -98358029, i32 0], [2 x i32] [i32 -130150524, i32 0], [2 x i32] [i32 -161464935, i32 0], [2 x i32] [i32 -192311968, i32 0], [2 x i32] [i32 -222702007, i32 0], [2 x i32] [i32 -252645135, i32 0], [2 x i32] [i32 -282151136, i32 0], [2 x i32] [i32 -311229514, i32 0], [2 x i32] [i32 -339889498, i32 0], [2 x i32] [i32 -368140054, i32 -368140054], [2 x i32] [i32 -395989892, i32 0], [2 x i32] [i32 -423447479, i32 0], [2 x i32] [i32 -450521045, i32 0], [2 x i32] [i32 -477218588, i32 0], [2 x i32] [i32 -503547889, i32 0], [2 x i32] [i32 -529516516, i32 -529516516], [2 x i32] [i32 -555131827, i32 0], [2 x i32] [i32 -580400986, i32 -580400986], [2 x i32] [i32 -605330961, i32 0], [2 x i32] [i32 -629928536, i32 0], [2 x i32] [i32 -654200316, i32 0], [2 x i32] [i32 -678152731, i32 -678152731], [2 x i32] [i32 -701792041, i32 0], [2 x i32] [i32 -725124348, i32 0], [2 x i32] [i32 -748155593, i32 0], [2 x i32] [i32 -770891566, i32 -770891566], [2 x i32] [i32 -793337908, i32 0], [2 x i32] [i32 -815500119, i32 0], [2 x i32] [i32 -837383561, i32 -837383561], [2 x i32] [i32 -858993459, i32 0], [2 x i32] [i32 -880334911, i32 0], [2 x i32] [i32 -901412889, i32 0], [2 x i32] [i32 -922232241, i32 0], [2 x i32] [i32 -942797699, i32 0], [2 x i32] [i32 -963113878, i32 0], [2 x i32] [i32 -983185284, i32 0], [2 x i32] [i32 -1003016314, i32 0], [2 x i32] [i32 -1022611261, i32 -1022611261], [2 x i32] [i32 -1041974314, i32 0], [2 x i32] [i32 -1061109567, i32 0], [2 x i32] [i32 -1080021016, i32 -1080021016], [2 x i32] [i32 -1098712564, i32 0], [2 x i32] [i32 -1117188025, i32 -1117188025], [2 x i32] [i32 -1135451124, i32 0], [2 x i32] [i32 -1153505502, i32 0], [2 x i32] [i32 -1171354717, i32 0], [2 x i32] [i32 -1189002246, i32 -1189002246], [2 x i32] [i32 -1206451487, i32 0], [2 x i32] [i32 -1223705766, i32 -1223705766], [2 x i32] [i32 -1240768330, i32 -1240768330], [2 x i32] [i32 -1257642357, i32 0], [2 x i32] [i32 -1274330956, i32 -1274330956], [2 x i32] [i32 -1290837165, i32 0], [2 x i32] [i32 -1307163959, i32 0], [2 x i32] [i32 -1323314248, i32 -1323314248], [2 x i32] [i32 -1339290877, i32 0], [2 x i32] [i32 -1355096633, i32 0], [2 x i32] [i32 -1370734243, i32 0], [2 x i32] [i32 -1386206376, i32 -1386206376], [2 x i32] [i32 -1401515644, i32 -1401515644], [2 x i32] [i32 -1416664605, i32 0], [2 x i32] [i32 -1431655765, i32 0], [2 x i32] [i32 -1446491576, i32 0], [2 x i32] [i32 -1461174441, i32 -1461174441], [2 x i32] [i32 -1475706712, i32 -1475706712], [2 x i32] [i32 -1490090694, i32 0], [2 x i32] [i32 -1504328647, i32 -1504328647], [2 x i32] [i32 -1518422781, i32 0], [2 x i32] [i32 -1532375266, i32 0], [2 x i32] [i32 -1546188226, i32 0], [2 x i32] [i32 -1559863744, i32 0], [2 x i32] [i32 -1573403861, i32 -1573403861], [2 x i32] [i32 -1586810577, i32 0], [2 x i32] [i32 -1600085855, i32 0], [2 x i32] [i32 -1613231618, i32 0], [2 x i32] [i32 -1626249753, i32 -1626249753], [2 x i32] [i32 -1639142108, i32 0], [2 x i32] [i32 -1651910498, i32 0], [2 x i32] [i32 -1664556703, i32 0], [2 x i32] [i32 -1677082468, i32 -1677082468], [2 x i32] [i32 -1689489505, i32 0], [2 x i32] [i32 -1701779495, i32 -1701779495], [2 x i32] [i32 -1713954085, i32 0], [2 x i32] [i32 -1726014895, i32 -1726014895], [2 x i32] [i32 -1737963510, i32 0], [2 x i32] [i32 -1749801491, i32 -1749801491], [2 x i32] [i32 -1761530366, i32 -1761530366], [2 x i32] [i32 -1773151636, i32 -1773151636], [2 x i32] [i32 -1784666776, i32 -1784666776], [2 x i32] [i32 -1796077233, i32 -1796077233], [2 x i32] [i32 -1807384428, i32 -1807384428], [2 x i32] [i32 -1818589756, i32 -1818589756], [2 x i32] [i32 -1829694588, i32 -1829694588], [2 x i32] [i32 -1840700270, i32 -1840700270], [2 x i32] [i32 -1851608123, i32 0], [2 x i32] [i32 -1862419447, i32 -1862419447], [2 x i32] [i32 -1873135517, i32 -1873135517], [2 x i32] [i32 -1883757586, i32 -1883757586], [2 x i32] [i32 -1894286886, i32 0], [2 x i32] [i32 -1904724627, i32 -1904724627], [2 x i32] [i32 -1915071998, i32 -1915071998], [2 x i32] [i32 -1925330167, i32 0], [2 x i32] [i32 -1935500284, i32 -1935500284], [2 x i32] [i32 -1945583476, i32 -1945583476], [2 x i32] [i32 -1955580854, i32 -1955580854], [2 x i32] [i32 -1965493508, i32 0], [2 x i32] [i32 -1975322512, i32 -1975322512], [2 x i32] [i32 -1985068918, i32 0], [2 x i32] [i32 -1994733765, i32 0], [2 x i32] [i32 -2004318071, i32 0], [2 x i32] [i32 -2013822840, i32 0], [2 x i32] [i32 -2023249057, i32 -2023249057], [2 x i32] [i32 -2032597691, i32 0], [2 x i32] [i32 -2041869698, i32 0], [2 x i32] [i32 -2051066015, i32 -2051066015], [2 x i32] [i32 -2060187565, i32 -2060187565], [2 x i32] [i32 -2069235256, i32 -2069235256], [2 x i32] [i32 -2078209982, i32 -2078209982], [2 x i32] [i32 -2087112622, i32 -2087112622], [2 x i32] [i32 -2095944040, i32 0], [2 x i32] [i32 -2104705089, i32 0], [2 x i32] [i32 -2113396606, i32 -2113396606], [2 x i32] [i32 -2122019415, i32 0], [2 x i32] [i32 -2130574328, i32 -2130574328], [2 x i32] [i32 -2139062143, i32 0], [2 x i32] [i32 -1, i32 -1], [2 x i32] [i32 -16711935, i32 0], [2 x i32] [i32 -33294320, i32 0], [2 x i32] [i32 -49748655, i32 0], [2 x i32] [i32 -66076419, i32 0], [2 x i32] [i32 -82279066, i32 0], [2 x i32] [i32 -98358029, i32 0], [2 x i32] [i32 -114314718, i32 0], [2 x i32] [i32 -130150524, i32 0], [2 x i32] [i32 -145866813, i32 0], [2 x i32] [i32 -161464935, i32 0], [2 x i32] [i32 -176946218, i32 0], [2 x i32] [i32 -192311968, i32 0], [2 x i32] [i32 -207563475, i32 0], [2 x i32] [i32 -222702007, i32 0], [2 x i32] [i32 -237728817, i32 0], [2 x i32] [i32 -252645135, i32 0], [2 x i32] [i32 -267452176, i32 -267452176], [2 x i32] [i32 -282151136, i32 0], [2 x i32] [i32 -296743195, i32 -296743195], [2 x i32] [i32 -311229514, i32 0], [2 x i32] [i32 -325611239, i32 0], [2 x i32] [i32 -339889498, i32 0], [2 x i32] [i32 -354065404, i32 0], [2 x i32] [i32 -368140054, i32 -368140054], [2 x i32] [i32 -382114528, i32 0], [2 x i32] [i32 -395989892, i32 0], [2 x i32] [i32 -409767197, i32 0], [2 x i32] [i32 -423447479, i32 0], [2 x i32] [i32 -437031760, i32 -437031760], [2 x i32] [i32 -450521045, i32 0], [2 x i32] [i32 -463916328, i32 0], [2 x i32] [i32 -477218588, i32 0], [2 x i32] [i32 -490428791, i32 0], [2 x i32] [i32 -503547889, i32 0], [2 x i32] [i32 -516576822, i32 0], [2 x i32] [i32 -529516516, i32 -529516516], [2 x i32] [i32 -542367883, i32 0], [2 x i32] [i32 -555131827, i32 0], [2 x i32] [i32 -567809235, i32 0], [2 x i32] [i32 -580400986, i32 -580400986], [2 x i32] [i32 -592907943, i32 0], [2 x i32] [i32 -605330961, i32 0], [2 x i32] [i32 -617670882, i32 0], [2 x i32] [i32 -629928536, i32 0], [2 x i32] [i32 -642104745, i32 0], [2 x i32] [i32 -654200316, i32 0], [2 x i32] [i32 -666216049, i32 0], [2 x i32] [i32 -678152731, i32 -678152731], [2 x i32] [i32 -690011139, i32 0], [2 x i32] [i32 -701792041, i32 0], [2 x i32] [i32 -713496195, i32 0], [2 x i32] [i32 -725124348, i32 0], [2 x i32] [i32 -736677238, i32 0], [2 x i32] [i32 -748155593, i32 0], [2 x i32] [i32 -759560132, i32 0], [2 x i32] [i32 -770891566, i32 -770891566], [2 x i32] [i32 -782150594, i32 -782150594], [2 x i32] [i32 -793337908, i32 0], [2 x i32] [i32 -804454192, i32 -804454192], [2 x i32] [i32 -815500119, i32 0], [2 x i32] [i32 -826476356, i32 0], [2 x i32] [i32 -837383561, i32 -837383561], [2 x i32] [i32 -848222381, i32 0], [2 x i32] [i32 -858993459, i32 0], [2 x i32] [i32 -869697427, i32 0], [2 x i32] [i32 -880334911, i32 0], [2 x i32] [i32 -890906529, i32 -890906529], [2 x i32] [i32 -901412889, i32 0], [2 x i32] [i32 -911854595, i32 0], [2 x i32] [i32 -922232241, i32 0], [2 x i32] [i32 -932546416, i32 -932546416], [2 x i32] [i32 -942797699, i32 0], [2 x i32] [i32 -952986664, i32 0], [2 x i32] [i32 -963113878, i32 0], [2 x i32] [i32 -973179901, i32 -973179901], [2 x i32] [i32 -983185284, i32 0], [2 x i32] [i32 -993130576, i32 -993130576], [2 x i32] [i32 -1003016314, i32 0], [2 x i32] [i32 -1012843034, i32 -1012843034], [2 x i32] [i32 -1022611261, i32 -1022611261], [2 x i32] [i32 -1032321516, i32 0], [2 x i32] [i32 -1041974314, i32 0], [2 x i32] [i32 -1051570164, i32 -1051570164], [2 x i32] [i32 -1061109567, i32 0], [2 x i32] [i32 -1070593021, i32 -1070593021], [2 x i32] [i32 -1080021016, i32 -1080021016], [2 x i32] [i32 -1089394037, i32 0], [2 x i32] [i32 -1098712564, i32 0], [2 x i32] [i32 -1107977070, i32 0], [2 x i32] [i32 -1117188025, i32 -1117188025], [2 x i32] [i32 -1126345890, i32 0], [2 x i32] [i32 -1135451124, i32 0], [2 x i32] [i32 -1144504179, i32 0], [2 x i32] [i32 -1153505502, i32 0], [2 x i32] [i32 -1162455536, i32 -1162455536], [2 x i32] [i32 -1171354717, i32 0], [2 x i32] [i32 -1180203478, i32 -1180203478], [2 x i32] [i32 -1189002246, i32 -1189002246], [2 x i32] [i32 -1197751443, i32 0], [2 x i32] [i32 -1206451487, i32 0], [2 x i32] [i32 -1215102792, i32 0], [2 x i32] [i32 -1223705766, i32 -1223705766], [2 x i32] [i32 -1232260812, i32 -1232260812], [2 x i32] [i32 -1240768330, i32 -1240768330], [2 x i32] [i32 -1249228715, i32 -1249228715], [2 x i32] [i32 -1257642357, i32 0], [2 x i32] [i32 -1266009644, i32 -1266009644], [2 x i32] [i32 -1274330956, i32 -1274330956], [2 x i32] [i32 -1282606672, i32 -1282606672], [2 x i32] [i32 -1290837165, i32 0], [2 x i32] [i32 -1299022806, i32 0], [2 x i32] [i32 -1307163959, i32 0], [2 x i32] [i32 -1315260987, i32 0], [2 x i32] [i32 -1323314248, i32 -1323314248], [2 x i32] [i32 -1331324094, i32 0], [2 x i32] [i32 -1339290877, i32 0], [2 x i32] [i32 -1347214943, i32 -1347214943], [2 x i32] [i32 -1355096633, i32 0], [2 x i32] [i32 -1362936288, i32 0], [2 x i32] [i32 -1370734243, i32 0], [2 x i32] [i32 -1378490830, i32 -1378490830], [2 x i32] [i32 -1386206376, i32 -1386206376], [2 x i32] [i32 -1393881207, i32 -1393881207], [2 x i32] [i32 -1401515644, i32 -1401515644], [2 x i32] [i32 -1409110005, i32 0], [2 x i32] [i32 -1416664605, i32 0], [2 x i32] [i32 -1424179756, i32 0], [2 x i32] [i32 -1431655765, i32 0], [2 x i32] [i32 -1439092938, i32 0], [2 x i32] [i32 -1446491576, i32 0], [2 x i32] [i32 -1453851979, i32 -1453851979], [2 x i32] [i32 -1461174441, i32 -1461174441], [2 x i32] [i32 -1468459255, i32 0], [2 x i32] [i32 -1475706712, i32 -1475706712], [2 x i32] [i32 -1482917097, i32 0], [2 x i32] [i32 -1490090694, i32 0], [2 x i32] [i32 -1497227785, i32 0], [2 x i32] [i32 -1504328647, i32 -1504328647], [2 x i32] [i32 -1511393555, i32 -1511393555], [2 x i32] [i32 -1518422781, i32 0], [2 x i32] [i32 -1525416596, i32 0], [2 x i32] [i32 -1532375266, i32 0], [2 x i32] [i32 -1539299056, i32 -1539299056], [2 x i32] [i32 -1546188226, i32 0], [2 x i32] [i32 -1553043037, i32 0], [2 x i32] [i32 -1559863744, i32 0], [2 x i32] [i32 -1566650602, i32 -1566650602], [2 x i32] [i32 -1573403861, i32 -1573403861], [2 x i32] [i32 -1580123770, i32 0], [2 x i32] [i32 -1586810577, i32 0], [2 x i32] [i32 -1593464525, i32 0], [2 x i32] [i32 -1600085855, i32 0], [2 x i32] [i32 -1606674807, i32 0], [2 x i32] [i32 -1613231618, i32 0], [2 x i32] [i32 -1619756523, i32 -1619756523], [2 x i32] [i32 -1626249753, i32 -1626249753], [2 x i32] [i32 -1632711539, i32 -1632711539], [2 x i32] [i32 -1639142108, i32 0], [2 x i32] [i32 -1645541687, i32 -1645541687], [2 x i32] [i32 -1651910498, i32 0], [2 x i32] [i32 -1658248764, i32 0], [2 x i32] [i32 -1664556703, i32 0], [2 x i32] [i32 -1670834533, i32 -1670834533], [2 x i32] [i32 -1677082468, i32 -1677082468], [2 x i32] [i32 -1683300722, i32 -1683300722], [2 x i32] [i32 -1689489505, i32 0], [2 x i32] [i32 -1695649027, i32 0], [2 x i32] [i32 -1701779495, i32 -1701779495], [2 x i32] [i32 -1707881113, i32 -1707881113], [2 x i32] [i32 -1713954085, i32 0], [2 x i32] [i32 -1719998613, i32 -1719998613], [2 x i32] [i32 -1726014895, i32 -1726014895], [2 x i32] [i32 -1732003129, i32 -1732003129], [2 x i32] [i32 -1737963510, i32 0], [2 x i32] [i32 -1743896234, i32 -1743896234], [2 x i32] [i32 -1749801491, i32 -1749801491], [2 x i32] [i32 -1755679472, i32 0], [2 x i32] [i32 -1761530366, i32 -1761530366], [2 x i32] [i32 -1767354358, i32 0], [2 x i32] [i32 -1773151636, i32 -1773151636], [2 x i32] [i32 -1778922381, i32 0], [2 x i32] [i32 -1784666776, i32 -1784666776], [2 x i32] [i32 -1790385000, i32 0], [2 x i32] [i32 -1796077233, i32 -1796077233], [2 x i32] [i32 -1801743650, i32 0], [2 x i32] [i32 -1807384428, i32 -1807384428], [2 x i32] [i32 -1812999739, i32 -1812999739], [2 x i32] [i32 -1818589756, i32 -1818589756], [2 x i32] [i32 -1824154649, i32 0], [2 x i32] [i32 -1829694588, i32 -1829694588], [2 x i32] [i32 -1835209739, i32 0], [2 x i32] [i32 -1840700270, i32 -1840700270], [2 x i32] [i32 -1846166343, i32 0], [2 x i32] [i32 -1851608123, i32 0], [2 x i32] [i32 -1857025771, i32 -1857025771], [2 x i32] [i32 -1862419447, i32 -1862419447], [2 x i32] [i32 -1867789310, i32 -1867789310], [2 x i32] [i32 -1873135517, i32 -1873135517], [2 x i32] [i32 -1878458224, i32 -1878458224], [2 x i32] [i32 -1883757586, i32 -1883757586], [2 x i32] [i32 -1889033756, i32 0], [2 x i32] [i32 -1894286886, i32 0], [2 x i32] [i32 -1899517126, i32 0], [2 x i32] [i32 -1904724627, i32 -1904724627], [2 x i32] [i32 -1909909535, i32 0], [2 x i32] [i32 -1915071998, i32 -1915071998], [2 x i32] [i32 -1920212160, i32 0], [2 x i32] [i32 -1925330167, i32 0], [2 x i32] [i32 -1930426161, i32 -1930426161], [2 x i32] [i32 -1935500284, i32 -1935500284], [2 x i32] [i32 -1940552675, i32 0], [2 x i32] [i32 -1945583476, i32 -1945583476], [2 x i32] [i32 -1950592823, i32 0], [2 x i32] [i32 -1955580854, i32 -1955580854], [2 x i32] [i32 -1960547704, i32 0], [2 x i32] [i32 -1965493508, i32 0], [2 x i32] [i32 -1970418400, i32 0], [2 x i32] [i32 -1975322512, i32 -1975322512], [2 x i32] [i32 -1980205974, i32 0], [2 x i32] [i32 -1985068918, i32 0], [2 x i32] [i32 -1989911473, i32 -1989911473], [2 x i32] [i32 -1994733765, i32 0], [2 x i32] [i32 -1999535923, i32 -1999535923], [2 x i32] [i32 -2004318071, i32 0], [2 x i32] [i32 -2009080336, i32 -2009080336], [2 x i32] [i32 -2013822840, i32 0], [2 x i32] [i32 -2018545706, i32 0], [2 x i32] [i32 -2023249057, i32 -2023249057], [2 x i32] [i32 -2027933012, i32 -2027933012], [2 x i32] [i32 -2032597691, i32 0], [2 x i32] [i32 -2037243214, i32 0], [2 x i32] [i32 -2041869698, i32 0], [2 x i32] [i32 -2046477260, i32 -2046477260], [2 x i32] [i32 -2051066015, i32 -2051066015], [2 x i32] [i32 -2055636079, i32 -2055636079], [2 x i32] [i32 -2060187565, i32 -2060187565], [2 x i32] [i32 -2064720586, i32 0], [2 x i32] [i32 -2069235256, i32 -2069235256], [2 x i32] [i32 -2073731684, i32 0], [2 x i32] [i32 -2078209982, i32 -2078209982], [2 x i32] [i32 -2082670258, i32 0], [2 x i32] [i32 -2087112622, i32 -2087112622], [2 x i32] [i32 -2091537180, i32 0], [2 x i32] [i32 -2095944040, i32 0], [2 x i32] [i32 -2100333308, i32 0], [2 x i32] [i32 -2104705089, i32 0], [2 x i32] [i32 -2109059487, i32 0], [2 x i32] [i32 -2113396606, i32 -2113396606], [2 x i32] [i32 -2117716548, i32 -2117716548], [2 x i32] [i32 -2122019415, i32 0], [2 x i32] [i32 -2126305308, i32 0], [2 x i32] [i32 -2130574328, i32 -2130574328], [2 x i32] [i32 -2134826573, i32 0], [2 x i32] [i32 -2139062143, i32 0], [2 x i32] [i32 -2143281136, i32 -2143281136], [2 x i32] [i32 -1, i32 -1], [2 x i32] [i32 -8372255, i32 0], [2 x i32] [i32 -16711935, i32 0], [2 x i32] [i32 -25019226, i32 0], [2 x i32] [i32 -33294320, i32 0], [2 x i32] [i32 -41537401, i32 0], [2 x i32] [i32 -49748655, i32 0], [2 x i32] [i32 -57928267, i32 0], [2 x i32] [i32 -66076419, i32 0], [2 x i32] [i32 -74193293, i32 0], [2 x i32] [i32 -82279066, i32 0], [2 x i32] [i32 -90333920, i32 0], [2 x i32] [i32 -98358029, i32 0], [2 x i32] [i32 -106351571, i32 0], [2 x i32] [i32 -114314718, i32 0], [2 x i32] [i32 -122247646, i32 -122247646], [2 x i32] [i32 -130150524, i32 0], [2 x i32] [i32 -138023523, i32 0], [2 x i32] [i32 -145866813, i32 0], [2 x i32] [i32 -153680562, i32 0], [2 x i32] [i32 -161464935, i32 0], [2 x i32] [i32 -169220099, i32 0], [2 x i32] [i32 -176946218, i32 0], [2 x i32] [i32 -184643453, i32 0], [2 x i32] [i32 -192311968, i32 0], [2 x i32] [i32 -199951922, i32 0], [2 x i32] [i32 -207563475, i32 0], [2 x i32] [i32 -215146784, i32 0], [2 x i32] [i32 -222702007, i32 0], [2 x i32] [i32 -230229300, i32 0], [2 x i32] [i32 -237728817, i32 0], [2 x i32] [i32 -245200711, i32 0], [2 x i32] [i32 -252645135, i32 0], [2 x i32] [i32 -260062240, i32 -260062240], [2 x i32] [i32 -267452176, i32 -267452176], [2 x i32] [i32 -274815092, i32 0], [2 x i32] [i32 -282151136, i32 0], [2 x i32] [i32 -289460455, i32 0], [2 x i32] [i32 -296743195, i32 -296743195], [2 x i32] [i32 -303999500, i32 0], [2 x i32] [i32 -311229514, i32 0], [2 x i32] [i32 -318433380, i32 -318433380], [2 x i32] [i32 -325611239, i32 0], [2 x i32] [i32 -332763232, i32 -332763232], [2 x i32] [i32 -339889498, i32 0], [2 x i32] [i32 -346990176, i32 0], [2 x i32] [i32 -354065404, i32 0], [2 x i32] [i32 -361115318, i32 0], [2 x i32] [i32 -368140054, i32 -368140054], [2 x i32] [i32 -375139746, i32 -375139746], [2 x i32] [i32 -382114528, i32 0], [2 x i32] [i32 -389064533, i32 0], [2 x i32] [i32 -395989892, i32 0], [2 x i32] [i32 -402890737, i32 0], [2 x i32] [i32 -409767197, i32 0], [2 x i32] [i32 -416619402, i32 0], [2 x i32] [i32 -423447479, i32 0], [2 x i32] [i32 -430251556, i32 0], [2 x i32] [i32 -437031760, i32 -437031760], [2 x i32] [i32 -443788214, i32 0], [2 x i32] [i32 -450521045, i32 0], [2 x i32] [i32 -457230375, i32 0], [2 x i32] [i32 -463916328, i32 0], [2 x i32] [i32 -470579025, i32 0], [2 x i32] [i32 -477218588, i32 0], [2 x i32] [i32 -483835137, i32 0], [2 x i32] [i32 -490428791, i32 0], [2 x i32] [i32 -496999669, i32 0], [2 x i32] [i32 -503547889, i32 0], [2 x i32] [i32 -510073568, i32 0], [2 x i32] [i32 -516576822, i32 0], [2 x i32] [i32 -523057766, i32 0], [2 x i32] [i32 -529516516, i32 -529516516], [2 x i32] [i32 -535953184, i32 -535953184], [2 x i32] [i32 -542367883, i32 0], [2 x i32] [i32 -548760727, i32 0], [2 x i32] [i32 -555131827, i32 0], [2 x i32] [i32 -561481293, i32 0], [2 x i32] [i32 -567809235, i32 0], [2 x i32] [i32 -574115763, i32 0], [2 x i32] [i32 -580400986, i32 -580400986], [2 x i32] [i32 -586665010, i32 0], [2 x i32] [i32 -592907943, i32 0], [2 x i32] [i32 -599129891, i32 0], [2 x i32] [i32 -605330961, i32 0], [2 x i32] [i32 -611511256, i32 0], [2 x i32] [i32 -617670882, i32 0], [2 x i32] [i32 -623809941, i32 0], [2 x i32] [i32 -629928536, i32 0], [2 x i32] [i32 -636026771, i32 -636026771], [2 x i32] [i32 -642104745, i32 0], [2 x i32] [i32 -648162560, i32 0], [2 x i32] [i32 -654200316, i32 0], [2 x i32] [i32 -660218113, i32 0], [2 x i32] [i32 -666216049, i32 0], [2 x i32] [i32 -672194222, i32 0], [2 x i32] [i32 -678152731, i32 -678152731], [2 x i32] [i32 -684091671, i32 0], [2 x i32] [i32 -690011139, i32 0], [2 x i32] [i32 -695911231, i32 0], [2 x i32] [i32 -701792041, i32 0], [2 x i32] [i32 -707653665, i32 0], [2 x i32] [i32 -713496195, i32 0], [2 x i32] [i32 -719319726, i32 -719319726], [2 x i32] [i32 -725124348, i32 0], [2 x i32] [i32 -730910155, i32 0], [2 x i32] [i32 -736677238, i32 0], [2 x i32] [i32 -742425687, i32 0], [2 x i32] [i32 -748155593, i32 0], [2 x i32] [i32 -753867045, i32 0], [2 x i32] [i32 -759560132, i32 0], [2 x i32] [i32 -765234943, i32 0], [2 x i32] [i32 -770891566, i32 -770891566], [2 x i32] [i32 -776530087, i32 0], [2 x i32] [i32 -782150594, i32 -782150594], [2 x i32] [i32 -787753172, i32 0], [2 x i32] [i32 -793337908, i32 0], [2 x i32] [i32 -798904886, i32 0], [2 x i32] [i32 -804454192, i32 -804454192], [2 x i32] [i32 -809985908, i32 0], [2 x i32] [i32 -815500119, i32 0], [2 x i32] [i32 -820996908, i32 0], [2 x i32] [i32 -826476356, i32 0], [2 x i32] [i32 -831938547, i32 0], [2 x i32] [i32 -837383561, i32 -837383561], [2 x i32] [i32 -842811479, i32 -842811479], [2 x i32] [i32 -848222381, i32 0], [2 x i32] [i32 -853616348, i32 0], [2 x i32] [i32 -858993459, i32 0], [2 x i32] [i32 -864353792, i32 0], [2 x i32] [i32 -869697427, i32 0], [2 x i32] [i32 -875024441, i32 0], [2 x i32] [i32 -880334911, i32 0], [2 x i32] [i32 -885628915, i32 0], [2 x i32] [i32 -890906529, i32 -890906529], [2 x i32] [i32 -896167828, i32 0], [2 x i32] [i32 -901412889, i32 0], [2 x i32] [i32 -906641786, i32 0], [2 x i32] [i32 -911854595, i32 0], [2 x i32] [i32 -917051389, i32 -917051389], [2 x i32] [i32 -922232241, i32 0], [2 x i32] [i32 -927397226, i32 0], [2 x i32] [i32 -932546416, i32 -932546416], [2 x i32] [i32 -937679883, i32 -937679883], [2 x i32] [i32 -942797699, i32 0], [2 x i32] [i32 -947899936, i32 -947899936], [2 x i32] [i32 -952986664, i32 0], [2 x i32] [i32 -958057955, i32 0], [2 x i32] [i32 -963113878, i32 0], [2 x i32] [i32 -968154504, i32 -968154504], [2 x i32] [i32 -973179901, i32 -973179901], [2 x i32] [i32 -978190138, i32 0], [2 x i32] [i32 -983185284, i32 0], [2 x i32] [i32 -988165408, i32 -988165408], [2 x i32] [i32 -993130576, i32 -993130576], [2 x i32] [i32 -998080856, i32 -998080856], [2 x i32] [i32 -1003016314, i32 0], [2 x i32] [i32 -1007937018, i32 0], [2 x i32] [i32 -1012843034, i32 -1012843034], [2 x i32] [i32 -1017734426, i32 0], [2 x i32] [i32 -1022611261, i32 -1022611261], [2 x i32] [i32 -1027473602, i32 0], [2 x i32] [i32 -1032321516, i32 0], [2 x i32] [i32 -1037155065, i32 0], [2 x i32] [i32 -1041974314, i32 0], [2 x i32] [i32 -1046779326, i32 0], [2 x i32] [i32 -1051570164, i32 -1051570164], [2 x i32] [i32 -1056346890, i32 0], [2 x i32] [i32 -1061109567, i32 0], [2 x i32] [i32 -1065858257, i32 0], [2 x i32] [i32 -1070593021, i32 -1070593021], [2 x i32] [i32 -1075313920, i32 0], [2 x i32] [i32 -1080021016, i32 -1080021016], [2 x i32] [i32 -1084714368, i32 0], [2 x i32] [i32 -1089394037, i32 0], [2 x i32] [i32 -1094060082, i32 0], [2 x i32] [i32 -1098712564, i32 0], [2 x i32] [i32 -1103351540, i32 0], [2 x i32] [i32 -1107977070, i32 0], [2 x i32] [i32 -1112589212, i32 0], [2 x i32] [i32 -1117188025, i32 -1117188025], [2 x i32] [i32 -1121773565, i32 0], [2 x i32] [i32 -1126345890, i32 0], [2 x i32] [i32 -1130905058, i32 -1130905058], [2 x i32] [i32 -1135451124, i32 0], [2 x i32] [i32 -1139984146, i32 -1139984146], [2 x i32] [i32 -1144504179, i32 0], [2 x i32] [i32 -1149011279, i32 0], [2 x i32] [i32 -1153505502, i32 0], [2 x i32] [i32 -1157986903, i32 -1157986903], [2 x i32] [i32 -1162455536, i32 -1162455536], [2 x i32] [i32 -1166911456, i32 -1166911456], [2 x i32] [i32 -1171354717, i32 0], [2 x i32] [i32 -1175785373, i32 0], [2 x i32] [i32 -1180203478, i32 -1180203478], [2 x i32] [i32 -1184609084, i32 0], [2 x i32] [i32 -1189002246, i32 -1189002246], [2 x i32] [i32 -1193383014, i32 0], [2 x i32] [i32 -1197751443, i32 0], [2 x i32] [i32 -1202107583, i32 0], [2 x i32] [i32 -1206451487, i32 0], [2 x i32] [i32 -1210783207, i32 -1210783207], [2 x i32] [i32 -1215102792, i32 0], [2 x i32] [i32 -1219410295, i32 0], [2 x i32] [i32 -1223705766, i32 -1223705766], [2 x i32] [i32 -1227989255, i32 -1227989255], [2 x i32] [i32 -1232260812, i32 -1232260812], [2 x i32] [i32 -1236520487, i32 0], [2 x i32] [i32 -1240768330, i32 -1240768330], [2 x i32] [i32 -1245004389, i32 0], [2 x i32] [i32 -1249228715, i32 -1249228715], [2 x i32] [i32 -1253441355, i32 -1253441355], [2 x i32] [i32 -1257642357, i32 0], [2 x i32] [i32 -1261831771, i32 0], [2 x i32] [i32 -1266009644, i32 -1266009644], [2 x i32] [i32 -1270176023, i32 -1270176023], [2 x i32] [i32 -1274330956, i32 -1274330956], [2 x i32] [i32 -1278474490, i32 0], [2 x i32] [i32 -1282606672, i32 -1282606672], [2 x i32] [i32 -1286727548, i32 0], [2 x i32] [i32 -1290837165, i32 0], [2 x i32] [i32 -1294935569, i32 0], [2 x i32] [i32 -1299022806, i32 0], [2 x i32] [i32 -1303098921, i32 0], [2 x i32] [i32 -1307163959, i32 0], [2 x i32] [i32 -1311217967, i32 -1311217967], [2 x i32] [i32 -1315260987, i32 0], [2 x i32] [i32 -1319293066, i32 0], [2 x i32] [i32 -1323314248, i32 -1323314248], [2 x i32] [i32 -1327324576, i32 -1327324576], [2 x i32] [i32 -1331324094, i32 0], [2 x i32] [i32 -1335312847, i32 0], [2 x i32] [i32 -1339290877, i32 0], [2 x i32] [i32 -1343258228, i32 0], [2 x i32] [i32 -1347214943, i32 -1347214943], [2 x i32] [i32 -1351161063, i32 0], [2 x i32] [i32 -1355096633, i32 0], [2 x i32] [i32 -1359021694, i32 0], [2 x i32] [i32 -1362936288, i32 0], [2 x i32] [i32 -1366840458, i32 -1366840458], [2 x i32] [i32 -1370734243, i32 0], [2 x i32] [i32 -1374617687, i32 0], [2 x i32] [i32 -1378490830, i32 -1378490830], [2 x i32] [i32 -1382353712, i32 0], [2 x i32] [i32 -1386206376, i32 -1386206376], [2 x i32] [i32 -1390048860, i32 0], [2 x i32] [i32 -1393881207, i32 -1393881207], [2 x i32] [i32 -1397703455, i32 -1397703455], [2 x i32] [i32 -1401515644, i32 -1401515644], [2 x i32] [i32 -1405317814, i32 0], [2 x i32] [i32 -1409110005, i32 0], [2 x i32] [i32 -1412892256, i32 -1412892256], [2 x i32] [i32 -1416664605, i32 0], [2 x i32] [i32 -1420427092, i32 0], [2 x i32] [i32 -1424179756, i32 0], [2 x i32] [i32 -1427922634, i32 0], [2 x i32] [i32 -1431655765, i32 0], [2 x i32] [i32 -1435379187, i32 0], [2 x i32] [i32 -1439092938, i32 0], [2 x i32] [i32 -1442797055, i32 0], [2 x i32] [i32 -1446491576, i32 0], [2 x i32] [i32 -1450176538, i32 0], [2 x i32] [i32 -1453851979, i32 -1453851979], [2 x i32] [i32 -1457517934, i32 -1457517934], [2 x i32] [i32 -1461174441, i32 -1461174441], [2 x i32] [i32 -1464821536, i32 -1464821536], [2 x i32] [i32 -1468459255, i32 0], [2 x i32] [i32 -1472087635, i32 0], [2 x i32] [i32 -1475706712, i32 -1475706712], [2 x i32] [i32 -1479316520, i32 0], [2 x i32] [i32 -1482917097, i32 0], [2 x i32] [i32 -1486508476, i32 0], [2 x i32] [i32 -1490090694, i32 0], [2 x i32] [i32 -1493663786, i32 -1493663786], [2 x i32] [i32 -1497227785, i32 0], [2 x i32] [i32 -1500782727, i32 0], [2 x i32] [i32 -1504328647, i32 -1504328647], [2 x i32] [i32 -1507865578, i32 -1507865578], [2 x i32] [i32 -1511393555, i32 -1511393555], [2 x i32] [i32 -1514912611, i32 0], [2 x i32] [i32 -1518422781, i32 0], [2 x i32] [i32 -1521924098, i32 0], [2 x i32] [i32 -1525416596, i32 0], [2 x i32] [i32 -1528900308, i32 -1528900308], [2 x i32] [i32 -1532375266, i32 0], [2 x i32] [i32 -1535841505, i32 -1535841505], [2 x i32] [i32 -1539299056, i32 -1539299056], [2 x i32] [i32 -1542747952, i32 0], [2 x i32] [i32 -1546188226, i32 0], [2 x i32] [i32 -1549619911, i32 -1549619911], [2 x i32] [i32 -1553043037, i32 0], [2 x i32] [i32 -1556457638, i32 -1556457638], [2 x i32] [i32 -1559863744, i32 0], [2 x i32] [i32 -1563261388, i32 0], [2 x i32] [i32 -1566650602, i32 -1566650602], [2 x i32] [i32 -1570031415, i32 0], [2 x i32] [i32 -1573403861, i32 -1573403861], [2 x i32] [i32 -1576767969, i32 -1576767969], [2 x i32] [i32 -1580123770, i32 0], [2 x i32] [i32 -1583471296, i32 0], [2 x i32] [i32 -1586810577, i32 0], [2 x i32] [i32 -1590141643, i32 0], [2 x i32] [i32 -1593464525, i32 0], [2 x i32] [i32 -1596779252, i32 0], [2 x i32] [i32 -1600085855, i32 0], [2 x i32] [i32 -1603384364, i32 -1603384364], [2 x i32] [i32 -1606674807, i32 0], [2 x i32] [i32 -1609957216, i32 -1609957216], [2 x i32] [i32 -1613231618, i32 0], [2 x i32] [i32 -1616498044, i32 0], [2 x i32] [i32 -1619756523, i32 -1619756523], [2 x i32] [i32 -1623007083, i32 -1623007083], [2 x i32] [i32 -1626249753, i32 -1626249753], [2 x i32] [i32 -1629484562, i32 -1629484562], [2 x i32] [i32 -1632711539, i32 -1632711539], [2 x i32] [i32 -1635930711, i32 0], [2 x i32] [i32 -1639142108, i32 0], [2 x i32] [i32 -1642345757, i32 0], [2 x i32] [i32 -1645541687, i32 -1645541687], [2 x i32] [i32 -1648729925, i32 -1648729925], [2 x i32] [i32 -1651910498, i32 0], [2 x i32] [i32 -1655083436, i32 -1655083436], [2 x i32] [i32 -1658248764, i32 0], [2 x i32] [i32 -1661406511, i32 -1661406511], [2 x i32] [i32 -1664556703, i32 0], [2 x i32] [i32 -1667699368, i32 0], [2 x i32] [i32 -1670834533, i32 -1670834533], [2 x i32] [i32 -1673962224, i32 -1673962224], [2 x i32] [i32 -1677082468, i32 -1677082468], [2 x i32] [i32 -1680195292, i32 -1680195292], [2 x i32] [i32 -1683300722, i32 -1683300722], [2 x i32] [i32 -1686398784, i32 0], [2 x i32] [i32 -1689489505, i32 0], [2 x i32] [i32 -1692572911, i32 -1692572911], [2 x i32] [i32 -1695649027, i32 0], [2 x i32] [i32 -1698717880, i32 -1698717880], [2 x i32] [i32 -1701779495, i32 -1701779495], [2 x i32] [i32 -1704833897, i32 0], [2 x i32] [i32 -1707881113, i32 -1707881113], [2 x i32] [i32 -1710921167, i32 0], [2 x i32] [i32 -1713954085, i32 0], [2 x i32] [i32 -1716979892, i32 0], [2 x i32] [i32 -1719998613, i32 -1719998613], [2 x i32] [i32 -1723010272, i32 -1723010272], [2 x i32] [i32 -1726014895, i32 -1726014895], [2 x i32] [i32 -1729012505, i32 0], [2 x i32] [i32 -1732003129, i32 -1732003129], [2 x i32] [i32 -1734986789, i32 -1734986789], [2 x i32] [i32 -1737963510, i32 0], [2 x i32] [i32 -1740933317, i32 0], [2 x i32] [i32 -1743896234, i32 -1743896234], [2 x i32] [i32 -1746852284, i32 -1746852284], [2 x i32] [i32 -1749801491, i32 -1749801491], [2 x i32] [i32 -1752743879, i32 0], [2 x i32] [i32 -1755679472, i32 0], [2 x i32] [i32 -1758608293, i32 0], [2 x i32] [i32 -1761530366, i32 -1761530366], [2 x i32] [i32 -1764445713, i32 0], [2 x i32] [i32 -1767354358, i32 0], [2 x i32] [i32 -1770256325, i32 0], [2 x i32] [i32 -1773151636, i32 -1773151636], [2 x i32] [i32 -1776040314, i32 -1776040314], [2 x i32] [i32 -1778922381, i32 0], [2 x i32] [i32 -1781797861, i32 0], [2 x i32] [i32 -1784666776, i32 -1784666776], [2 x i32] [i32 -1787529148, i32 0], [2 x i32] [i32 -1790385000, i32 0], [2 x i32] [i32 -1793234354, i32 0], [2 x i32] [i32 -1796077233, i32 -1796077233], [2 x i32] [i32 -1798913657, i32 0], [2 x i32] [i32 -1801743650, i32 0], [2 x i32] [i32 -1804567233, i32 0], [2 x i32] [i32 -1807384428, i32 -1807384428], [2 x i32] [i32 -1810195256, i32 -1810195256], [2 x i32] [i32 -1812999739, i32 -1812999739], [2 x i32] [i32 -1815797898, i32 0], [2 x i32] [i32 -1818589756, i32 -1818589756], [2 x i32] [i32 -1821375332, i32 0], [2 x i32] [i32 -1824154649, i32 0], [2 x i32] [i32 -1826927727, i32 0], [2 x i32] [i32 -1829694588, i32 -1829694588], [2 x i32] [i32 -1832455252, i32 -1832455252], [2 x i32] [i32 -1835209739, i32 0], [2 x i32] [i32 -1837958072, i32 -1837958072], [2 x i32] [i32 -1840700270, i32 -1840700270], [2 x i32] [i32 -1843436353, i32 0], [2 x i32] [i32 -1846166343, i32 0], [2 x i32] [i32 -1848890260, i32 -1848890260], [2 x i32] [i32 -1851608123, i32 0], [2 x i32] [i32 -1854319953, i32 0], [2 x i32] [i32 -1857025771, i32 -1857025771], [2 x i32] [i32 -1859725595, i32 0], [2 x i32] [i32 -1862419447, i32 -1862419447], [2 x i32] [i32 -1865107345, i32 0], [2 x i32] [i32 -1867789310, i32 -1867789310], [2 x i32] [i32 -1870465360, i32 0], [2 x i32] [i32 -1873135517, i32 -1873135517], [2 x i32] [i32 -1875799798, i32 0], [2 x i32] [i32 -1878458224, i32 -1878458224], [2 x i32] [i32 -1881110813, i32 0], [2 x i32] [i32 -1883757586, i32 -1883757586], [2 x i32] [i32 -1886398560, i32 0], [2 x i32] [i32 -1889033756, i32 0], [2 x i32] [i32 -1891663192, i32 -1891663192], [2 x i32] [i32 -1894286886, i32 0], [2 x i32] [i32 -1896904858, i32 0], [2 x i32] [i32 -1899517126, i32 0], [2 x i32] [i32 -1902123710, i32 -1902123710], [2 x i32] [i32 -1904724627, i32 -1904724627], [2 x i32] [i32 -1907319896, i32 -1907319896], [2 x i32] [i32 -1909909535, i32 0], [2 x i32] [i32 -1912493563, i32 0], [2 x i32] [i32 -1915071998, i32 -1915071998], [2 x i32] [i32 -1917644858, i32 -1917644858], [2 x i32] [i32 -1920212160, i32 0], [2 x i32] [i32 -1922773924, i32 0], [2 x i32] [i32 -1925330167, i32 0], [2 x i32] [i32 -1927880907, i32 -1927880907], [2 x i32] [i32 -1930426161, i32 -1930426161], [2 x i32] [i32 -1932965947, i32 0], [2 x i32] [i32 -1935500284, i32 -1935500284], [2 x i32] [i32 -1938029187, i32 0], [2 x i32] [i32 -1940552675, i32 0], [2 x i32] [i32 -1943070766, i32 -1943070766], [2 x i32] [i32 -1945583476, i32 -1945583476], [2 x i32] [i32 -1948090823, i32 -1948090823], [2 x i32] [i32 -1950592823, i32 0], [2 x i32] [i32 -1953089495, i32 -1953089495], [2 x i32] [i32 -1955580854, i32 -1955580854], [2 x i32] [i32 -1958066918, i32 0], [2 x i32] [i32 -1960547704, i32 0], [2 x i32] [i32 -1963023229, i32 -1963023229], [2 x i32] [i32 -1965493508, i32 0], [2 x i32] [i32 -1967958560, i32 -1967958560], [2 x i32] [i32 -1970418400, i32 0], [2 x i32] [i32 -1972873045, i32 0], [2 x i32] [i32 -1975322512, i32 -1975322512], [2 x i32] [i32 -1977766816, i32 -1977766816], [2 x i32] [i32 -1980205974, i32 0], [2 x i32] [i32 -1982640003, i32 0], [2 x i32] [i32 -1985068918, i32 0], [2 x i32] [i32 -1987492736, i32 0], [2 x i32] [i32 -1989911473, i32 -1989911473], [2 x i32] [i32 -1992325144, i32 -1992325144], [2 x i32] [i32 -1994733765, i32 0], [2 x i32] [i32 -1997137353, i32 -1997137353], [2 x i32] [i32 -1999535923, i32 -1999535923], [2 x i32] [i32 -2001929490, i32 0], [2 x i32] [i32 -2004318071, i32 0], [2 x i32] [i32 -2006701681, i32 0], [2 x i32] [i32 -2009080336, i32 -2009080336], [2 x i32] [i32 -2011454050, i32 0], [2 x i32] [i32 -2013822840, i32 0], [2 x i32] [i32 -2016186720, i32 0], [2 x i32] [i32 -2018545706, i32 0], [2 x i32] [i32 -2020899813, i32 0], [2 x i32] [i32 -2023249057, i32 -2023249057], [2 x i32] [i32 -2025593451, i32 0], [2 x i32] [i32 -2027933012, i32 -2027933012], [2 x i32] [i32 -2030267754, i32 -2030267754], [2 x i32] [i32 -2032597691, i32 0], [2 x i32] [i32 -2034922840, i32 0], [2 x i32] [i32 -2037243214, i32 0], [2 x i32] [i32 -2039558829, i32 -2039558829], [2 x i32] [i32 -2041869698, i32 0], [2 x i32] [i32 -2044175837, i32 -2044175837], [2 x i32] [i32 -2046477260, i32 -2046477260], [2 x i32] [i32 -2048773981, i32 -2048773981], [2 x i32] [i32 -2051066015, i32 -2051066015], [2 x i32] [i32 -2053353376, i32 -2053353376], [2 x i32] [i32 -2055636079, i32 -2055636079], [2 x i32] [i32 -2057914137, i32 -2057914137], [2 x i32] [i32 -2060187565, i32 -2060187565], [2 x i32] [i32 -2062456377, i32 -2062456377], [2 x i32] [i32 -2064720586, i32 0], [2 x i32] [i32 -2066980208, i32 0], [2 x i32] [i32 -2069235256, i32 -2069235256], [2 x i32] [i32 -2071485743, i32 0], [2 x i32] [i32 -2073731684, i32 0], [2 x i32] [i32 -2075973093, i32 -2075973093], [2 x i32] [i32 -2078209982, i32 -2078209982], [2 x i32] [i32 -2080442366, i32 -2080442366], [2 x i32] [i32 -2082670258, i32 0], [2 x i32] [i32 -2084893672, i32 0], [2 x i32] [i32 -2087112622, i32 -2087112622], [2 x i32] [i32 -2089327120, i32 -2089327120], [2 x i32] [i32 -2091537180, i32 0], [2 x i32] [i32 -2093742816, i32 -2093742816], [2 x i32] [i32 -2095944040, i32 0], [2 x i32] [i32 -2098140867, i32 -2098140867], [2 x i32] [i32 -2100333308, i32 0], [2 x i32] [i32 -2102521378, i32 0], [2 x i32] [i32 -2104705089, i32 0], [2 x i32] [i32 -2106884455, i32 -2106884455], [2 x i32] [i32 -2109059487, i32 0], [2 x i32] [i32 -2111230200, i32 0], [2 x i32] [i32 -2113396606, i32 -2113396606], [2 x i32] [i32 -2115558718, i32 -2115558718], [2 x i32] [i32 -2117716548, i32 -2117716548], [2 x i32] [i32 -2119870109, i32 0], [2 x i32] [i32 -2122019415, i32 0], [2 x i32] [i32 -2124164477, i32 0], [2 x i32] [i32 -2126305308, i32 0], [2 x i32] [i32 -2128441921, i32 0], [2 x i32] [i32 -2130574328, i32 -2130574328], [2 x i32] [i32 -2132702541, i32 0], [2 x i32] [i32 -2134826573, i32 0], [2 x i32] [i32 -2136946437, i32 -2136946437], [2 x i32] [i32 -2139062143, i32 0], [2 x i32] [i32 -2141173706, i32 -2141173706], [2 x i32] [i32 -2143281136, i32 -2143281136], [2 x i32] [i32 -2145384446, i32 -2145384446], [2 x i32] [i32 -1, i32 -1]], align 16

!llvm.module.flags = !{!0}
!llvm.ident = !{!1}

!0 = !{i32 1, !"wchar_size", i32 4}
!1 = !{!"clang version 11.0.0 (/b/s/w/ir/cache/git/chromium.googlesource.com-external-github.com-llvm-llvm--project 613c4a87ba9bb39d1927402f4dd4c1ef1f9a02f7)"}
