; ModuleID = 'crypto_generichash/blake2b/generichash_blake2.c'
source_filename = "crypto_generichash/blake2b/generichash_blake2.c"
target datalayout = "e-m:e-p:32:32-i64:64-n32:64-S128"
target triple = "wasm32-unknown-emscripten"

; Function Attrs: noinline nounwind optnone
define i32 @crypto_generichash_blake2b_bytes_min() #0 {
entry:
  ret i32 16
}

; Function Attrs: noinline nounwind optnone
define i32 @crypto_generichash_blake2b_bytes_max() #0 {
entry:
  ret i32 64
}

; Function Attrs: noinline nounwind optnone
define i32 @crypto_generichash_blake2b_bytes() #0 {
entry:
  ret i32 32
}

; Function Attrs: noinline nounwind optnone
define i32 @crypto_generichash_blake2b_keybytes_min() #0 {
entry:
  ret i32 16
}

; Function Attrs: noinline nounwind optnone
define i32 @crypto_generichash_blake2b_keybytes_max() #0 {
entry:
  ret i32 64
}

; Function Attrs: noinline nounwind optnone
define i32 @crypto_generichash_blake2b_keybytes() #0 {
entry:
  ret i32 32
}

; Function Attrs: noinline nounwind optnone
define i32 @crypto_generichash_blake2b_saltbytes() #0 {
entry:
  ret i32 16
}

; Function Attrs: noinline nounwind optnone
define i32 @crypto_generichash_blake2b_personalbytes() #0 {
entry:
  ret i32 16
}

; Function Attrs: noinline nounwind optnone
define i32 @crypto_generichash_blake2b_statebytes() #0 {
entry:
  ret i32 384
}

; Function Attrs: noinline nounwind optnone
define void @crypto_generichash_blake2b_keygen(i8* nonnull %k) #0 {
entry:
  %k.addr = alloca i8*, align 4
  store i8* %k, i8** %k.addr, align 4
  %0 = load i8*, i8** %k.addr, align 4
  call void @randombytes_buf(i8* %0, i32 32)
  ret void
}

declare void @randombytes_buf(i8*, i32) #1

attributes #0 = { noinline nounwind optnone "correctly-rounded-divide-sqrt-fp-math"="false" "disable-tail-calls"="false" "frame-pointer"="none" "less-precise-fpmad"="false" "min-legal-vector-width"="0" "no-infs-fp-math"="false" "no-jump-tables"="false" "no-nans-fp-math"="false" "no-signed-zeros-fp-math"="false" "no-trapping-math"="true" "stack-protector-buffer-size"="8" "target-cpu"="generic" "unsafe-fp-math"="false" "use-soft-float"="false" }
attributes #1 = { "correctly-rounded-divide-sqrt-fp-math"="false" "disable-tail-calls"="false" "frame-pointer"="none" "less-precise-fpmad"="false" "no-infs-fp-math"="false" "no-nans-fp-math"="false" "no-signed-zeros-fp-math"="false" "no-trapping-math"="true" "stack-protector-buffer-size"="8" "target-cpu"="generic" "unsafe-fp-math"="false" "use-soft-float"="false" }

!llvm.module.flags = !{!0, !1}
!llvm.ident = !{!2}

!0 = !{i32 1, !"wchar_size", i32 4}
!1 = !{i32 7, !"PIC Level", i32 2}
!2 = !{!"clang version 11.0.0 (/b/s/w/ir/cache/git/chromium.googlesource.com-external-github.com-llvm-llvm--project 613c4a87ba9bb39d1927402f4dd4c1ef1f9a02f7)"}
