; ModuleID = 'crypto_stream/xchacha20/stream_xchacha20.c'
source_filename = "crypto_stream/xchacha20/stream_xchacha20.c"
target datalayout = "e-m:e-p:32:32-i64:64-n32:64-S128"
target triple = "wasm32-unknown-emscripten"

; Function Attrs: noinline nounwind optnone
define i32 @crypto_stream_xchacha20_keybytes() #0 {
entry:
  ret i32 32
}

; Function Attrs: noinline nounwind optnone
define i32 @crypto_stream_xchacha20_noncebytes() #0 {
entry:
  ret i32 24
}

; Function Attrs: noinline nounwind optnone
define i32 @crypto_stream_xchacha20_messagebytes_max() #0 {
entry:
  ret i32 -1
}

; Function Attrs: noinline nounwind optnone
define i32 @crypto_stream_xchacha20(i8* nonnull %c, i64 %clen, i8* nonnull %n, i8* nonnull %k) #0 {
entry:
  %c.addr = alloca i8*, align 4
  %clen.addr = alloca i64, align 8
  %n.addr = alloca i8*, align 4
  %k.addr = alloca i8*, align 4
  %k2 = alloca [32 x i8], align 16
  store i8* %c, i8** %c.addr, align 4
  store i64 %clen, i64* %clen.addr, align 8
  store i8* %n, i8** %n.addr, align 4
  store i8* %k, i8** %k.addr, align 4
  %arraydecay = getelementptr inbounds [32 x i8], [32 x i8]* %k2, i32 0, i32 0
  %0 = load i8*, i8** %n.addr, align 4
  %1 = load i8*, i8** %k.addr, align 4
  %call = call i32 @crypto_core_hchacha20(i8* %arraydecay, i8* %0, i8* %1, i8* null)
  %2 = load i8*, i8** %c.addr, align 4
  %3 = load i64, i64* %clen.addr, align 8
  %4 = load i8*, i8** %n.addr, align 4
  %add.ptr = getelementptr i8, i8* %4, i32 16
  %arraydecay1 = getelementptr inbounds [32 x i8], [32 x i8]* %k2, i32 0, i32 0
  %call2 = call i32 @crypto_stream_chacha20(i8* %2, i64 %3, i8* %add.ptr, i8* %arraydecay1)
  ret i32 %call2
}

declare i32 @crypto_core_hchacha20(i8*, i8*, i8*, i8*) #1

declare i32 @crypto_stream_chacha20(i8*, i64, i8*, i8*) #1

; Function Attrs: noinline nounwind optnone
define i32 @crypto_stream_xchacha20_xor_ic(i8* nonnull %c, i8* nonnull %m, i64 %mlen, i8* nonnull %n, i64 %ic, i8* nonnull %k) #0 {
entry:
  %c.addr = alloca i8*, align 4
  %m.addr = alloca i8*, align 4
  %mlen.addr = alloca i64, align 8
  %n.addr = alloca i8*, align 4
  %ic.addr = alloca i64, align 8
  %k.addr = alloca i8*, align 4
  %k2 = alloca [32 x i8], align 16
  store i8* %c, i8** %c.addr, align 4
  store i8* %m, i8** %m.addr, align 4
  store i64 %mlen, i64* %mlen.addr, align 8
  store i8* %n, i8** %n.addr, align 4
  store i64 %ic, i64* %ic.addr, align 8
  store i8* %k, i8** %k.addr, align 4
  %arraydecay = getelementptr inbounds [32 x i8], [32 x i8]* %k2, i32 0, i32 0
  %0 = load i8*, i8** %n.addr, align 4
  %1 = load i8*, i8** %k.addr, align 4
  %call = call i32 @crypto_core_hchacha20(i8* %arraydecay, i8* %0, i8* %1, i8* null)
  %2 = load i8*, i8** %c.addr, align 4
  %3 = load i8*, i8** %m.addr, align 4
  %4 = load i64, i64* %mlen.addr, align 8
  %5 = load i8*, i8** %n.addr, align 4
  %add.ptr = getelementptr i8, i8* %5, i32 16
  %6 = load i64, i64* %ic.addr, align 8
  %arraydecay1 = getelementptr inbounds [32 x i8], [32 x i8]* %k2, i32 0, i32 0
  %call2 = call i32 @crypto_stream_chacha20_xor_ic(i8* %2, i8* %3, i64 %4, i8* %add.ptr, i64 %6, i8* %arraydecay1)
  ret i32 %call2
}

declare i32 @crypto_stream_chacha20_xor_ic(i8*, i8*, i64, i8*, i64, i8*) #1

; Function Attrs: noinline nounwind optnone
define i32 @crypto_stream_xchacha20_xor(i8* nonnull %c, i8* nonnull %m, i64 %mlen, i8* nonnull %n, i8* nonnull %k) #0 {
entry:
  %c.addr = alloca i8*, align 4
  %m.addr = alloca i8*, align 4
  %mlen.addr = alloca i64, align 8
  %n.addr = alloca i8*, align 4
  %k.addr = alloca i8*, align 4
  store i8* %c, i8** %c.addr, align 4
  store i8* %m, i8** %m.addr, align 4
  store i64 %mlen, i64* %mlen.addr, align 8
  store i8* %n, i8** %n.addr, align 4
  store i8* %k, i8** %k.addr, align 4
  %0 = load i8*, i8** %c.addr, align 4
  %1 = load i8*, i8** %m.addr, align 4
  %2 = load i64, i64* %mlen.addr, align 8
  %3 = load i8*, i8** %n.addr, align 4
  %4 = load i8*, i8** %k.addr, align 4
  %call = call i32 @crypto_stream_xchacha20_xor_ic(i8* %0, i8* %1, i64 %2, i8* %3, i64 0, i8* %4)
  ret i32 %call
}

; Function Attrs: noinline nounwind optnone
define void @crypto_stream_xchacha20_keygen(i8* nonnull %k) #0 {
entry:
  %k.addr = alloca i8*, align 4
  store i8* %k, i8** %k.addr, align 4
  %0 = load i8*, i8** %k.addr, align 4
  call void @randombytes_buf(i8* %0, i32 32)
  ret void
}

declare void @randombytes_buf(i8*, i32) #1

attributes #0 = { noinline nounwind optnone "correctly-rounded-divide-sqrt-fp-math"="false" "disable-tail-calls"="false" "frame-pointer"="none" "less-precise-fpmad"="false" "min-legal-vector-width"="0" "no-infs-fp-math"="false" "no-jump-tables"="false" "no-nans-fp-math"="false" "no-signed-zeros-fp-math"="false" "no-trapping-math"="true" "stack-protector-buffer-size"="8" "target-cpu"="generic" "unsafe-fp-math"="false" "use-soft-float"="false" }
attributes #1 = { "correctly-rounded-divide-sqrt-fp-math"="false" "disable-tail-calls"="false" "frame-pointer"="none" "less-precise-fpmad"="false" "no-infs-fp-math"="false" "no-nans-fp-math"="false" "no-signed-zeros-fp-math"="false" "no-trapping-math"="true" "stack-protector-buffer-size"="8" "target-cpu"="generic" "unsafe-fp-math"="false" "use-soft-float"="false" }

!llvm.module.flags = !{!0, !1}
!llvm.ident = !{!2}

!0 = !{i32 1, !"wchar_size", i32 4}
!1 = !{i32 7, !"PIC Level", i32 2}
!2 = !{!"clang version 11.0.0 (/b/s/w/ir/cache/git/chromium.googlesource.com-external-github.com-llvm-llvm--project 613c4a87ba9bb39d1927402f4dd4c1ef1f9a02f7)"}
