; ModuleID = 'sodium/version.c'
source_filename = "sodium/version.c"
target datalayout = "e-m:e-p:32:32-i64:64-n32:64-S128"
target triple = "wasm32-unknown-emscripten"

@.str = private unnamed_addr constant [7 x i8] c"1.0.18\00", align 1

; Function Attrs: noinline nounwind optnone
define i8* @sodium_version_string() #0 {
entry:
  ret i8* getelementptr inbounds ([7 x i8], [7 x i8]* @.str, i32 0, i32 0)
}

; Function Attrs: noinline nounwind optnone
define i32 @sodium_library_version_major() #0 {
entry:
  ret i32 10
}

; Function Attrs: noinline nounwind optnone
define i32 @sodium_library_version_minor() #0 {
entry:
  ret i32 3
}

; Function Attrs: noinline nounwind optnone
define i32 @sodium_library_minimal() #0 {
entry:
  ret i32 0
}

attributes #0 = { noinline nounwind optnone "correctly-rounded-divide-sqrt-fp-math"="false" "disable-tail-calls"="false" "frame-pointer"="none" "less-precise-fpmad"="false" "min-legal-vector-width"="0" "no-infs-fp-math"="false" "no-jump-tables"="false" "no-nans-fp-math"="false" "no-signed-zeros-fp-math"="false" "no-trapping-math"="true" "stack-protector-buffer-size"="8" "target-cpu"="generic" "unsafe-fp-math"="false" "use-soft-float"="false" }

!llvm.module.flags = !{!0, !1}
!llvm.ident = !{!2}

!0 = !{i32 1, !"wchar_size", i32 4}
!1 = !{i32 7, !"PIC Level", i32 2}
!2 = !{!"clang version 11.0.0 (/b/s/w/ir/cache/git/chromium.googlesource.com-external-github.com-llvm-llvm--project 613c4a87ba9bb39d1927402f4dd4c1ef1f9a02f7)"}
