; ModuleID = 'tables.c'
source_filename = "tables.c"
target datalayout = "e-m:e-p:32:32-i64:64-n32:64-S128"
target triple = "wasm32-unknown-emscripten"

%struct.huffcodetab = type { i32, i32, i16*, i8* }

@t1l = hidden constant [4 x i8] c"\01\04\03\05", align 1
@t32l = hidden constant [16 x i8] c"\01\05\05\07\05\08\07\09\05\07\07\09\07\09\09\0A", align 16
@t33l = hidden constant [16 x i8] c"\04\05\05\06\05\06\06\07\05\06\06\07\06\07\07\08", align 16
@t1HB = internal constant [4 x i16] [i16 1, i16 1, i16 1, i16 0], align 2
@t2HB = internal constant [9 x i16] [i16 1, i16 2, i16 1, i16 3, i16 1, i16 1, i16 3, i16 2, i16 0], align 16
@t2l = internal constant [9 x i8] c"\01\04\07\04\05\07\06\07\08", align 1
@t3HB = internal constant [9 x i16] [i16 3, i16 2, i16 1, i16 1, i16 1, i16 1, i16 3, i16 2, i16 0], align 16
@t3l = internal constant [9 x i8] c"\02\03\07\04\04\07\06\07\08", align 1
@t5HB = internal constant [16 x i16] [i16 1, i16 2, i16 6, i16 5, i16 3, i16 1, i16 4, i16 4, i16 7, i16 5, i16 7, i16 1, i16 6, i16 1, i16 1, i16 0], align 16
@t5l = internal constant [16 x i8] c"\01\04\07\08\04\05\08\09\07\08\09\0A\08\08\09\0A", align 16
@t6HB = internal constant [16 x i16] [i16 7, i16 3, i16 5, i16 1, i16 6, i16 2, i16 3, i16 2, i16 5, i16 4, i16 4, i16 1, i16 3, i16 3, i16 2, i16 0], align 16
@t6l = internal constant [16 x i8] c"\03\04\06\08\04\04\06\07\05\06\07\08\07\07\08\09", align 16
@t7HB = internal constant [36 x i16] [i16 1, i16 2, i16 10, i16 19, i16 16, i16 10, i16 3, i16 3, i16 7, i16 10, i16 5, i16 3, i16 11, i16 4, i16 13, i16 17, i16 8, i16 4, i16 12, i16 11, i16 18, i16 15, i16 11, i16 2, i16 7, i16 6, i16 9, i16 14, i16 3, i16 1, i16 6, i16 4, i16 5, i16 3, i16 2, i16 0], align 16
@t7l = internal constant [36 x i8] c"\01\04\07\09\09\0A\04\06\08\09\09\0A\07\07\09\0A\0A\0B\08\09\0A\0B\0B\0B\08\09\0A\0B\0B\0C\09\0A\0B\0C\0C\0C", align 16
@t8HB = internal constant [36 x i16] [i16 3, i16 4, i16 6, i16 18, i16 12, i16 5, i16 5, i16 1, i16 2, i16 16, i16 9, i16 3, i16 7, i16 3, i16 5, i16 14, i16 7, i16 3, i16 19, i16 17, i16 15, i16 13, i16 10, i16 4, i16 13, i16 5, i16 8, i16 11, i16 5, i16 1, i16 12, i16 4, i16 4, i16 1, i16 1, i16 0], align 16
@t8l = internal constant [36 x i8] c"\02\04\07\09\09\0A\04\04\06\0A\0A\0A\07\06\08\0A\0A\0B\09\0A\0A\0B\0B\0C\09\09\0A\0B\0C\0C\0A\0A\0B\0B\0D\0D", align 16
@t9HB = internal constant [36 x i16] [i16 7, i16 5, i16 9, i16 14, i16 15, i16 7, i16 6, i16 4, i16 5, i16 5, i16 6, i16 7, i16 7, i16 6, i16 8, i16 8, i16 8, i16 5, i16 15, i16 6, i16 9, i16 10, i16 5, i16 1, i16 11, i16 7, i16 9, i16 6, i16 4, i16 1, i16 14, i16 4, i16 6, i16 2, i16 6, i16 0], align 16
@t9l = internal constant [36 x i8] c"\03\04\06\07\09\0A\04\05\06\07\08\0A\05\06\07\08\09\0A\07\07\08\09\09\0A\08\08\09\09\0A\0B\09\09\0A\0A\0B\0B", align 16
@t10HB = internal constant [64 x i16] [i16 1, i16 2, i16 10, i16 23, i16 35, i16 30, i16 12, i16 17, i16 3, i16 3, i16 8, i16 12, i16 18, i16 21, i16 12, i16 7, i16 11, i16 9, i16 15, i16 21, i16 32, i16 40, i16 19, i16 6, i16 14, i16 13, i16 22, i16 34, i16 46, i16 23, i16 18, i16 7, i16 20, i16 19, i16 33, i16 47, i16 27, i16 22, i16 9, i16 3, i16 31, i16 22, i16 41, i16 26, i16 21, i16 20, i16 5, i16 3, i16 14, i16 13, i16 10, i16 11, i16 16, i16 6, i16 5, i16 1, i16 9, i16 8, i16 7, i16 8, i16 4, i16 4, i16 2, i16 0], align 16
@t10l = internal constant [64 x i8] c"\01\04\07\09\0A\0A\0A\0B\04\06\08\09\0A\0B\0A\0A\07\08\09\0A\0B\0C\0B\0B\08\09\0A\0B\0C\0C\0B\0C\09\0A\0B\0C\0C\0C\0C\0C\0A\0B\0C\0C\0D\0D\0C\0D\09\0A\0B\0C\0C\0C\0D\0D\0A\0A\0B\0C\0C\0D\0D\0D", align 16
@t11HB = internal constant [64 x i16] [i16 3, i16 4, i16 10, i16 24, i16 34, i16 33, i16 21, i16 15, i16 5, i16 3, i16 4, i16 10, i16 32, i16 17, i16 11, i16 10, i16 11, i16 7, i16 13, i16 18, i16 30, i16 31, i16 20, i16 5, i16 25, i16 11, i16 19, i16 59, i16 27, i16 18, i16 12, i16 5, i16 35, i16 33, i16 31, i16 58, i16 30, i16 16, i16 7, i16 5, i16 28, i16 26, i16 32, i16 19, i16 17, i16 15, i16 8, i16 14, i16 14, i16 12, i16 9, i16 13, i16 14, i16 9, i16 4, i16 1, i16 11, i16 4, i16 6, i16 6, i16 6, i16 3, i16 2, i16 0], align 16
@t11l = internal constant [64 x i8] c"\02\04\06\08\09\0A\09\0A\04\05\06\08\0A\0A\09\0A\06\07\08\09\0A\0B\0A\0A\08\08\09\0B\0A\0C\0A\0B\09\0A\0A\0B\0B\0C\0B\0C\09\0A\0B\0C\0C\0D\0C\0D\09\09\09\0A\0B\0C\0C\0C\09\09\0A\0B\0C\0C\0C\0C", align 16
@t12HB = internal constant [64 x i16] [i16 9, i16 6, i16 16, i16 33, i16 41, i16 39, i16 38, i16 26, i16 7, i16 5, i16 6, i16 9, i16 23, i16 16, i16 26, i16 11, i16 17, i16 7, i16 11, i16 14, i16 21, i16 30, i16 10, i16 7, i16 17, i16 10, i16 15, i16 12, i16 18, i16 28, i16 14, i16 5, i16 32, i16 13, i16 22, i16 19, i16 18, i16 16, i16 9, i16 5, i16 40, i16 17, i16 31, i16 29, i16 17, i16 13, i16 4, i16 2, i16 27, i16 12, i16 11, i16 15, i16 10, i16 7, i16 4, i16 1, i16 27, i16 12, i16 8, i16 12, i16 6, i16 3, i16 1, i16 0], align 16
@t12l = internal constant [64 x i8] c"\04\04\06\08\09\0A\0A\0A\04\05\06\07\09\09\0A\0A\06\06\07\08\09\0A\09\0A\07\07\08\08\09\0A\0A\0A\08\08\09\09\0A\0A\0A\0B\09\09\0A\0A\0A\0B\0A\0B\09\09\09\0A\0A\0B\0B\0C\0A\0A\0A\0B\0B\0B\0B\0C", align 16
@t13HB = internal constant [256 x i16] [i16 1, i16 5, i16 14, i16 21, i16 34, i16 51, i16 46, i16 71, i16 42, i16 52, i16 68, i16 52, i16 67, i16 44, i16 43, i16 19, i16 3, i16 4, i16 12, i16 19, i16 31, i16 26, i16 44, i16 33, i16 31, i16 24, i16 32, i16 24, i16 31, i16 35, i16 22, i16 14, i16 15, i16 13, i16 23, i16 36, i16 59, i16 49, i16 77, i16 65, i16 29, i16 40, i16 30, i16 40, i16 27, i16 33, i16 42, i16 16, i16 22, i16 20, i16 37, i16 61, i16 56, i16 79, i16 73, i16 64, i16 43, i16 76, i16 56, i16 37, i16 26, i16 31, i16 25, i16 14, i16 35, i16 16, i16 60, i16 57, i16 97, i16 75, i16 114, i16 91, i16 54, i16 73, i16 55, i16 41, i16 48, i16 53, i16 23, i16 24, i16 58, i16 27, i16 50, i16 96, i16 76, i16 70, i16 93, i16 84, i16 77, i16 58, i16 79, i16 29, i16 74, i16 49, i16 41, i16 17, i16 47, i16 45, i16 78, i16 74, i16 115, i16 94, i16 90, i16 79, i16 69, i16 83, i16 71, i16 50, i16 59, i16 38, i16 36, i16 15, i16 72, i16 34, i16 56, i16 95, i16 92, i16 85, i16 91, i16 90, i16 86, i16 73, i16 77, i16 65, i16 51, i16 44, i16 43, i16 42, i16 43, i16 20, i16 30, i16 44, i16 55, i16 78, i16 72, i16 87, i16 78, i16 61, i16 46, i16 54, i16 37, i16 30, i16 20, i16 16, i16 53, i16 25, i16 41, i16 37, i16 44, i16 59, i16 54, i16 81, i16 66, i16 76, i16 57, i16 54, i16 37, i16 18, i16 39, i16 11, i16 35, i16 33, i16 31, i16 57, i16 42, i16 82, i16 72, i16 80, i16 47, i16 58, i16 55, i16 21, i16 22, i16 26, i16 38, i16 22, i16 53, i16 25, i16 23, i16 38, i16 70, i16 60, i16 51, i16 36, i16 55, i16 26, i16 34, i16 23, i16 27, i16 14, i16 9, i16 7, i16 34, i16 32, i16 28, i16 39, i16 49, i16 75, i16 30, i16 52, i16 48, i16 40, i16 52, i16 28, i16 18, i16 17, i16 9, i16 5, i16 45, i16 21, i16 34, i16 64, i16 56, i16 50, i16 49, i16 45, i16 31, i16 19, i16 12, i16 15, i16 10, i16 7, i16 6, i16 3, i16 48, i16 23, i16 20, i16 39, i16 36, i16 35, i16 53, i16 21, i16 16, i16 23, i16 13, i16 10, i16 6, i16 1, i16 4, i16 2, i16 16, i16 15, i16 17, i16 27, i16 25, i16 20, i16 29, i16 11, i16 17, i16 12, i16 16, i16 8, i16 1, i16 1, i16 0, i16 1], align 16
@t13l = internal constant [256 x i8] c"\01\05\07\08\09\0A\0A\0B\0A\0B\0C\0C\0D\0D\0E\0E\04\06\08\09\0A\0A\0B\0B\0B\0B\0C\0C\0D\0E\0E\0E\07\08\09\0A\0B\0B\0C\0C\0B\0C\0C\0D\0D\0E\0F\0F\08\09\0A\0B\0B\0C\0C\0C\0C\0D\0D\0D\0D\0E\0F\0F\09\09\0B\0B\0C\0C\0D\0D\0C\0D\0D\0E\0E\0F\0F\10\0A\0A\0B\0C\0C\0C\0D\0D\0D\0D\0E\0D\0F\0F\10\10\0A\0B\0C\0C\0D\0D\0D\0D\0D\0E\0E\0E\0F\0F\10\10\0B\0B\0C\0D\0D\0D\0E\0E\0E\0E\0F\0F\0F\10\12\12\0A\0A\0B\0C\0C\0D\0D\0E\0E\0E\0E\0F\0F\10\11\11\0B\0B\0C\0C\0D\0D\0D\0F\0E\0F\0F\10\10\10\12\11\0B\0C\0C\0D\0D\0E\0E\0F\0E\0F\10\0F\10\11\12\13\0C\0C\0C\0D\0E\0E\0E\0E\0F\0F\0F\10\11\11\11\12\0C\0D\0D\0E\0E\0F\0E\0F\10\10\11\11\11\12\12\12\0D\0D\0E\0F\0F\0F\10\10\10\10\10\11\12\11\12\12\0E\0E\0E\0F\0F\0F\11\10\10\13\11\11\11\13\12\12\0D\0E\0F\10\10\10\11\10\11\11\12\12\15\14\15\12", align 16
@t16_5l = internal constant [256 x i8] c"\01\05\07\09\0A\0A\0B\0B\0C\0C\0C\0D\0D\0D\0E\0B\04\06\08\09\0A\0B\0B\0B\0C\0C\0C\0D\0E\0D\0E\0B\07\08\09\0A\0B\0B\0C\0C\0D\0C\0D\0D\0D\0E\0E\0C\09\09\0A\0B\0B\0C\0C\0C\0D\0D\0E\0E\0E\0F\0F\0D\0A\0A\0B\0B\0C\0C\0D\0D\0D\0E\0E\0E\0F\0F\0F\0C\0A\0A\0B\0B\0C\0D\0D\0E\0D\0E\0E\0F\0F\0F\10\0D\0B\0B\0B\0C\0D\0D\0D\0D\0E\0E\0E\0E\0F\0F\10\0D\0B\0B\0C\0C\0D\0D\0D\0E\0E\0F\0F\0F\0F\11\11\0D\0B\0C\0C\0D\0D\0D\0E\0E\0F\0F\0F\0F\10\10\10\0D\0C\0C\0C\0D\0D\0E\0E\0F\0F\0F\0F\10\0F\10\0F\0E\0C\0D\0C\0D\0E\0E\0E\0E\0F\10\10\10\11\11\10\0D\0D\0D\0D\0D\0E\0E\0F\10\10\10\10\10\10\0F\10\0E\0D\0E\0E\0E\0E\0F\0F\0F\0F\11\10\10\10\10\12\0E\0F\0E\0E\0E\0F\0F\10\10\10\12\11\11\11\13\11\0E\0E\0F\0D\0E\10\10\0F\10\10\11\12\11\13\11\10\0E\0B\0B\0B\0C\0C\0D\0D\0D\0E\0E\0E\0E\0E\0E\0E\0C", align 16
@t15HB = internal constant [256 x i16] [i16 7, i16 12, i16 18, i16 53, i16 47, i16 76, i16 124, i16 108, i16 89, i16 123, i16 108, i16 119, i16 107, i16 81, i16 122, i16 63, i16 13, i16 5, i16 16, i16 27, i16 46, i16 36, i16 61, i16 51, i16 42, i16 70, i16 52, i16 83, i16 65, i16 41, i16 59, i16 36, i16 19, i16 17, i16 15, i16 24, i16 41, i16 34, i16 59, i16 48, i16 40, i16 64, i16 50, i16 78, i16 62, i16 80, i16 56, i16 33, i16 29, i16 28, i16 25, i16 43, i16 39, i16 63, i16 55, i16 93, i16 76, i16 59, i16 93, i16 72, i16 54, i16 75, i16 50, i16 29, i16 52, i16 22, i16 42, i16 40, i16 67, i16 57, i16 95, i16 79, i16 72, i16 57, i16 89, i16 69, i16 49, i16 66, i16 46, i16 27, i16 77, i16 37, i16 35, i16 66, i16 58, i16 52, i16 91, i16 74, i16 62, i16 48, i16 79, i16 63, i16 90, i16 62, i16 40, i16 38, i16 125, i16 32, i16 60, i16 56, i16 50, i16 92, i16 78, i16 65, i16 55, i16 87, i16 71, i16 51, i16 73, i16 51, i16 70, i16 30, i16 109, i16 53, i16 49, i16 94, i16 88, i16 75, i16 66, i16 122, i16 91, i16 73, i16 56, i16 42, i16 64, i16 44, i16 21, i16 25, i16 90, i16 43, i16 41, i16 77, i16 73, i16 63, i16 56, i16 92, i16 77, i16 66, i16 47, i16 67, i16 48, i16 53, i16 36, i16 20, i16 71, i16 34, i16 67, i16 60, i16 58, i16 49, i16 88, i16 76, i16 67, i16 106, i16 71, i16 54, i16 38, i16 39, i16 23, i16 15, i16 109, i16 53, i16 51, i16 47, i16 90, i16 82, i16 58, i16 57, i16 48, i16 72, i16 57, i16 41, i16 23, i16 27, i16 62, i16 9, i16 86, i16 42, i16 40, i16 37, i16 70, i16 64, i16 52, i16 43, i16 70, i16 55, i16 42, i16 25, i16 29, i16 18, i16 11, i16 11, i16 118, i16 68, i16 30, i16 55, i16 50, i16 46, i16 74, i16 65, i16 49, i16 39, i16 24, i16 16, i16 22, i16 13, i16 14, i16 7, i16 91, i16 44, i16 39, i16 38, i16 34, i16 63, i16 52, i16 45, i16 31, i16 52, i16 28, i16 19, i16 14, i16 8, i16 9, i16 3, i16 123, i16 60, i16 58, i16 53, i16 47, i16 43, i16 32, i16 22, i16 37, i16 24, i16 17, i16 12, i16 15, i16 10, i16 2, i16 1, i16 71, i16 37, i16 34, i16 30, i16 28, i16 20, i16 17, i16 26, i16 21, i16 16, i16 10, i16 6, i16 8, i16 6, i16 2, i16 0], align 16
@t15l = internal constant [256 x i8] c"\03\05\06\08\08\09\0A\0A\0A\0B\0B\0C\0C\0C\0D\0E\05\05\07\08\09\09\0A\0A\0A\0B\0B\0C\0C\0C\0D\0D\06\07\07\08\09\09\0A\0A\0A\0B\0B\0C\0C\0D\0D\0D\07\08\08\09\09\0A\0A\0B\0B\0B\0C\0C\0C\0D\0D\0D\08\08\09\09\0A\0A\0B\0B\0B\0B\0C\0C\0C\0D\0D\0D\09\09\09\0A\0A\0A\0B\0B\0B\0B\0C\0C\0D\0D\0D\0E\0A\09\0A\0A\0A\0B\0B\0B\0B\0C\0C\0C\0D\0D\0E\0E\0A\0A\0A\0B\0B\0B\0B\0C\0C\0C\0C\0C\0D\0D\0D\0E\0A\0A\0A\0B\0B\0B\0B\0C\0C\0C\0C\0D\0D\0E\0E\0E\0A\0A\0B\0B\0B\0B\0C\0C\0C\0D\0D\0D\0D\0E\0E\0E\0B\0B\0B\0B\0C\0C\0C\0C\0C\0D\0D\0D\0D\0E\0F\0E\0B\0B\0B\0B\0C\0C\0C\0C\0D\0D\0D\0D\0E\0E\0E\0F\0C\0C\0B\0C\0C\0C\0D\0D\0D\0D\0D\0D\0E\0E\0F\0F\0C\0C\0C\0C\0C\0D\0D\0D\0D\0E\0E\0E\0E\0E\0F\0F\0D\0D\0D\0D\0D\0D\0D\0D\0E\0E\0E\0E\0F\0F\0E\0F\0D\0D\0D\0D\0D\0D\0D\0E\0E\0E\0E\0E\0F\0F\0F\0F", align 16
@t16HB = internal constant [256 x i16] [i16 1, i16 5, i16 14, i16 44, i16 74, i16 63, i16 110, i16 93, i16 172, i16 149, i16 138, i16 242, i16 225, i16 195, i16 376, i16 17, i16 3, i16 4, i16 12, i16 20, i16 35, i16 62, i16 53, i16 47, i16 83, i16 75, i16 68, i16 119, i16 201, i16 107, i16 207, i16 9, i16 15, i16 13, i16 23, i16 38, i16 67, i16 58, i16 103, i16 90, i16 161, i16 72, i16 127, i16 117, i16 110, i16 209, i16 206, i16 16, i16 45, i16 21, i16 39, i16 69, i16 64, i16 114, i16 99, i16 87, i16 158, i16 140, i16 252, i16 212, i16 199, i16 387, i16 365, i16 26, i16 75, i16 36, i16 68, i16 65, i16 115, i16 101, i16 179, i16 164, i16 155, i16 264, i16 246, i16 226, i16 395, i16 382, i16 362, i16 9, i16 66, i16 30, i16 59, i16 56, i16 102, i16 185, i16 173, i16 265, i16 142, i16 253, i16 232, i16 400, i16 388, i16 378, i16 445, i16 16, i16 111, i16 54, i16 52, i16 100, i16 184, i16 178, i16 160, i16 133, i16 257, i16 244, i16 228, i16 217, i16 385, i16 366, i16 715, i16 10, i16 98, i16 48, i16 91, i16 88, i16 165, i16 157, i16 148, i16 261, i16 248, i16 407, i16 397, i16 372, i16 380, i16 889, i16 884, i16 8, i16 85, i16 84, i16 81, i16 159, i16 156, i16 143, i16 260, i16 249, i16 427, i16 401, i16 392, i16 383, i16 727, i16 713, i16 708, i16 7, i16 154, i16 76, i16 73, i16 141, i16 131, i16 256, i16 245, i16 426, i16 406, i16 394, i16 384, i16 735, i16 359, i16 710, i16 352, i16 11, i16 139, i16 129, i16 67, i16 125, i16 247, i16 233, i16 229, i16 219, i16 393, i16 743, i16 737, i16 720, i16 885, i16 882, i16 439, i16 4, i16 243, i16 120, i16 118, i16 115, i16 227, i16 223, i16 396, i16 746, i16 742, i16 736, i16 721, i16 712, i16 706, i16 223, i16 436, i16 6, i16 202, i16 224, i16 222, i16 218, i16 216, i16 389, i16 386, i16 381, i16 364, i16 888, i16 443, i16 707, i16 440, i16 437, i16 1728, i16 4, i16 747, i16 211, i16 210, i16 208, i16 370, i16 379, i16 734, i16 723, i16 714, i16 1735, i16 883, i16 877, i16 876, i16 3459, i16 865, i16 2, i16 377, i16 369, i16 102, i16 187, i16 726, i16 722, i16 358, i16 711, i16 709, i16 866, i16 1734, i16 871, i16 3458, i16 870, i16 434, i16 0, i16 12, i16 10, i16 7, i16 11, i16 10, i16 17, i16 11, i16 9, i16 13, i16 12, i16 10, i16 7, i16 5, i16 3, i16 1, i16 3], align 16
@t16l = internal constant [256 x i8] c"\01\05\07\09\0A\0A\0B\0B\0C\0C\0C\0D\0D\0D\0E\0A\04\06\08\09\0A\0B\0B\0B\0C\0C\0C\0D\0E\0D\0E\0A\07\08\09\0A\0B\0B\0C\0C\0D\0C\0D\0D\0D\0E\0E\0B\09\09\0A\0B\0B\0C\0C\0C\0D\0D\0E\0E\0E\0F\0F\0C\0A\0A\0B\0B\0C\0C\0D\0D\0D\0E\0E\0E\0F\0F\0F\0B\0A\0A\0B\0B\0C\0D\0D\0E\0D\0E\0E\0F\0F\0F\10\0C\0B\0B\0B\0C\0D\0D\0D\0D\0E\0E\0E\0E\0F\0F\10\0C\0B\0B\0C\0C\0D\0D\0D\0E\0E\0F\0F\0F\0F\11\11\0C\0B\0C\0C\0D\0D\0D\0E\0E\0F\0F\0F\0F\10\10\10\0C\0C\0C\0C\0D\0D\0E\0E\0F\0F\0F\0F\10\0F\10\0F\0D\0C\0D\0C\0D\0E\0E\0E\0E\0F\10\10\10\11\11\10\0C\0D\0D\0D\0D\0E\0E\0F\10\10\10\10\10\10\0F\10\0D\0D\0E\0E\0E\0E\0F\0F\0F\0F\11\10\10\10\10\12\0D\0F\0E\0E\0E\0F\0F\10\10\10\12\11\11\11\13\11\0D\0E\0F\0D\0E\10\10\0F\10\10\11\12\11\13\11\10\0D\0A\0A\0A\0B\0B\0C\0C\0C\0D\0D\0D\0D\0D\0D\0D\0A", align 16
@t24HB = internal constant [256 x i16] [i16 15, i16 13, i16 46, i16 80, i16 146, i16 262, i16 248, i16 434, i16 426, i16 669, i16 653, i16 649, i16 621, i16 517, i16 1032, i16 88, i16 14, i16 12, i16 21, i16 38, i16 71, i16 130, i16 122, i16 216, i16 209, i16 198, i16 327, i16 345, i16 319, i16 297, i16 279, i16 42, i16 47, i16 22, i16 41, i16 74, i16 68, i16 128, i16 120, i16 221, i16 207, i16 194, i16 182, i16 340, i16 315, i16 295, i16 541, i16 18, i16 81, i16 39, i16 75, i16 70, i16 134, i16 125, i16 116, i16 220, i16 204, i16 190, i16 178, i16 325, i16 311, i16 293, i16 271, i16 16, i16 147, i16 72, i16 69, i16 135, i16 127, i16 118, i16 112, i16 210, i16 200, i16 188, i16 352, i16 323, i16 306, i16 285, i16 540, i16 14, i16 263, i16 66, i16 129, i16 126, i16 119, i16 114, i16 214, i16 202, i16 192, i16 180, i16 341, i16 317, i16 301, i16 281, i16 262, i16 12, i16 249, i16 123, i16 121, i16 117, i16 113, i16 215, i16 206, i16 195, i16 185, i16 347, i16 330, i16 308, i16 291, i16 272, i16 520, i16 10, i16 435, i16 115, i16 111, i16 109, i16 211, i16 203, i16 196, i16 187, i16 353, i16 332, i16 313, i16 298, i16 283, i16 531, i16 381, i16 17, i16 427, i16 212, i16 208, i16 205, i16 201, i16 193, i16 186, i16 177, i16 169, i16 320, i16 303, i16 286, i16 268, i16 514, i16 377, i16 16, i16 335, i16 199, i16 197, i16 191, i16 189, i16 181, i16 174, i16 333, i16 321, i16 305, i16 289, i16 275, i16 521, i16 379, i16 371, i16 11, i16 668, i16 184, i16 183, i16 179, i16 175, i16 344, i16 331, i16 314, i16 304, i16 290, i16 277, i16 530, i16 383, i16 373, i16 366, i16 10, i16 652, i16 346, i16 171, i16 168, i16 164, i16 318, i16 309, i16 299, i16 287, i16 276, i16 263, i16 513, i16 375, i16 368, i16 362, i16 6, i16 648, i16 322, i16 316, i16 312, i16 307, i16 302, i16 292, i16 284, i16 269, i16 261, i16 512, i16 376, i16 370, i16 364, i16 359, i16 4, i16 620, i16 300, i16 296, i16 294, i16 288, i16 282, i16 273, i16 266, i16 515, i16 380, i16 374, i16 369, i16 365, i16 361, i16 357, i16 2, i16 1033, i16 280, i16 278, i16 274, i16 267, i16 264, i16 259, i16 382, i16 378, i16 372, i16 367, i16 363, i16 360, i16 358, i16 356, i16 0, i16 43, i16 20, i16 19, i16 17, i16 15, i16 13, i16 11, i16 9, i16 7, i16 6, i16 4, i16 7, i16 5, i16 3, i16 1, i16 3], align 16
@t24l = internal constant [256 x i8] c"\04\05\07\08\09\0A\0A\0B\0B\0C\0C\0C\0C\0C\0D\0A\05\06\07\08\09\0A\0A\0B\0B\0B\0C\0C\0C\0C\0C\0A\07\07\08\09\09\0A\0A\0B\0B\0B\0B\0C\0C\0C\0D\09\08\08\09\09\0A\0A\0A\0B\0B\0B\0B\0C\0C\0C\0C\09\09\09\09\0A\0A\0A\0A\0B\0B\0B\0C\0C\0C\0C\0D\09\0A\09\0A\0A\0A\0A\0B\0B\0B\0B\0C\0C\0C\0C\0C\09\0A\0A\0A\0A\0A\0B\0B\0B\0B\0C\0C\0C\0C\0C\0D\09\0B\0A\0A\0A\0B\0B\0B\0B\0C\0C\0C\0C\0C\0D\0D\0A\0B\0B\0B\0B\0B\0B\0B\0B\0B\0C\0C\0C\0C\0D\0D\0A\0B\0B\0B\0B\0B\0B\0B\0C\0C\0C\0C\0C\0D\0D\0D\0A\0C\0B\0B\0B\0B\0C\0C\0C\0C\0C\0C\0D\0D\0D\0D\0A\0C\0C\0B\0B\0B\0C\0C\0C\0C\0C\0C\0D\0D\0D\0D\0A\0C\0C\0C\0C\0C\0C\0C\0C\0C\0C\0D\0D\0D\0D\0D\0A\0C\0C\0C\0C\0C\0C\0C\0C\0D\0D\0D\0D\0D\0D\0D\0A\0D\0C\0C\0C\0C\0C\0C\0D\0D\0D\0D\0D\0D\0D\0D\0A\09\09\09\09\09\09\09\09\09\09\09\0A\0A\0A\0A\06", align 16
@t32HB = internal constant [16 x i16] [i16 1, i16 10, i16 8, i16 20, i16 12, i16 20, i16 16, i16 32, i16 14, i16 12, i16 24, i16 0, i16 28, i16 16, i16 24, i16 16], align 16
@t33HB = internal constant [16 x i16] [i16 15, i16 28, i16 26, i16 48, i16 22, i16 40, i16 36, i16 64, i16 14, i16 24, i16 20, i16 32, i16 12, i16 16, i16 8, i16 0], align 16
@ht = hidden constant [34 x %struct.huffcodetab] [%struct.huffcodetab zeroinitializer, %struct.huffcodetab { i32 2, i32 0, i16* getelementptr inbounds ([4 x i16], [4 x i16]* @t1HB, i32 0, i32 0), i8* getelementptr inbounds ([4 x i8], [4 x i8]* @t1l, i32 0, i32 0) }, %struct.huffcodetab { i32 3, i32 0, i16* getelementptr inbounds ([9 x i16], [9 x i16]* @t2HB, i32 0, i32 0), i8* getelementptr inbounds ([9 x i8], [9 x i8]* @t2l, i32 0, i32 0) }, %struct.huffcodetab { i32 3, i32 0, i16* getelementptr inbounds ([9 x i16], [9 x i16]* @t3HB, i32 0, i32 0), i8* getelementptr inbounds ([9 x i8], [9 x i8]* @t3l, i32 0, i32 0) }, %struct.huffcodetab zeroinitializer, %struct.huffcodetab { i32 4, i32 0, i16* getelementptr inbounds ([16 x i16], [16 x i16]* @t5HB, i32 0, i32 0), i8* getelementptr inbounds ([16 x i8], [16 x i8]* @t5l, i32 0, i32 0) }, %struct.huffcodetab { i32 4, i32 0, i16* getelementptr inbounds ([16 x i16], [16 x i16]* @t6HB, i32 0, i32 0), i8* getelementptr inbounds ([16 x i8], [16 x i8]* @t6l, i32 0, i32 0) }, %struct.huffcodetab { i32 6, i32 0, i16* getelementptr inbounds ([36 x i16], [36 x i16]* @t7HB, i32 0, i32 0), i8* getelementptr inbounds ([36 x i8], [36 x i8]* @t7l, i32 0, i32 0) }, %struct.huffcodetab { i32 6, i32 0, i16* getelementptr inbounds ([36 x i16], [36 x i16]* @t8HB, i32 0, i32 0), i8* getelementptr inbounds ([36 x i8], [36 x i8]* @t8l, i32 0, i32 0) }, %struct.huffcodetab { i32 6, i32 0, i16* getelementptr inbounds ([36 x i16], [36 x i16]* @t9HB, i32 0, i32 0), i8* getelementptr inbounds ([36 x i8], [36 x i8]* @t9l, i32 0, i32 0) }, %struct.huffcodetab { i32 8, i32 0, i16* getelementptr inbounds ([64 x i16], [64 x i16]* @t10HB, i32 0, i32 0), i8* getelementptr inbounds ([64 x i8], [64 x i8]* @t10l, i32 0, i32 0) }, %struct.huffcodetab { i32 8, i32 0, i16* getelementptr inbounds ([64 x i16], [64 x i16]* @t11HB, i32 0, i32 0), i8* getelementptr inbounds ([64 x i8], [64 x i8]* @t11l, i32 0, i32 0) }, %struct.huffcodetab { i32 8, i32 0, i16* getelementptr inbounds ([64 x i16], [64 x i16]* @t12HB, i32 0, i32 0), i8* getelementptr inbounds ([64 x i8], [64 x i8]* @t12l, i32 0, i32 0) }, %struct.huffcodetab { i32 16, i32 0, i16* getelementptr inbounds ([256 x i16], [256 x i16]* @t13HB, i32 0, i32 0), i8* getelementptr inbounds ([256 x i8], [256 x i8]* @t13l, i32 0, i32 0) }, %struct.huffcodetab { i32 0, i32 0, i16* null, i8* getelementptr inbounds ([256 x i8], [256 x i8]* @t16_5l, i32 0, i32 0) }, %struct.huffcodetab { i32 16, i32 0, i16* getelementptr inbounds ([256 x i16], [256 x i16]* @t15HB, i32 0, i32 0), i8* getelementptr inbounds ([256 x i8], [256 x i8]* @t15l, i32 0, i32 0) }, %struct.huffcodetab { i32 1, i32 1, i16* getelementptr inbounds ([256 x i16], [256 x i16]* @t16HB, i32 0, i32 0), i8* getelementptr inbounds ([256 x i8], [256 x i8]* @t16l, i32 0, i32 0) }, %struct.huffcodetab { i32 2, i32 3, i16* getelementptr inbounds ([256 x i16], [256 x i16]* @t16HB, i32 0, i32 0), i8* getelementptr inbounds ([256 x i8], [256 x i8]* @t16l, i32 0, i32 0) }, %struct.huffcodetab { i32 3, i32 7, i16* getelementptr inbounds ([256 x i16], [256 x i16]* @t16HB, i32 0, i32 0), i8* getelementptr inbounds ([256 x i8], [256 x i8]* @t16l, i32 0, i32 0) }, %struct.huffcodetab { i32 4, i32 15, i16* getelementptr inbounds ([256 x i16], [256 x i16]* @t16HB, i32 0, i32 0), i8* getelementptr inbounds ([256 x i8], [256 x i8]* @t16l, i32 0, i32 0) }, %struct.huffcodetab { i32 6, i32 63, i16* getelementptr inbounds ([256 x i16], [256 x i16]* @t16HB, i32 0, i32 0), i8* getelementptr inbounds ([256 x i8], [256 x i8]* @t16l, i32 0, i32 0) }, %struct.huffcodetab { i32 8, i32 255, i16* getelementptr inbounds ([256 x i16], [256 x i16]* @t16HB, i32 0, i32 0), i8* getelementptr inbounds ([256 x i8], [256 x i8]* @t16l, i32 0, i32 0) }, %struct.huffcodetab { i32 10, i32 1023, i16* getelementptr inbounds ([256 x i16], [256 x i16]* @t16HB, i32 0, i32 0), i8* getelementptr inbounds ([256 x i8], [256 x i8]* @t16l, i32 0, i32 0) }, %struct.huffcodetab { i32 13, i32 8191, i16* getelementptr inbounds ([256 x i16], [256 x i16]* @t16HB, i32 0, i32 0), i8* getelementptr inbounds ([256 x i8], [256 x i8]* @t16l, i32 0, i32 0) }, %struct.huffcodetab { i32 4, i32 15, i16* getelementptr inbounds ([256 x i16], [256 x i16]* @t24HB, i32 0, i32 0), i8* getelementptr inbounds ([256 x i8], [256 x i8]* @t24l, i32 0, i32 0) }, %struct.huffcodetab { i32 5, i32 31, i16* getelementptr inbounds ([256 x i16], [256 x i16]* @t24HB, i32 0, i32 0), i8* getelementptr inbounds ([256 x i8], [256 x i8]* @t24l, i32 0, i32 0) }, %struct.huffcodetab { i32 6, i32 63, i16* getelementptr inbounds ([256 x i16], [256 x i16]* @t24HB, i32 0, i32 0), i8* getelementptr inbounds ([256 x i8], [256 x i8]* @t24l, i32 0, i32 0) }, %struct.huffcodetab { i32 7, i32 127, i16* getelementptr inbounds ([256 x i16], [256 x i16]* @t24HB, i32 0, i32 0), i8* getelementptr inbounds ([256 x i8], [256 x i8]* @t24l, i32 0, i32 0) }, %struct.huffcodetab { i32 8, i32 255, i16* getelementptr inbounds ([256 x i16], [256 x i16]* @t24HB, i32 0, i32 0), i8* getelementptr inbounds ([256 x i8], [256 x i8]* @t24l, i32 0, i32 0) }, %struct.huffcodetab { i32 9, i32 511, i16* getelementptr inbounds ([256 x i16], [256 x i16]* @t24HB, i32 0, i32 0), i8* getelementptr inbounds ([256 x i8], [256 x i8]* @t24l, i32 0, i32 0) }, %struct.huffcodetab { i32 11, i32 2047, i16* getelementptr inbounds ([256 x i16], [256 x i16]* @t24HB, i32 0, i32 0), i8* getelementptr inbounds ([256 x i8], [256 x i8]* @t24l, i32 0, i32 0) }, %struct.huffcodetab { i32 13, i32 8191, i16* getelementptr inbounds ([256 x i16], [256 x i16]* @t24HB, i32 0, i32 0), i8* getelementptr inbounds ([256 x i8], [256 x i8]* @t24l, i32 0, i32 0) }, %struct.huffcodetab { i32 0, i32 0, i16* getelementptr inbounds ([16 x i16], [16 x i16]* @t32HB, i32 0, i32 0), i8* getelementptr inbounds ([16 x i8], [16 x i8]* @t32l, i32 0, i32 0) }, %struct.huffcodetab { i32 0, i32 0, i16* getelementptr inbounds ([16 x i16], [16 x i16]* @t33HB, i32 0, i32 0), i8* getelementptr inbounds ([16 x i8], [16 x i8]* @t33l, i32 0, i32 0) }], align 16
@largetbl = hidden constant [256 x i32] [i32 65540, i32 327685, i32 458759, i32 589832, i32 655369, i32 655370, i32 720906, i32 720907, i32 786443, i32 786444, i32 786444, i32 851980, i32 851980, i32 851980, i32 917517, i32 655370, i32 262149, i32 393222, i32 524295, i32 589832, i32 655369, i32 720906, i32 720906, i32 720907, i32 786443, i32 786443, i32 786444, i32 851980, i32 917516, i32 851980, i32 917516, i32 655370, i32 458759, i32 524295, i32 589832, i32 655369, i32 720905, i32 720906, i32 786442, i32 786443, i32 851979, i32 786443, i32 851979, i32 851980, i32 851980, i32 917516, i32 917517, i32 720905, i32 589832, i32 589832, i32 655369, i32 720905, i32 720906, i32 786442, i32 786442, i32 786443, i32 851979, i32 851979, i32 917515, i32 917516, i32 917516, i32 983052, i32 983052, i32 786441, i32 655369, i32 655369, i32 720905, i32 720906, i32 786442, i32 786442, i32 851978, i32 851979, i32 851979, i32 917515, i32 917516, i32 917516, i32 983052, i32 983052, i32 983053, i32 720905, i32 655370, i32 655369, i32 720906, i32 720906, i32 786442, i32 851978, i32 851979, i32 917515, i32 851979, i32 917515, i32 917516, i32 983052, i32 983052, i32 983052, i32 1048588, i32 786441, i32 720906, i32 720906, i32 720906, i32 786442, i32 851978, i32 851979, i32 851979, i32 851979, i32 917515, i32 917516, i32 917516, i32 917516, i32 983052, i32 983052, i32 1048589, i32 786441, i32 720907, i32 720906, i32 786442, i32 786442, i32 851979, i32 851979, i32 851979, i32 917515, i32 917516, i32 983052, i32 983052, i32 983052, i32 983052, i32 1114125, i32 1114125, i32 786442, i32 720907, i32 786443, i32 786443, i32 851979, i32 851979, i32 851979, i32 917515, i32 917515, i32 983051, i32 983052, i32 983052, i32 983052, i32 1048588, i32 1048589, i32 1048589, i32 786442, i32 786443, i32 786443, i32 786443, i32 851979, i32 851979, i32 917515, i32 917515, i32 983052, i32 983052, i32 983052, i32 983052, i32 1048588, i32 983053, i32 1048589, i32 983053, i32 851978, i32 786444, i32 851979, i32 786443, i32 851979, i32 917515, i32 917516, i32 917516, i32 917516, i32 983052, i32 1048588, i32 1048588, i32 1048589, i32 1114125, i32 1114125, i32 1048589, i32 786442, i32 851980, i32 851980, i32 851979, i32 851979, i32 917515, i32 917516, i32 983052, i32 1048588, i32 1048588, i32 1048588, i32 1048588, i32 1048589, i32 1048589, i32 983053, i32 1048589, i32 851978, i32 851980, i32 917516, i32 917516, i32 917516, i32 917516, i32 983052, i32 983052, i32 983052, i32 983052, i32 1114124, i32 1048589, i32 1048589, i32 1048589, i32 1048589, i32 1179661, i32 851978, i32 983052, i32 917516, i32 917516, i32 917516, i32 983052, i32 983052, i32 1048588, i32 1048588, i32 1048589, i32 1179661, i32 1114125, i32 1114125, i32 1114125, i32 1245197, i32 1114125, i32 851978, i32 917517, i32 983052, i32 851980, i32 917516, i32 1048588, i32 1048588, i32 983052, i32 1048589, i32 1048589, i32 1114125, i32 1179661, i32 1114125, i32 1245197, i32 1114125, i32 1048589, i32 851978, i32 655369, i32 655369, i32 655369, i32 720905, i32 720905, i32 786441, i32 786441, i32 786441, i32 851977, i32 851977, i32 851977, i32 851978, i32 851978, i32 851978, i32 851978, i32 655366], align 16
@table23 = hidden constant [9 x i32] [i32 65538, i32 262147, i32 458759, i32 262148, i32 327684, i32 458759, i32 393222, i32 458759, i32 524296], align 16
@table56 = hidden constant [16 x i32] [i32 65539, i32 262148, i32 458758, i32 524296, i32 262148, i32 327684, i32 524294, i32 589831, i32 458757, i32 524294, i32 589831, i32 655368, i32 524295, i32 524295, i32 589832, i32 655369], align 16
@bitrate_table = hidden constant [3 x [16 x i32]] [[16 x i32] [i32 0, i32 8, i32 16, i32 24, i32 32, i32 40, i32 48, i32 56, i32 64, i32 80, i32 96, i32 112, i32 128, i32 144, i32 160, i32 -1], [16 x i32] [i32 0, i32 32, i32 40, i32 48, i32 56, i32 64, i32 80, i32 96, i32 112, i32 128, i32 160, i32 192, i32 224, i32 256, i32 320, i32 -1], [16 x i32] [i32 0, i32 8, i32 16, i32 24, i32 32, i32 40, i32 48, i32 56, i32 64, i32 -1, i32 -1, i32 -1, i32 -1, i32 -1, i32 -1, i32 -1]], align 16
@samplerate_table = hidden constant [3 x [4 x i32]] [[4 x i32] [i32 22050, i32 24000, i32 16000, i32 -1], [4 x i32] [i32 44100, i32 48000, i32 32000, i32 -1], [4 x i32] [i32 11025, i32 12000, i32 8000, i32 -1]], align 16
@scfsi_band = hidden constant [5 x i32] [i32 0, i32 6, i32 11, i32 16, i32 21], align 16

; Function Attrs: noinline nounwind optnone
define hidden i32 @lame_get_bitrate(i32 %mpeg_version, i32 %table_index) #0 {
entry:
  %retval = alloca i32, align 4
  %mpeg_version.addr = alloca i32, align 4
  %table_index.addr = alloca i32, align 4
  store i32 %mpeg_version, i32* %mpeg_version.addr, align 4
  store i32 %table_index, i32* %table_index.addr, align 4
  %0 = load i32, i32* %mpeg_version.addr, align 4
  %cmp = icmp sle i32 0, %0
  br i1 %cmp, label %land.lhs.true, label %if.end7

land.lhs.true:                                    ; preds = %entry
  %1 = load i32, i32* %mpeg_version.addr, align 4
  %cmp1 = icmp sle i32 %1, 2
  br i1 %cmp1, label %if.then, label %if.end7

if.then:                                          ; preds = %land.lhs.true
  %2 = load i32, i32* %table_index.addr, align 4
  %cmp2 = icmp sle i32 0, %2
  br i1 %cmp2, label %land.lhs.true3, label %if.end

land.lhs.true3:                                   ; preds = %if.then
  %3 = load i32, i32* %table_index.addr, align 4
  %cmp4 = icmp sle i32 %3, 15
  br i1 %cmp4, label %if.then5, label %if.end

if.then5:                                         ; preds = %land.lhs.true3
  %4 = load i32, i32* %mpeg_version.addr, align 4
  %arrayidx = getelementptr inbounds [3 x [16 x i32]], [3 x [16 x i32]]* @bitrate_table, i32 0, i32 %4
  %5 = load i32, i32* %table_index.addr, align 4
  %arrayidx6 = getelementptr inbounds [16 x i32], [16 x i32]* %arrayidx, i32 0, i32 %5
  %6 = load i32, i32* %arrayidx6, align 4
  store i32 %6, i32* %retval, align 4
  br label %return

if.end:                                           ; preds = %land.lhs.true3, %if.then
  br label %if.end7

if.end7:                                          ; preds = %if.end, %land.lhs.true, %entry
  store i32 -1, i32* %retval, align 4
  br label %return

return:                                           ; preds = %if.end7, %if.then5
  %7 = load i32, i32* %retval, align 4
  ret i32 %7
}

; Function Attrs: noinline nounwind optnone
define hidden i32 @lame_get_samplerate(i32 %mpeg_version, i32 %table_index) #0 {
entry:
  %retval = alloca i32, align 4
  %mpeg_version.addr = alloca i32, align 4
  %table_index.addr = alloca i32, align 4
  store i32 %mpeg_version, i32* %mpeg_version.addr, align 4
  store i32 %table_index, i32* %table_index.addr, align 4
  %0 = load i32, i32* %mpeg_version.addr, align 4
  %cmp = icmp sle i32 0, %0
  br i1 %cmp, label %land.lhs.true, label %if.end7

land.lhs.true:                                    ; preds = %entry
  %1 = load i32, i32* %mpeg_version.addr, align 4
  %cmp1 = icmp sle i32 %1, 2
  br i1 %cmp1, label %if.then, label %if.end7

if.then:                                          ; preds = %land.lhs.true
  %2 = load i32, i32* %table_index.addr, align 4
  %cmp2 = icmp sle i32 0, %2
  br i1 %cmp2, label %land.lhs.true3, label %if.end

land.lhs.true3:                                   ; preds = %if.then
  %3 = load i32, i32* %table_index.addr, align 4
  %cmp4 = icmp sle i32 %3, 3
  br i1 %cmp4, label %if.then5, label %if.end

if.then5:                                         ; preds = %land.lhs.true3
  %4 = load i32, i32* %mpeg_version.addr, align 4
  %arrayidx = getelementptr inbounds [3 x [4 x i32]], [3 x [4 x i32]]* @samplerate_table, i32 0, i32 %4
  %5 = load i32, i32* %table_index.addr, align 4
  %arrayidx6 = getelementptr inbounds [4 x i32], [4 x i32]* %arrayidx, i32 0, i32 %5
  %6 = load i32, i32* %arrayidx6, align 4
  store i32 %6, i32* %retval, align 4
  br label %return

if.end:                                           ; preds = %land.lhs.true3, %if.then
  br label %if.end7

if.end7:                                          ; preds = %if.end, %land.lhs.true, %entry
  store i32 -1, i32* %retval, align 4
  br label %return

return:                                           ; preds = %if.end7, %if.then5
  %7 = load i32, i32* %retval, align 4
  ret i32 %7
}

attributes #0 = { noinline nounwind optnone "correctly-rounded-divide-sqrt-fp-math"="false" "disable-tail-calls"="false" "frame-pointer"="none" "less-precise-fpmad"="false" "min-legal-vector-width"="0" "no-infs-fp-math"="false" "no-jump-tables"="false" "no-nans-fp-math"="false" "no-signed-zeros-fp-math"="false" "no-trapping-math"="true" "stack-protector-buffer-size"="8" "target-cpu"="generic" "unsafe-fp-math"="false" "use-soft-float"="false" }

!llvm.module.flags = !{!0}
!llvm.ident = !{!1}

!0 = !{i32 1, !"wchar_size", i32 4}
!1 = !{!"clang version 11.0.0 (/b/s/w/ir/cache/git/chromium.googlesource.com-external-github.com-llvm-llvm--project 613c4a87ba9bb39d1927402f4dd4c1ef1f9a02f7)"}
